name="MEIOU and Taxes Bookmarks Module v1.0"
path="mod/MEIOUandTaxesBookmarks"
picture="MEIOUandTaxesBM.jpg"
supported_version="1.15"
dependencies={
	"MEIOU and Taxes 1.23"
}
tags={
	"MEIOU and Taxes"
}
