name="M&T American Dream DLC Support v1.0"
path="mod/MEIOUandTaxes_amd_unit_DLC_support"
picture="MEIOUandTaxesAR.jpg"
supported_version="1.15"
dependencies={
	"MEIOU and Taxes 1.23"
}
tags={
	"MEIOU and Taxes"
}
