name="M&T Muslim Ships Unit DLC Support v2.0"
path="mod/MEIOUandTaxes_wonms_unit_DLC_support"
picture="MEIOUandTaxesMS.jpg"
supported_version="1.15"
dependencies={
	"MEIOU and Taxes 1.23"
}
tags={
	"MEIOU and Taxes"
}
