name="M&T Trade Nations Unit DLC Support v1.0"
path="mod/MEIOUandTaxes_wonup_unit_DLC_support"
picture="MEIOUandTaxesTN.jpg"
supported_version="1.15"
dependencies={
	"MEIOU and Taxes 1.23"
}
tags={
	"MEIOU and Taxes"
}
