name="M&T Native Americans I Unit DLC Support v2.0"
path="mod/MEIOUandTaxes_naupa_unit_DLC_support"
picture="MEIOUandTaxesNAN.jpg"
supported_version="1.15"
dependencies={
	"MEIOU and Taxes 1.23"
}
tags={
	"MEIOU and Taxes"
}
