name="MEIOU and Taxes x768 Resolution Fix v2.1"
path="mod/MEIOUandTaxes768"
picture="MEIOUandTaxes768.jpg"
supported_version = "1.15"
dependencies={
	"MEIOU and Taxes 1.23"
}
tags={
	"MEIOU and Taxes"
}
