name="MEIOU and Taxes North America Natives Module v2.0"
path="mod/MEIOUandTaxesNatives"
picture="MEIOUandTaxes6.jpg"
supported_version="1.15"
dependencies={
	"MEIOU and Taxes 1.23"
}
tags={
	"MEIOU and Taxes"
}
