name = "M&T Social Class System (for testing)"
path = "mod/MEIOUandTaxes Social Class System"
supported_version = "1.13"
dependencies= { "MEIOU and Taxes 1.17 (8-Dec-2014)" }

tags={
	"MEIOU and Taxes"
	"Balance"
	"Events"
}

