name="MEIOU and Taxes PLAYER AI HANDICAP"
path="mod/MEIOUandTaxes_Handicap_Submod"
picture="MEIOUandTaxes6.jpg"
dependencies=
{
	"MEIOU and Taxes 1.20"
}
supported_version = "1.14"
tags={
	"MEIOU and Taxes"
}
