name="M&T Catholic Majors DLC Support v1.0"
path="mod/MEIOUandTaxes_catmaj_unit_DLC_support"
picture="MEIOUandTaxesTYW.jpg"
supported_version="1.15"
dependencies={
	"MEIOU and Taxes 1.23"
}
tags={
	"MEIOU and Taxes"
}
