peasant_war = {
	potential = {
		government = monarchy
		NOT = { government = celestial_empire }
		NOT = { government = steppe_horde }		
		uses_doom = no
		num_of_cities = 5
		NOT = { has_country_flag = had_peasant_war }
		NOT = { is_year = 1600 }
	}
	
	
	can_start = {
		is_at_war = no
		has_any_disaster = no
		NOT = { manpower_percentage = 0.25 }
	}
	
	can_stop = {
		OR = {
			has_any_disaster = yes
			manpower_percentage = 0.50
		}
	}
	
	progress = {
		modifier = {
			factor = 1
			war_exhaustion = 10
			is_at_war = no
		}
		modifier = {
			factor = 1
			NOT = { stability = 1 }
			is_at_war = no
		}		
		modifier = {
			factor = 1.5
			NOT = { legitimacy = 50 }
			is_at_war = no
		} 
		modifier = {
			factor = 1
			num_of_loans = 10
			is_at_war = no
		}	
		modifier = {
			factor = 2
			is_bankrupt = yes
			is_at_war = no
		}		
		modifier = {
			factor = 0.5
			overextension_percentage = 0.25
			NOT = { 
				overextension_percentage = 0.5
			}
			is_at_war = no
		}
		modifier = {
			factor = 1.0
			overextension_percentage = 0.5
			is_at_war = no
		}
	}
	
	can_end = {
		NOT = { num_of_revolts = 1 }
		stability = 1
		#TODO, trigger on support for antitax rebels
	}
	

	modifier = {
		global_unrest = 5
		stability_cost_modifier = 0.50
		development_cost = 1
	}	
	
	
	on_start = peasants_war.1
	on_end = peasants_war.6
	
	on_monthly = {
		events = {
	
		}
		random_events = { 
			1000 = 0
			100 = peasants_war.2
			100 = peasants_war.3
			100 = peasants_war.4
			100 = peasants_war.5
		
		}
	}
}