california_node={
	location=871
	color={
203 144 10 	}
	outgoing={
		name="e_siberia_node"
		path={
			1658 1784 1787 1770 2019 1978 1975 1044 3255 1059 1062 
		}
		control={
			852.000000 1556.000000 840.000000 1653.000000 715.000000 1792.000000 515.000000 1919.000000 322.000000 1815.000000 22.000000 1729.000000 5173.000000 1514.000000 5136.000000 1618.000000 5035.000000 1696.000000 5019.000000 1732.000000 4989.000000 1748.000000 4964.000000 1747.000000 4960.000000 1746.000000 4951.000000 1752.000000 4952.000000 1758.000000 4938.000000 1770.000000 4935.000000 1777.000000 4938.000000 1785.000000 4942.000000 1787.000000 4941.000000 1800.000000 4944.000000 1802.000000 4946.000000 1814.000000 4952.000000 1831.000000 4951.000000 1838.000000 4950.000000 1849.000000 4945.000000 1844.000000 4937.000000 1844.000000 4924.000000 1857.000000 4917.000000 1856.000000 4915.000000 1863.000000 4901.000000 1865.000000 4898.000000 1863.000000 4885.000000 1863.000000 4875.000000 1862.000000 4851.000000 1866.000000 4844.000000 1866.000000 4852.000000 1836.000000 4850.000000 1819.000000 4835.000000 1809.000000 4813.000000 1804.000000 4806.000000 1800.000000 4784.000000 1800.000000 4753.000000 1789.000000 4726.000000 1790.000000 4702.000000 1779.000000 4676.000000 1775.000000 4668.000000 1765.000000 4658.000000 1764.000000 4613.000000 1785.000000 4593.000000 1773.000000 4580.000000 1769.000000 4572.000000 1758.000000 4575.000000 1753.000000 4573.000000 1744.000000 4567.000000 1740.000000 4563.000000 1734.000000 4553.000000 1734.000000 4546.000000 1738.000000 4533.000000 1738.000000 4531.000000 1729.000000 4520.000000 1727.000000 4502.000000 1713.000000 4469.000000 1694.000000 4471.000000 1686.000000 4464.000000 1671.000000 4459.000000 1661.000000 4469.000000 1644.000000 4479.000000 1643.000000 4483.000000 1640.000000 4496.000000 1639.000000 4501.000000 1641.000000 4510.000000 1636.000000 4499.000000 1624.000000 4490.000000 1621.000000 
		}
	}
	outgoing={
		name="mexico_node"
		path={
			1658 1657 1656 1654 864 883 2641 855 2404 2405 1471 
		}
		control={
			889.000000 1492.000000 958.000000 1400.000000 1036.000000 1295.000000 1124.000000 1238.000000 1173.000000 1264.000000 1201.000000 1261.000000 1206.000000 1245.000000 1224.000000 1245.000000 1247.000000 1248.000000 1257.000000 1231.000000 
		}
	}
	outgoing={
		name="plains_node"
		path={
			3688 2465 889 3550 896 
		}
		control={
			908.000000 1506.000000 923.000000 1481.000000 959.000000 1457.000000 986.000000 1438.000000 1009.000000 1422.000000 1058.000000 1417.000000 1093.000000 1417.000000 1135.000000 1429.000000 1164.000000 1434.000000 1180.000000 1442.000000 1200.000000 1437.000000 1215.000000 1451.000000 
		}
	}
	members={
		867 868 869 870 871 872 873 874 875 876 878 972 975 977 978 979 1465 1530 1735 1821 1822 1823 1824 2167 2184 2185 2186 2188 2189 2190 2191 2192 2193 2194 2199 2469 2470 3667 3668 3669 3670 3671 3672 3673 3674 3675 3676 3677 3678 3679 3680 3681 3682 3683 3684 3685 3686 3687 3688 3689 3690 
	}
}
pacific_node={
	location=1836
	outgoing={
		name="lima_node"
		path={
			1840 1814 1811 1805 1646 
		}
		control={
			548.000000 519.000000 1016.000000 485.000000 1194.000000 603.000000 1387.000000 641.000000 
		}
	}
	outgoing={
		name="australia_node"
		path={
			1827 2009 1766 2006 2007 
		}
		control={
			86.000000 491.000000 5530.000000 430.000000 5389.000000 363.000000 5270.000000 290.000000 
		}
	}
	members={
		513 506 1097 1230 1231 1232 1233 1235 1240 1241 1242 1243 1244 1246 1341 1836 2151 2527 2587 2608 4012 4013 4014 
	}
}
australia_node={
	location=2128
	outgoing={
		name="jakarta_node"
		path={
			2006 2001 2002 1948 
		}
		control={
			5211.000000 220.000000 5226.000000 280.000000 5218.000000 317.000000 5218.000000 346.000000 5207.000000 347.000000 5187.000000 361.000000 5175.000000 382.000000 5159.000000 392.000000 5152.000000 413.000000 5112.000000 439.000000 5086.000000 506.000000 5072.000000 514.000000 5061.000000 545.000000 5038.000000 577.000000 5016.000000 580.000000 4963.000000 588.000000 4876.000000 623.000000 4828.000000 626.000000 4795.000000 615.000000 4771.000000 608.000000 4746.000000 609.000000 4674.000000 607.000000 4638.390137 609.150024 4618.000000 630.000000 4578.000000 631.000000 4545.000000 639.000000 4527.000000 634.000000 4485.000000 646.000000 4471.000000 637.000000 
		}
	}
	outgoing={
		name="cape_node"
		path={
			2007 1860 2022 1740 1732 1729 2036 2037 
		}
		control={
			5211.000000 191.000000 5173.000000 117.000000 5131.359863 93.660004 5063.000000 93.000000 4997.000000 116.000000 4930.000000 159.000000 4877.000000 209.000000 4764.000000 181.000000 4637.000000 151.000000 4260.000000 216.000000 3747.000000 272.000000 3548.000000 257.000000 3323.000000 214.000000 3234.000000 174.000000 3170.000000 173.000000 3128.000000 165.000000 3106.000000 171.000000 
		}
	}
	members={
		650 773 799 810 817 822 1084 1085 1086 1087 1088 1090 1091 1092 1093 1094 1106 1107 1108 1109 1237 1236 1238 1239 1249 1342 2123 2126 2127 2128 2129 2130 2131 2132 2133 2134 2135 2136 2138 2139 2140 2146 2585 2588 2589 2590 2610 3343 3344 4081 2516 2517 
	}
}
manchuria_node={
	location=731
	color={
68 40 22 	}
	outgoing={
		name="beijing_node"
		path={
			2248 706 
		}
		control={
			4795.000000 1412.000000 4796.000000 1402.000000 4787.000000 1392.000000 4782.000000 1390.000000 4777.000000 1387.000000 4769.000000 1382.000000 4758.000000 1373.000000 4740.000000 1359.000000 4708.000000 1346.000000 4695.000000 1361.000000 4664.000000 1349.000000 
		}
	}
	outgoing={
		name="e_siberia_node"
		path={
			719 1059 1060 
		}
		control={
			4802.000000 1447.000000 4794.000000 1460.000000 4781.000000 1462.000000 4770.000000 1467.000000 4761.000000 1465.000000 4754.000000 1473.000000 4749.000000 1481.000000 4743.000000 1479.000000 4709.000000 1477.000000 4692.000000 1441.000000 4662.000000 1442.000000 4644.000000 1475.000000 4623.000000 1489.000000 4603.000000 1507.000000 4597.000000 1519.000000 4587.000000 1518.000000 4571.000000 1514.000000 4556.000000 1510.000000 4529.000000 1496.000000 4517.000000 1498.000000 4509.000000 1521.000000 4469.000000 1523.000000 4453.000000 1548.000000 4439.000000 1565.000000 4425.000000 1585.000000 4432.000000 1598.000000 4468.000000 1610.000000 
		}
	}
	outgoing={
		name="nagasaki_node"
		path={
			732 734 1970 1983 1020 
		}
		control={
			4795.000000 1412.000000 4796.000000 1402.000000 4787.000000 1392.000000 4782.000000 1390.000000 4777.000000 1387.000000 4769.000000 1382.000000 4758.000000 1373.000000 4754.000000 1352.000000 4785.000000 1308.000000 4784.000000 1271.000000 4811.000000 1261.000000 4826.000000 1240.000000 4843.000000 1241.000000 
		}
	}
	members={
		723 725 726 727 728 729 730 731 732 1047 1048 1049 1050 1052 1058 2328 2800 3241 3242 3243 3244 3245 3246 3247 3248 3249 3250 3251 3252 3253 3254 3255 3256 3258 4031 4032 4033 
	}
}
e_siberia_node={
	location=1062
	color={
119 118 190 	}
	inland=yes
	outgoing={
		name="w_siberia_node"
		path={
			1064 1065 1067 1069 
		}
		control={
			4433.000000 1637.000000 4370.000000 1645.000000 4326.000000 1654.000000 4267.000000 1657.000000 4228.000000 1664.000000 4199.000000 1662.000000 4163.000000 1655.000000 4146.000000 1661.000000 4134.000000 1658.000000 4116.000000 1663.000000 4087.000000 1665.000000 4010.000000 1676.000000 
		}
	}
	outgoing={
		name="mongolia_node"
		path={
			2271 715 
		}
		control={
			4439.000000 1612.000000 4396.000000 1600.000000 4381.000000 1585.000000 4373.000000 1570.000000 4367.000000 1552.000000 4355.000000 1539.000000 4337.000000 1536.000000 4333.000000 1522.000000 
		}
	}
	members={
		1034 1035 1036 1037 1038 1039 1040 1044 1045 1051 1054 1055 1056 1059 1060 1062 1063 1064 1065 2154 2155 2156 2157 2158 2447 2455 4193 4194 4195 4196 4197 
	}
}
mongolia_node={
	location=715
	color={
108 153 65 	}
	outgoing={
		name="beijing_node"
		path={
			2273 717 718 2265 709 708 
		}
		control={
			4345.000000 1486.000000 4379.000000 1476.000000 4425.000000 1481.000000 4465.000000 1505.000000 4504.000000 1514.000000 4515.000000 1508.000000 4517.000000 1498.000000 4529.000000 1496.000000 4537.000000 1497.000000 4565.000000 1481.000000 4580.000000 1465.000000 4568.000000 1432.000000 4570.000000 1415.000000 4581.000000 1397.000000 4595.330078 1391.339966 4622.000000 1381.000000 4635.000000 1373.000000 4638.000000 1366.000000 4647.000000 1363.000000 4655.000000 1357.000000 4657.000000 1352.000000 
		}
	}
	outgoing={
		name="w_siberia_node"
		path={
			2270 480 
		}
		control={
			4288.000000 1515.000000 4265.000000 1528.000000 4247.000000 1527.000000 4228.000000 1546.000000 4211.000000 1563.000000 4189.000000 1565.000000 4156.000000 1575.000000 4130.000000 1598.000000 4130.000000 1611.000000 4123.000000 1616.000000 4127.000000 1621.000000 4129.000000 1635.000000 4116.000000 1636.000000 4111.000000 1639.000000 4106.000000 1631.000000 4094.000000 1636.000000 4094.000000 1639.000000 4090.000000 1642.000000 4097.000000 1651.000000 4114.000000 1662.000000 4087.000000 1665.000000 4010.000000 1676.000000 
		}
	}
	outgoing={
		name="samarkand_node"
		path={
			2269 3306 2232 
		}
		control={
			4288.000000 1494.000000 4186.000000 1506.000000 4148.000000 1480.000000 4119.000000 1467.000000 4094.000000 1479.000000 3963.000000 1455.000000 3942.000000 1441.000000 3920.000000 1442.000000 3905.000000 1440.000000 3897.000000 1442.000000 3887.000000 1440.000000 3880.000000 1445.000000 3864.000000 1449.000000 3859.000000 1440.000000 3869.000000 1429.000000 3872.000000 1422.000000 3869.000000 1413.000000 3869.000000 1407.000000 3873.000000 1400.000000 3868.000000 1382.000000 3863.000000 1371.000000 
		}
	}
	members={
		715 717 718 719 720 721 722 1057 1061 2253 2267 2269 2270 2271 2273 3257 3259 3260 3261 3262 3264 3265 3266 3267 3268 3269 3270 3271 3272 3273 3274 3276 4039 4198 
	}
}
xian_node={
	location=2252
	color={
140 183 154 	}
	inland=yes
	outgoing={
		name="samarkand_node"
		path={
			2258 739 
		}
		control={
			4484.000000 1283.000000 4466.000000 1319.000000 4419.000000 1345.000000 4364.000000 1370.000000 4289.000000 1381.000000 4237.000000 1385.000000 4174.000000 1400.000000 4142.000000 1395.000000 4084.000000 1391.000000 4046.000000 1379.000000 4020.000000 1364.000000 3994.000000 1348.000000 3964.000000 1356.000000 3950.000000 1365.000000 3924.000000 1361.000000 3913.000000 1364.000000 3899.000000 1360.000000 3887.000000 1360.000000 
		}
	}
	outgoing={
		name="yangtze_delta_node"
		path={
			2252 2605 690 1068 694 
		}
		control={
			4532.000000 1267.000000 4549.000000 1260.000000 4570.000000 1257.000000 4597.000000 1245.000000 4602.000000 1243.000000 4616.000000 1243.000000 4627.000000 1249.000000 4637.000000 1247.000000 4645.000000 1255.000000 4656.000000 1255.000000 4663.000000 1260.000000 4672.000000 1256.000000 4679.000000 1258.000000 4683.000000 1246.000000 4687.000000 1242.000000 4692.000000 1237.000000 4698.000000 1238.000000 4704.000000 1235.000000 4712.000000 1236.000000 4728.000000 1229.000000 4725.000000 1214.000000 
		}
	}
	outgoing={
		name="beijing_node"
		path={
			2252 2247 704 705 
		}
		control={
			4518.000000 1271.000000 4522.000000 1273.000000 4531.000000 1276.000000 4539.000000 1277.000000 4547.000000 1277.000000 4565.000000 1285.000000 4578.000000 1284.000000 4592.000000 1285.000000 4603.000000 1283.000000 4616.000000 1293.000000 4632.000000 1309.000000 4643.000000 1317.000000 4654.000000 1322.000000 4670.000000 1334.000000 4676.000000 1333.000000 4682.000000 1334.000000 4675.000000 1345.000000 
		}
	}
	members={
		660 664 665 666 667 685 739 740 1043 1143 1337 2083 2118 2119 2120 2122 2162 2170 2251 2252 2254 2255 2256 2257 2258 2259 2260 2261 2262 2263 2264 2268 2456 2457 2458 2463 2510 2740 2741 2743 2745 2746 2747 2748 2793 2797 3207 3208 3209 3210 3211 3213 3275 4091 
	}
}
lima_node={
	location=816
	color={
124 140 162 	}
	outgoing={
		name="la_plata_node"
		path={
			2067 2340 2343 2345 794 791 790 778 
		}
		control={
			1624.000000 741.000000 1644.000000 739.000000 1654.000000 725.000000 1660.000000 719.000000 1662.000000 712.000000 1671.000000 705.000000 1685.000000 709.000000 1707.000000 685.000000 1714.000000 674.000000 1729.000000 661.000000 1751.000000 647.000000 1789.000000 630.000000 1796.000000 626.000000 1799.000000 628.000000 1807.000000 625.000000 1813.000000 619.000000 1821.000000 621.000000 1824.000000 624.000000 1837.000000 605.000000 1893.000000 582.000000 1907.000000 563.000000 1920.000000 535.000000 1913.000000 520.000000 1914.000000 514.000000 1896.000000 488.000000 1894.000000 479.000000 1890.000000 473.000000 1881.000000 448.000000 1883.000000 441.000000 1878.000000 428.000000 1869.000000 415.000000 1864.000000 408.000000 1868.000000 391.000000 1879.000000 381.000000 1897.000000 375.000000 1901.000000 369.000000 
		}
	}
	outgoing={
		name="cartagena_node"
		path={
			819 813 815 818 792 1475 826 835 
		}
		control={
			1604.000000 741.000000 1595.000000 757.000000 1587.000000 773.000000 1574.000000 795.000000 1560.000000 821.000000 1554.000000 844.000000 1560.000000 858.000000 1566.000000 873.000000 1564.000000 885.000000 1572.000000 890.000000 1589.000000 897.000000 1607.000000 925.000000 1618.000000 939.000000 1630.000000 952.000000 1629.000000 960.000000 1634.000000 965.000000 1635.000000 969.000000 1644.000000 982.000000 1647.000000 999.000000 1650.000000 1011.000000 1656.000000 1020.000000 1657.000000 1033.000000 1661.000000 1040.000000 1657.000000 1052.000000 1647.000000 1058.000000 1643.000000 1068.000000 1638.000000 1074.000000 
		}
	}
	members={
		784 787 792 793 795 796 797 798 800 801 802 803 804 806 807 808 809 811 812 813 814 815 816 818 819 820 821 823 824 1476 1491 2065 2066 2067 2068 2069 2070 2338 2339 2340 2341 2342 2343 2344 2345 2346 2347 2348 2349 2350 2351 2459 2460 3402 3403 3404 3405 3406 3407 3408 3409 3410 3411 3412 3413 3414 3415 3416 3417 3418 3419 3420 3421 3422 3423 3424 3425 3426 3427 3428 3429 3430 3431 3432 3433 3434 3435 3436 3437 3438 3439 3440 3441 3442 3443 3444 3445 3506 
	}
}
la_plata_node={
	location=778
	color={
101 102 163 	}
	outgoing={
		name="brazil_node"
		path={
			1637 1636 761 
		}
		control={
			2035.000000 399.000000 2103.000000 506.000000 
		}
	}
	outgoing={
		name="sevilla_node"
		path={
			1637 1636 761 1635 1634 1686 2048 2049 2050 1886 230 
		}
		control={
			2035.000000 399.000000 2103.000000 506.000000 2135.000000 559.000000 2192.000000 563.000000 2237.000000 678.000000 2397.000000 808.000000 2485.000000 1021.000000 2563.000000 1172.000000 2614.000000 1255.000000 2657.000000 1315.000000 
		}
	}
	members={
		771 772 774 775 776 778 779 780 781 782 783 785 786 788 789 790 791 794 1095 1486 1487 1488 2609 3446 3447 3448 3449 3450 3451 3452 3453 3454 3455 4080 
	}
}
brazil_node={
	location=761
	color={
129 177 125 	}
	outgoing={
		name="lisboa_node"
		path={
			1635 1634 1686 2048 2049 2050 1886 230 
		}
		control={
			2138.000000 558.000000 2146.000000 552.000000 2177.000000 567.000000 2237.000000 678.000000 2292.000000 788.000000 2288.000000 851.000000 2412.000000 915.000000 2485.000000 1021.000000 2563.000000 1172.000000 2614.000000 1255.000000 2657.000000 1315.000000 
		}
	}
	members={
		742 748 749 750 751 752 753 754 755 756 757 758 759 760 761 762 763 764 765 766 767 768 769 770 1483 1484 1485 2071 2072 2074 2075 2076 2077 2079 2080 2081 2084 2087 2489 2495 2752 3456 3457 3458 3459 3460 3461 3462 3463 3464 3465 3466 3467 3468 3469 3470 3471 3472 3473 3474 3475 3476 3477 3478 3479 3480 3481 3482 3483 3484 3485 3486 3487 3488 3489 3490 3491 3492 3493 
	}
}
beijing_node={
	location=705
	color={
221 198 14 	}
	outgoing={
		name="yangtze_delta_node"
		path={
			724 698 696 2607 694 
		}
		control={
			4675.000000 1345.000000 4707.000000 1339.000000 4730.000000 1332.000000 4731.000000 1316.000000 4700.000000 1292.000000 4711.000000 1260.000000 4728.000000 1229.000000 4725.000000 1214.000000 
		}
	}
	outgoing={
		name="nagasaki_node"
		path={
			1969 1968 2276 1020 
		}
		control={
			4675.000000 1345.000000 4707.000000 1339.000000 4760.000000 1327.000000 4785.000000 1308.000000 4784.000000 1271.000000 4811.000000 1261.000000 4826.000000 1240.000000 4843.000000 1241.000000 
		}
	}
	members={
		697 698 699 700 702 703 704 705 706 707 708 709 713 724 1041 2148 2246 2247 2248 2249 2265 2266 2467 2468 2471 2491 2492 2476 2560 3240 3263 4035 4036 4037 4038 
	}
}
guangzhou_node={
	location=2121
	color={
161 139 40 	}
	outgoing={
		name="malacca_node"
		path={
			1964 1963 1961 1957 1955 
		}
		control={
			4594.000000 1076.000000 4591.000000 1067.000000 4559.000000 1033.000000 4548.000000 999.000000 4537.109863 948.770020 4520.000000 875.000000 4474.000000 836.000000 4449.000000 773.000000 4449.000000 745.000000 4431.000000 741.000000 4416.000000 752.000000 
		}
	}
	outgoing={
		name="manila_node"
		path={
			1965 1988 1989 2216 
		}
		control={
			4625.000000 1051.500000 4629.000000 970.000000 4684.000000 946.000000 
		}
	}
	outgoing={
		name="yangtze_delta_node"
		path={
			1965 1966 1967 694 
		}
		control={
			4616.000000 1068.000000 4662.000000 1091.000000 4700.000000 1128.000000 4729.000000 1182.000000 4723.000000 1207.000000 
		}
	}
	outgoing={
		name="hantawaddy_node"
		path={
			1964 2396 2729 2320 2422 601 2321 3218 2822 3215 
		}
		control={
			4526.000000 1028.000000 4459.000000 1021.000000 4432.000000 1026.000000 4424.000000 995.000000 4388.000000 984.000000 4376.000000 995.000000 4358.000000 986.000000 4353.000000 986.000000 4339.000000 993.000000 
		}
	}
	members={
		606 607 610 613 616 662 663 668 669 670 671 672 673 674 675 676 677 678 679 681 682 683 710 711 1758 1760 2073 2078 2082 2085 2086 2117 2121 2250 2317 2318 2325 2393 2394 2395 2396 2397 2418 2419 2462 2464 2486 2488 2730 2731 3229 3230 3314 3936 3937 3938 3939 4211 4214 
	}
}
tokyo_node={
	location=2293
	color={
101 5 37 	}
	outgoing={
		name="nagasaki_node"
		path={
			2290 2286 2283 2279 1032 1030 1029 1027 1020 
		}
		control={
			5001.000000 1292.000000 4996.000000 1281.000000 4983.000000 1273.000000 4968.000000 1269.000000 4942.000000 1249.000000 4919.000000 1249.000000 4899.000000 1239.000000 4877.000000 1228.000000 4865.000000 1216.000000 4854.000000 1214.000000 4841.000000 1229.000000 
		}
	}
	members={
		1019 1025 1033 2277 2279 2280 2281 2282 2283 2284 2285 2286 2287 2288 2289 2290 2291 2292 2293 2294 2295 2296 2297 2298 2299 2300 2301 2302 2435 2744 2796 3943 3944 3945 3946 3947 3948 3949 3950 3951 3952 3953 3954 3955 3956 3957 3958 3959 3960 3961 3973 3974 
	}
}
mexico_node={
	location=1471
	color={
18 100 11 	}
	outgoing={
		name="mississippi_node"
		path={
			2597 2598 1611 1610 921 928 
		}
		control={
			1271.000000 1229.000000 1285.000000 1235.000000 1310.000000 1275.000000 1309.000000 1322.000000 1334.000000 1356.000000 1419.000000 1361.000000 1421.000000 1388.000000 
		}
	}
	outgoing={
		name="caribbean_node"
		path={
			2597 2201 2644 1612 2415 846 2414 1615 1620 1618 1623 1625 
		}
		control={
			1268.000000 1227.000000 1280.000000 1231.000000 1292.000000 1243.000000 1319.000000 1225.000000 1360.000000 1218.000000 1391.000000 1255.000000 1428.000000 1265.000000 1467.000000 1254.000000 1498.000000 1247.000000 1517.000000 1262.000000 1530.000000 1256.000000 1557.000000 1249.000000 1589.000000 1234.000000 1595.000000 1206.000000 1605.000000 1202.000000 1625.000000 1200.000000 
		}
	}
	outgoing={
		name="nagasaki_node"
		path={
			1799 1983 1020 
		}
		control={
			1264.000000 1213.000000 1127.000000 1171.000000 383.000000 1070.000000 26.000000 1044.000000 26.000000 1044.000000 
		}
	}
	members={
		843 845 846 847 848 849 850 851 852 853 854 855 856 857 859 860 861 862 864 865 866 877 879 880 881 882 883 1463 1466 1467 1468 1469 1470 1471 1472 1474 1709 1710 1711 1733 1734 2166 2200 2201 2202 2203 2204 2205 2206 2207 2402 2403 2404 2405 2406 2407 2408 2409 2410 2411 2412 2413 2414 2415 2597 2598 2599 2600 2601 2602 2603 2638 2639 2640 2641 2642 2643 2644 2645 2647 2648 3511 3512 3513 3514 3515 3517 3519 3520 3521 3522 3523 3524 3525 3526 3527 3528 3529 3530 3531 3532 3533 3534 3535 3536 3537 3538 3539 3540 3541 3542 3543 3544 4040 4041 
	}
}
nagasaki_node={
	location=1020
	color={
15 17 221 	}
	outgoing={
		name="yangtze_delta_node"
		path={
			1967 694 
		}
		control={
			4843.000000 1241.000000 4794.000000 1220.000000 4732.000000 1211.000000 
		}
	}
	outgoing={
		name="manila_node"
		path={
			1013 1987 657 2216 
		}
		control={
			4841.000000 1229.000000 4844.000000 1193.000000 4817.000000 1148.000000 4779.000000 1118.000000 4723.000000 1089.000000 4709.000000 1053.000000 4703.000000 1030.000000 4688.000000 995.000000 4683.000000 969.000000 4691.000000 948.000000 4700.000000 946.000000 
		}
	}
	members={
		733 734 735 736 737 2233 2276 2278 1012 1013 1014 1015 1016 1017 1018 1020 1021 1022 1023 1024 1026 1027 1028 1029 1030 1031 1032 2801 2802 2803 2804 2805 2806 3962 3963 3964 3965 3966 3967 3968 3969 3970 3971 3972 
	}
}
yangtze_delta_node={
	location=694
	color={
152 85 92 	}
	outgoing={
		name="manila_node"
		path={
			2272 692 680 1053 679 1965 1988 1989 2216 
		}
		control={
			4708.000000 1195.000000 4694.000000 1170.000000 4682.000000 1146.000000 4670.000000 1123.000000 4646.000000 1115.000000 4625.000000 1051.500000 4629.000000 970.000000 4684.000000 946.000000 
		}
	}
	members={
		680 684 686 687 688 689 690 691 692 693 694 695 696 701 712 1046 1053 1068 1089 1172 2125 2141 2142 2144 2145 2147 2149 2150 2272 2303 2304 2305 2472 2477 2478 2480 2484 2485 2490 2493 2494 2605 2606 2607 2613 
	}
}
w_siberia_node={
	location=1071
	color={
119 190 118 	}
	inland=yes
	outgoing={
		name="moscow_node"
		path={
			1070 2442 1076 1082 2438 1307 2437 306 
		}
		control={
			3963.000000 1669.000000 3966.000000 1677.000000 3983.000000 1684.000000 3986.000000 1694.000000 3974.000000 1707.000000 3912.000000 1724.000000 3894.000000 1725.000000 3885.000000 1730.000000 3879.000000 1724.000000 3868.000000 1721.000000 3864.000000 1712.000000 3851.000000 1691.000000 3839.000000 1671.000000 3832.000000 1657.000000 3827.000000 1648.000000 3816.000000 1643.000000 3817.000000 1633.000000 3795.000000 1613.000000 3783.000000 1610.000000 3776.790039 1601.160034 3777.550049 1588.380005 3768.000000 1591.000000 3735.000000 1601.000000 3713.000000 1606.000000 3699.000000 1623.000000 3682.000000 1623.000000 3684.000000 1641.000000 3686.000000 1653.000000 3679.000000 1657.000000 3679.000000 1662.000000 3664.000000 1675.000000 3661.000000 1673.000000 3650.000000 1682.000000 3641.000000 1679.000000 3637.000000 1675.000000 3630.000000 1677.000000 3610.000000 1670.000000 3585.000000 1675.000000 3573.000000 1675.000000 3556.000000 1679.000000 3550.000000 1678.000000 3540.000000 1680.000000 3533.000000 1684.000000 3518.000000 1677.000000 3505.000000 1674.000000 3497.000000 1678.000000 3479.000000 1675.000000 3470.000000 1667.000000 3464.000000 1659.000000 3464.000000 1654.000000 3462.000000 1651.000000 3461.000000 1644.000000 3453.000000 1649.000000 3450.000000 1645.000000 3452.000000 1639.000000 3447.000000 1635.000000 3443.000000 1637.000000 3440.000000 1634.000000 3436.000000 1638.000000 3432.000000 1640.000000 3429.000000 1644.000000 3421.000000 1648.000000 3416.000000 1650.000000 3412.000000 1654.000000 
		}
	}
	outgoing={
		name="samarkand_node"
		path={
			3304 3295 
		}
		control={
			3968.000000 1663.000000 3982.000000 1659.000000 3985.000000 1650.000000 3991.000000 1645.000000 3991.000000 1635.000000 4001.000000 1624.000000 4015.000000 1609.000000 3994.000000 1557.000000 3986.000000 1508.000000 3962.000000 1485.000000 3953.000000 1453.000000 3942.000000 1441.000000 3920.000000 1442.000000 3905.000000 1440.000000 3897.000000 1442.000000 3887.000000 1440.000000 3880.000000 1445.000000 3864.000000 1449.000000 3859.000000 1440.000000 3869.000000 1429.000000 3872.000000 1422.000000 3869.000000 1413.000000 3869.000000 1407.000000 3873.000000 1400.000000 3868.000000 1382.000000 3863.000000 1371.000000 
		}
	}
	members={
		471 472 475 479 480 1066 1067 1069 1070 1071 1073 1074 1075 1076 1077 1078 1079 1081 1529 2152 2153 2442 2445 2446 3277 3304 3308 3309 3312 281 1072 1080 1082 1306 4189 4190 4199 4200 4201 4202 4203 4204 4205 4206 4208 4209 
	}
}
samarkand_node={
	location=457
	color={
213 0 39 	}
	inland=yes
	outgoing={
		name="isfahan_node"
		path={
			455 445 2220 433 2225 
		}
		control={
			3858.000000 1355.000000 3841.000000 1364.000000 3828.000000 1360.000000 3824.000000 1350.000000 3828.000000 1345.000000 3823.000000 1338.000000 3798.000000 1326.000000 3781.000000 1322.000000 3771.000000 1309.000000 3765.000000 1305.000000 3748.000000 1305.000000 3744.000000 1310.000000 3735.000000 1316.000000 3723.000000 1315.000000 3717.000000 1312.000000 3706.000000 1316.000000 3695.000000 1314.000000 3695.000000 1307.000000 3691.000000 1300.000000 3682.000000 1281.000000 3658.000000 1263.000000 3654.000000 1248.000000 3640.000000 1243.000000 3627.000000 1240.000000 3614.000000 1249.000000 3609.000000 1257.000000 3607.000000 1265.000000 
		}
	}
	outgoing={
		name="caspian_sea_node"
		path={
			436 456 442 441 439 462 1083 1312 
		}
		control={
			3858.000000 1355.000000 3841.000000 1364.000000 3828.000000 1360.000000 3824.000000 1350.000000 3819.000000 1354.000000 3811.000000 1359.000000 3803.000000 1366.000000 3794.000000 1372.000000 3786.000000 1394.000000 3768.000000 1408.000000 3756.000000 1421.000000 3744.000000 1426.000000 3729.000000 1419.000000 3721.000000 1414.000000 3716.000000 1408.000000 3716.000000 1382.000000 3701.000000 1373.000000 3693.000000 1372.000000 3683.000000 1374.000000 3669.000000 1368.000000 3664.000000 1363.000000 3656.000000 1367.000000 3650.000000 1373.000000 3638.000000 1367.000000 3612.000000 1380.000000 3606.000000 1384.000000 3591.000000 1395.000000 3579.000000 1412.000000 3570.000000 1429.000000 3568.000000 1446.000000 3558.000000 1464.000000 3573.000000 1479.000000 
		}
	}
	outgoing={
		name="kabul_node"
		path={
			444 450 451 
		}
		control={
			3858.000000 1355.000000 3841.000000 1364.000000 3828.000000 1360.000000 3824.000000 1350.000000 3828.000000 1345.000000 3835.000000 1339.000000 3843.000000 1321.000000 3865.000000 1298.000000 3891.000000 1298.000000 3893.000000 1287.000000 3886.000000 1280.000000 3883.000000 1270.000000 
		}
	}
	members={
		436 438 440 442 444 445 454 455 456 457 458 459 460 461 476 477 478 2221 2222 2223 2232 2742 3278 3279 3280 3281 3282 3283 3284 3285 3288 3289 3290 3291 3292 3293 3295 3296 3297 3298 3299 3300 3301 3302 3303 3305 3306 3311 3844 3845 3846 3847 3848 
	}
}
manila_node={
	location=2216
	color={
189 64 44 	}
	outgoing={
		name="cartagena_node"
		path={
			1799 836 1623 828 
		}
		control={
			4692.000000 940.000000 4704.000000 906.000000 4723.000000 910.000000 4756.000000 904.000000 4757.000000 918.000000 4798.000000 928.000000 5350.000000 921.000000 390.000000 1005.000000 1005.000000 992.000000 
		}
	}
	outgoing={
		name="malacca_node"
		path={
			1962 1957 1956 598 596 
		}
		control={
			4700.000000 946.000000 4683.000000 936.000000 4646.000000 873.000000 4603.000000 813.000000 4522.000000 758.000000 4496.000000 730.000000 4457.000000 730.000000 4429.000000 741.000000 4416.000000 752.000000 
		}
	}
	members={
		629 636 637 638 639 640 641 642 643 644 651 652 653 654 655 656 657 658 738 2089 2090 2091 2092 2213 2214 2215 2216 2217 2432 2433 2434 2586 3339 3340 3341 3342 3928 3929 4042 4044 4045 4048 2511 
	}
}
cartagena_node={
	location=827
	color={
89 140 176 	}
	outgoing={
		name="caribbean_node"
		path={
			827 2165 1621 1623 1625 
		}
		control={
			1639.000000 1093.000000 1664.000000 1097.000000 1696.000000 1110.000000 1726.000000 1104.000000 1724.000000 1159.000000 1689.000000 1185.000000 1652.000000 1189.000000 
		}
	}
	members={
		741 743 744 745 746 747 825 826 827 828 829 830 831 832 833 834 835 836 837 838 839 840 841 842 844 1473 1475 1477 1478 1479 1480 1481 1482 1490 2165 2208 2209 2416 2604 2646 3494 3495 3496 3497 3498 3499 3500 3501 3502 3503 3504 3505 3507 3508 3509 3510 3516 3518 
	}
}
jakarta_node={
	location=624
	color={
255 188 225 	}
	outgoing={
		name="malacca_node"
		path={
			1954 1955 597 596 
		}
		control={
			4471.000000 637.000000 4479.000000 651.000000 4493.000000 683.000000 4472.000000 714.000000 4449.000000 729.000000 4429.000000 741.000000 4416.000000 752.000000 
		}
	}
	outgoing={
		name="cape_node"
		path={
			1744 1746 1747 1748 1749 2033 2032 1729 2036 2037 2038 1163 
		}
		control={
			4466.000000 631.000000 4455.000000 623.000000 4454.000000 572.000000 4326.000000 465.000000 4223.000000 395.000000 4046.000000 401.000000 3903.000000 378.000000 3729.000000 401.000000 3646.000000 406.000000 3528.000000 267.000000 3323.000000 214.000000 3234.000000 174.000000 3170.000000 173.000000 3128.000000 165.000000 3106.000000 171.000000 
		}
	}
	members={
		624 625 626 627 628 630 631 632 633 634 635 645 646 647 648 649 714 716 777 907 1042 1234 1245 1642 2088 2104 2105 2106 2107 2108 2109 2110 2111 2143 2430 2431 2513 2525 3345 3922 3923 3924 3925 3926 3927 
	}
}
kabul_node={
	location=451
	color={
203 144 10 	}
	outgoing={
		name="hormuz_node"
		path={
			449 447 432 435 464 430 431 
		}
		control={
			3879.000000 1267.000000 3866.000000 1263.000000 3853.000000 1264.000000 3847.000000 1257.000000 3841.000000 1253.000000 3835.000000 1243.000000 3829.000000 1237.000000 3823.000000 1231.000000 3817.000000 1223.000000 3817.000000 1217.000000 3813.000000 1210.000000 3810.000000 1211.000000 3798.000000 1206.000000 3789.000000 1201.000000 3783.000000 1188.000000 3777.000000 1185.000000 3763.000000 1192.000000 3762.000000 1169.000000 3743.000000 1167.000000 3714.000000 1172.000000 3707.000000 1160.000000 3703.000000 1152.000000 3691.000000 1143.000000 
		}
	}
	outgoing={
		name="kutch_node"
		path={
			578 577 2717 505 
		}
		control={
			3893.000000 1264.000000 3900.000000 1262.000000 3907.000000 1271.000000 3921.000000 1267.000000 3932.000000 1262.000000 3930.000000 1253.000000 3923.000000 1246.000000 3923.000000 1239.000000 3917.000000 1227.000000 3917.000000 1221.000000 3916.000000 1209.000000 3918.000000 1203.000000 3915.000000 1194.000000 3916.000000 1188.000000 3903.000000 1177.000000 3897.000000 1173.000000 3890.000000 1168.000000 3886.000000 1163.000000 3881.000000 1163.000000 3876.000000 1154.000000 3872.000000 1146.000000 3879.000000 1131.000000 3879.000000 1121.000000 3873.000000 1111.000000 3866.000000 1102.000000 3860.000000 1103.000000 3856.000000 1111.000000 
		}
	}
	outgoing={
		name="delhi_node"
		path={
			2114 564 521 
		}
		control={
			3893.000000 1264.000000 3900.000000 1262.000000 3907.000000 1271.000000 3921.000000 1267.000000 3943.000000 1260.000000 3974.000000 1245.000000 3982.000000 1222.000000 4003.000000 1209.000000 4018.000000 1202.000000 4024.000000 1194.000000 
		}
	}
	members={
		447 449 450 451 452 453 508 578 2114 2231 2722 3094 3095 3096 3097 3098 3099 3294 3842 3843 
	}
}
malacca_node={
	location=596
	color={
100 96 197 	}
	outgoing={
		name="ceylon_node"
		path={
			1942 1941 1940 1714 1716 572 
		}
		control={
			4405.000000 758.000000 4364.000000 795.000000 4327.000000 816.000000 4276.000000 842.000000 4128.000000 849.000000 4083.000000 872.000000 
		}
	}
	outgoing={
		name="bankok_node"
		path={
			595 2735 594 1959 2306 
		}
		control={
			4416.000000 752.000000 4431.000000 741.000000 4449.000000 745.000000 4444.000000 769.000000 4435.000000 811.000000 4413.000000 832.000000 4390.000000 858.000000 4385.000000 894.000000 4388.000000 924.000000 
		}
	}
	members={
		407 420 595 596 597 598 599 617 618 619 620 621 622 623 659 2093 2094 2095 2096 2097 2098 2099 2100 2101 2102 2103 2736 2737 2828 2830 3239 3315 3910 3911 3912 3913 3914 3915 3916 3917 3918 3919 3920 3921 3940 3941 4047 
	}
}
bankok_node={
	location=2306
	color={
243 205 39 	}
	outgoing={
		name="hantawaddy_node"
		path={
			3223 2825 590 2822 3215 
		}
		control={
			4384.000000 938.000000 4377.000000 950.000000 4378.000000 953.000000 4375.000000 956.000000 4375.000000 960.000000 4369.000000 969.000000 4367.000000 978.000000 4370.000000 988.000000 4365.000000 996.000000 4353.000000 990.000000 4344.000000 1000.000000 4330.000000 999.000000 
		}
	}
	outgoing={
		name="ceylon_node"
		path={
			3223 3221 1939 1940 1714 1716 572 
		}
		control={
			4388.000000 924.000000 4379.000000 884.000000 4370.000000 868.000000 4363.000000 863.000000 4358.000000 843.000000 4331.000000 832.000000 4276.000000 843.000000 4128.000000 849.000000 4083.000000 872.000000 
		}
	}
	members={
		408 574 589 590 591 592 593 594 600 601 602 603 604 605 608 609 611 612 614 615 2306 2319 2320 2321 2322 2417 2420 2421 2422 2668 2669 2670 2729 2732 2733 2734 2735 2738 2817 2818 2819 2820 2821 2824 2825 2826 2827 2829 3218 3219 3220 3221 3222 3223 3224 3225 3226 3227 3228 3232 3233 3236 3237 3313 3231 3908 3909 3930 3931 3932 3933 3934 3935 4043 4046 4049 4050 4212 4213 4215 4216 4217 
	}
}
hantawaddy_node={
	location=3215
	color={
123 135 129 	}
	outgoing={
		name="bengal_node"
		path={
			586 3216 579 3214 585 1937 561 
		}
		control={
			4332.000000 985.000000 4314.000000 965.000000 4281.000000 971.000000 4284.000000 996.000000 4263.000000 1028.000000 4242.000000 1052.000000 4217.000000 1046.000000 4188.000000 1047.000000 
		}
	}
	outgoing={
		name="orissa_node"
		path={
			1939 1940 1713 1936 560 
		}
		control={
			4321.000000 942.000000 4256.000000 916.000000 4200.000000 965.000000 4146.000000 990.000000 
		}
	}
	members={
		661 1759 2323 2324 2326 2424 2423 2739 2753 2822 2823 3197 3214 3215 3216 3217 3235 352 569 579 580 581 582 583 584 585 586 587 588 2426 2427 2428 2728 3194 3195 3196 3234 2429 2425 2727 3903 3904 3905 3906 3907 4218 
	}
}
delhi_node={
	location=2163
	color={
157 200 42 	}
	inland=yes
	outgoing={
		name="kutch_node"
		path={
			521 2720 2721 2584 2716 
		}
		control={
			4016.000000 1175.000000 4007.000000 1174.000000 3998.000000 1187.000000 3974.000000 1208.000000 3963.000000 1210.000000 3940.000000 1198.000000 3926.000000 1192.000000 3921.000000 1194.000000 3916.000000 1188.000000 3903.000000 1177.000000 3897.000000 1173.000000 3890.000000 1168.000000 3886.000000 1163.000000 3881.000000 1163.000000 3876.000000 1154.000000 3872.000000 1146.000000 3879.000000 1131.000000 3879.000000 1121.000000 3873.000000 1111.000000 3866.000000 1102.000000 3860.000000 1103.000000 3856.000000 1111.000000 
		}
	}
	outgoing={
		name="bengal_node"
		path={
			524 2557 2687 2688 2689 1588 561 
		}
		control={
			4023.000000 1177.000000 4025.000000 1173.000000 4024.000000 1166.000000 4027.000000 1160.000000 4027.000000 1153.000000 4038.000000 1145.000000 4039.000000 1141.000000 4048.000000 1142.000000 4056.000000 1135.000000 4060.000000 1135.000000 4072.000000 1128.000000 4085.000000 1120.000000 4097.000000 1120.000000 4112.000000 1117.000000 4128.000000 1124.000000 4132.000000 1123.000000 4144.000000 1126.000000 4159.000000 1121.000000 4166.000000 1123.000000 4173.000000 1123.000000 4183.000000 1124.000000 4194.000000 1108.000000 4197.000000 1095.000000 4199.000000 1081.000000 4195.000000 1076.000000 4194.000000 1074.000000 4194.000000 1070.000000 4191.000000 1067.000000 
		}
	}
	members={
		509 510 511 519 521 522 523 524 525 550 564 2112 2113 2115 2116 2163 2226 2555 2556 2631 2700 2701 2704 2705 2706 2719 2720 2721 3102 3103 3104 3105 3106 3107 3109 3110 3111 3112 3113 3114 3115 3118 3119 3120 3123 3126 3127 3128 3131 
	}
}
bengal_node={
	location=561
	color={
36 109 194 	}
	outgoing={
		name="orissa_node"
		path={
			1936 560 
		}
		control={
			4187.000000 1055.000000 4176.000000 1047.000000 
		}
	}
	members={
		554 557 558 561 562 563 565 566 567 568 570 571 1588 2689 2690 2691 2692 2693 2694 2695 2696 2697 2698 2699 3129 3134 3136 3176 3182 3183 3184 3185 3186 3187 3188 3189 3190 3191 3192 3193 3198 3203 3205 3206 4124 4125 4219 
	}
}
orissa_node={
	location=560
	color={
234 103 101 	}
	outgoing={
		name="ceylon_node"
		path={
			1935 572 
		}
		control={
			4170.000000 1038.000000 4150.000000 1021.000000 4103.000000 970.000000 4079.000000 952.000000 4082.000000 920.000000 4074.000000 890.000000 
		}
	}
	outgoing={
		name="konkan_node"
		path={
			3163 529 
		}
		control={
			4170.000000 1038.000000 4150.000000 1021.000000 4122.000000 992.000000 4110.000000 986.000000 4095.000000 988.000000 4086.000000 994.000000 4085.000000 998.000000 4077.000000 1005.000000 4072.000000 1016.000000 4065.000000 1019.000000 4061.000000 1018.000000 4056.000000 1021.000000 4053.000000 1020.000000 4048.000000 1027.000000 4042.000000 1024.000000 4030.000000 1022.000000 4023.000000 1026.000000 4013.000000 1023.000000 4004.000000 1028.000000 4000.000000 1028.000000 3992.000000 1033.000000 3986.000000 1034.000000 3980.000000 1038.000000 3975.000000 1036.000000 
		}
	}
	members={
		555 556 2557 2702 3130 3132 3133 546 553 3161 3162 3163 3174 2554 2684 2686 3167 3170 3171 3180 3181 3202 548 549 552 559 560 2210 2558 2630 2632 2682 2683 2687 2688 3135 3172 3173 3175 3177 3178 3179 3200 3204 
	}
}
ceylon_node={
	location=572
	color={
60 123 65 	}
	outgoing={
		name="zanzibar_node"
		path={
			1934 1717 1718 2031 1187 
		}
		control={
			4060.000000 866.000000 4026.000000 829.000000 3955.550049 796.849976 3687.000000 660.000000 3569.000000 642.000000 3450.000000 634.000000 
		}
	}
	outgoing={
		name="konkan_node"
		path={
			2570 534 532 533 2569 529 
		}
		control={
			4060.000000 866.000000 4031.000000 839.000000 4006.000000 855.000000 3996.000000 879.000000 3979.000000 918.000000 3965.000000 950.000000 3951.000000 984.000000 3942.000000 1022.000000 
		}
	}
	members={
		421 507 532 533 534 535 536 537 538 539 540 541 542 543 544 545 547 572 573 1101 1248 1520 2245 2336 2337 2570 2627 2628 2629 2672 2673 2674 2675 2676 2677 2678 3153 3154 3155 3156 3157 3158 3159 3160 3201 4078 4079 
	}
}
konkan_node={
	location=529
	color={
49 175 191 	}
	outgoing={
		name="aden_node"
		path={
			2030 2029 1925 1924 
		}
		control={
			3942.000000 1032.000000 3901.000000 1049.000000 3875.000000 1082.000000 3849.000000 1095.000000 3804.000000 1089.000000 3760.000000 1076.000000 3743.000000 1055.000000 3739.000000 1041.000000 3717.000000 1013.000000 3697.000000 999.000000 3678.000000 983.000000 3651.000000 979.000000 3633.000000 960.000000 3578.000000 938.000000 3526.000000 915.000000 3502.000000 915.000000 
		}
	}
	outgoing={
		name="kutch_node"
		path={
			1931 505 
		}
		control={
			3942.000000 1032.000000 3901.000000 1049.000000 3874.000000 1088.000000 3860.000000 1103.000000 3856.000000 1111.000000 
		}
	}
	members={
		517 527 529 530 531 1587 2212 2243 2244 2568 2569 2679 2680 2681 2685 3139 3143 3144 3145 3146 3147 3148 3149 3150 3151 3152 3164 3165 3166 3168 3169 4056 
	}
}
kutch_node={
	location=2716
	color={
175 82 16 	}
	outgoing={
		name="aden_node"
		path={
			1930 1927 1926 1925 1924 2653 
		}
		control={
			3852.000000 1110.000000 3813.000000 1093.000000 3760.000000 1076.000000 3743.000000 1055.000000 3739.000000 1041.000000 3717.000000 1013.000000 3697.000000 999.000000 3678.000000 983.000000 3651.000000 979.000000 3633.000000 960.000000 3578.000000 938.000000 3526.000000 915.000000 3502.000000 915.000000 
		}
	}
	outgoing={
		name="hormuz_node"
		path={
			414 2225 
		}
		control={
			3845.000000 1115.000000 3791.000000 1111.000000 3747.000000 1116.000000 3708.000000 1126.000000 3700.000000 1141.000000 3689.000000 1141.000000 
		}
	}
	members={
		448 503 504 505 512 514 515 516 518 520 526 528 575 576 577 2211 2584 2703 2707 2708 2709 2710 2711 2712 2713 2714 2715 2716 2717 2718 2723 3100 3101 3108 3116 3117 3121 3122 3124 3125 3137 3138 3140 3141 3142 3199 3238 3834 
	}
}
zanzibar_node={
	location=1187
	color={
81 141 85 	}
	outgoing={
		name="mogadishu_node"
		path={
			2026 2025 1199 
		}
		control={
			3438.000000 639.000000 3454.000000 682.000000 3478.000000 707.000000 3498.000000 733.000000 3524.000000 749.000000 
		}
	}
	outgoing={
		name="cape_node"
		path={
			2026 2027 2034 2036 2037 2038 1163 
		}
		control={
			3441.000000 629.000000 3448.000000 613.000000 3460.000000 539.000000 3455.000000 482.000000 3378.000000 411.000000 3374.000000 342.000000 3343.000000 319.000000 3324.000000 274.000000 3235.000000 181.000000 3170.000000 173.000000 3128.000000 165.000000 3106.000000 171.000000 
		}
	}
	members={
		1100 1150 1151 1174 1176 1177 1178 1179 1180 1181 1183 1185 1186 1187 1188 1189 1190 1191 1192 1193 1195 1196 1197 1226 1227 1228 1492 1507 1518 1519 1521 1527 1528 1564 1565 1578 1579 1586 2352 2968 2969 2970 2983 2984 2985 2987 2988 2989 2990 2991 2992 2993 2994 2995 2996 2997 2998 3000 3893 3894 3895 3896 3897 3898 3899 3942 
	}
}
mogadishu_node={
	location=1199
	color={
212 175 55 	}
	outgoing={
		name="aden_node"
		path={
			2025 2024 2029 1925 1926 1927 400 
		}
		control={
			3542.000000 763.000000 3576.000000 798.000000 3598.000000 841.000000 3624.000000 886.000000 3624.000000 921.000000 3599.000000 919.000000 3539.000000 910.000000 3503.000000 914.000000 
		}
	}
	outgoing={
		name="cairo_node"
		path={
			2025 2024 2029 1925 1924 1923 3004 361 
		}
		control={
			3542.000000 763.000000 3576.000000 798.000000 3598.000000 841.000000 3624.000000 886.000000 3624.000000 921.000000 3599.000000 919.000000 3539.000000 910.000000 3507.000000 908.000000 3492.000000 923.000000 3456.000000 967.000000 3428.000000 1013.000000 3396.000000 1074.000000 3372.000000 1118.000000 3343.000000 1162.000000 3331.000000 1177.000000 3323.000000 1193.000000 3310.000000 1202.000000 
		}
	}
	members={
		1198 1566 3032 3033 1199 3034 3035 3036 3037 3059 3058 3057 3056 3055 3038 3039 3053 3054 3052 3060 3049 3048 3061 3062 3064 1204 3051 3046 1203 3042 3041 3040 1575 3015 3020 1567 1568 3008 3066 3021 3063 1205 1206 3067 3019 1576 1207 3007 3045 1569 3065 1577 3011 3012 3013 3014 3018 1570 3017 3016 3010 3025 3024 3026 3023 3022 1572 1209 2792 1573 1216 3002 3029 3001 3030 1202 1201 1200 1574 1571 3047 3044 3043 3006 3050 3692 3693 3694 3889 3890 3891 3892 
	}
}
aden_node={
	location=2653
	color={
98 134 153 	}
	outgoing={
		name="cairo_node"
		path={
			1923 1922 359 361 
		}
		control={
			3494.000000 921.000000 3456.000000 967.000000 3428.000000 1013.000000 3396.000000 1074.000000 3372.000000 1118.000000 3343.000000 1162.000000 3331.000000 1177.000000 3323.000000 1193.000000 3310.000000 1202.000000 
		}
	}
	outgoing={
		name="cape_node"
		path={
			1924 1925 2024 2025 2026 2027 2034 2036 2037 2038 1163 
		}
		control={
			3507.000000 908.000000 3539.000000 910.000000 3599.000000 919.000000 3624.000000 921.000000 3624.000000 886.000000 3598.000000 841.000000 3576.000000 798.000000 3542.000000 763.000000 3524.000000 749.000000 3498.000000 733.000000 3478.000000 707.000000 3454.000000 682.000000 3445.000000 636.000000 3460.000000 539.000000 3455.000000 482.000000 3378.000000 411.000000 3374.000000 342.000000 3343.000000 319.000000 3324.000000 274.000000 3235.000000 181.000000 3170.000000 173.000000 3128.000000 165.000000 3106.000000 171.000000 
		}
	}
	members={
		388 2665 384 380 385 473 474 2653 465 402 1099 470 2810 383 428 404 389 3073 3074 3075 3076 3077 4095 4096 4097 4098 
	}
}
kanem_node={
	location=1221
	color={
166 109 174 	}
	inland=yes
	outgoing={
		name="timbuktu_node"
		path={
			2316 1117 1497 
		}
		control={
			3030.000000 953.000000 3016.000000 953.000000 2984.000000 967.000000 2924.000000 987.000000 2890.000000 961.000000 2830.000000 954.000000 2808.000000 966.000000 2805.000000 977.000000 2787.000000 984.000000 2775.000000 981.000000 
		}
	}
	outgoing={
		name="cairo_node"
		path={
			2930 1147 1148 1212 361 
		}
		control={
			3030.000000 953.000000 3017.000000 954.000000 3009.000000 976.000000 3020.000000 1014.000000 3011.000000 1040.000000 3017.000000 1054.000000 3035.000000 1096.000000 3092.000000 1125.000000 3139.000000 1161.000000 3177.000000 1183.000000 3195.000000 1188.000000 3224.000000 1177.000000 3252.000000 1198.000000 
		}
	}
	outgoing={
		name="accra_node"
		path={
			1563 1554 1551 2788 1134 2044 
		}
		control={
			3030.000000 953.000000 3016.000000 947.000000 3020.000000 930.000000 3023.000000 909.000000 2987.000000 900.000000 2946.000000 903.000000 2874.000000 881.000000 2842.000000 881.000000 2818.000000 873.000000 2812.000000 865.000000 2812.000000 857.000000 2814.000000 851.000000 2813.000000 844.000000 2815.000000 835.000000 2813.000000 830.000000 2813.000000 829.000000 2815.000000 822.000000 
		}
	}
	members={
		1132 1133 1137 1147 1149 1182 1215 1218 1219 1220 1221 1222 1223 1224 1225 1524 1545 1546 1553 1554 1556 1557 1559 1560 1563 2496 2500 2771 2777 2915 2924 2925 2926 2927 2930 2931 2939 2945 2946 2947 2948 2949 2950 2953 3031 3316 3317 3318 3319 3320 3321 
	}
}
cape_node={
	location=1163
	color={
55 108 158 	}
	outgoing={
		name="kongo_node"
		path={
			2038 2039 2040 2041 2974 
		}
		control={
			3100.000000 181.000000 3080.000000 218.000000 3033.000000 305.000000 3020.000000 366.000000 2983.000000 448.000000 3005.000000 536.000000 2994.000000 595.000000 2998.000000 632.000000 
		}
	}
	outgoing={
		name="low_countries_node"
		path={
			2038 1702 1699 2048 2049 2050 2311 
		}
		control={
			3062.000000 190.000000 2912.000000 356.000000 2759.000000 438.000000 2653.000000 514.000000 2570.000000 615.000000 2523.000000 702.000000 2485.000000 1021.000000 2563.000000 1172.000000 2595.000000 1224.000000 2614.000000 1255.000000 2657.000000 1325.000000 2662.000000 1374.000000 2665.000000 1451.000000 2723.000000 1478.000000 2733.000000 1520.000000 2739.000000 1542.000000 2789.000000 1562.000000 2821.000000 1570.000000 2850.000000 1589.000000 
		}
	}
	members={
		1102 1103 1160 1161 1162 1163 1164 1165 1166 1167 1168 1169 1170 1171 1173 1175 1580 1581 1582 1583 1584 2881 2982 2986 
	}
}
kongo_node={
	location=2974
	color={
199 160 139 	}
	outgoing={
		name="accra_node"
		path={
			2041 2042 2043 2044 2876 
		}
		control={
			2989.000000 642.000000 2957.000000 675.000000 2933.000000 711.000000 2938.000000 767.000000 2896.000000 779.000000 2864.000000 805.000000 2821.000000 804.000000 
		}
	}
	outgoing={
		name="lisboa_node"
		path={
			2038 1702 1699 2048 2049 2050 2311 
		}
		control={
			2989.000000 642.000000 2957.000000 675.000000 2933.000000 711.000000 2938.000000 767.000000 2896.000000 779.000000 2858.000000 806.000000 2784.000000 789.000000 2720.000000 764.000000 2660.000000 763.000000 2566.000000 817.000000 2485.000000 1021.000000 2563.000000 1172.000000 2595.000000 1224.000000 2614.000000 1255.000000 2657.000000 1325.000000 
		}
	}
	members={
		1098 1136 1139 1140 1141 1142 1144 1145 1146 1152 1153 1154 1155 1156 1157 1158 1159 1184 1504 1505 1506 1558 1562 2505 2520 2775 2879 2967 2973 2974 2975 2976 2977 2978 2979 2980 2981 
	}
}
accra_node={
	location=2876
	color={
97 98 195 	}
	outgoing={
		name="timbuktu_node"
		path={
			1127 2781 1495 1497 
		}
		control={
			2815.000000 822.000000 2813.000000 829.000000 2813.000000 830.000000 2815.000000 835.000000 2813.000000 844.000000 2814.000000 851.000000 2812.000000 857.000000 2812.000000 865.000000 2815.000000 872.000000 2817.000000 883.000000 2830.000000 899.000000 2837.000000 922.000000 2828.000000 940.000000 2819.000000 950.000000 2817.000000 957.000000 2808.000000 966.000000 2805.000000 977.000000 2787.000000 984.000000 2775.000000 981.000000 
		}
	}
	outgoing={
		name="lisboa_node"
		path={
			2045 2046 2047 2048 2049 2050 1886 230 
		}
		control={
			2784.000000 789.000000 2682.000000 759.000000 2571.000000 810.000000 2485.000000 1021.000000 2563.000000 1172.000000 2614.000000 1255.000000 2657.000000 1315.000000 
		}
	}
	outgoing={
		name="caribbean_node"
		path={
			2045 2046 2047 2048 2049 2050 1886 230 
		}
		control={
			2784.000000 789.000000 2682.000000 759.000000 2571.000000 810.000000 2524.000000 888.000000 2494.000000 953.000000 2421.000000 965.000000 2123.000000 922.000000 1997.000000 1025.000000 1863.000000 1081.000000 1831.000000 1091.000000 1831.000000 1149.000000 1786.000000 1184.000000 1725.000000 1181.000000 1696.000000 1184.000000 1678.000000 1188.000000 1652.000000 1189.000000 
		}
	}
	outgoing={
		name="senegal_node"
		path={
			1125 2046 2218 
		}
		control={
			2784.000000 789.000000 2720.000000 764.000000 2660.000000 763.000000 2566.000000 817.000000 2536.000000 907.000000 2547.000000 935.000000 2557.000000 932.000000 2561.000000 934.000000 2565.000000 933.000000 2567.000000 935.000000 2571.000000 935.000000 2571.000000 935.000000 
		}
	}
	members={
		1123 1125 1126 1127 1128 1129 1131 1134 1138 1229 1496 1502 1503 1549 1550 1551 1552 1555 1561 2758 2759 2760 2762 2776 2778 2779 2780 2781 2786 2787 2788 2789 2790 2794 2874 2875 2876 2877 2878 2880 2884 2885 2886 2887 2888 2889 2890 2891 2892 2897 2898 2901 2960 2961 2963 3816 
	}
}
senegal_node={
	location=2770
	color={
201 163 155 	}
	outgoing={
		name="maghrib_node"
		path={
			2964 345 1500 347 
		}
		control={
			2571.000000 935.000000 2565.000000 933.000000 2561.000000 934.000000 2557.000000 932.000000 2549.000000 940.000000 2537.000000 954.000000 2553.040039 1007.859985 2541.000000 1070.000000 2607.000000 1169.000000 2647.000000 1196.000000 2652.000000 1233.000000 2667.000000 1257.000000 2688.000000 1269.000000 2704.000000 1281.000000 2721.000000 1274.000000 2726.000000 1269.000000 
		}
	}
	outgoing={
		name="timbuktu_node"
		path={
			2912 1541 2955 
		}
		control={
			2621.000000 926.000000 2646.000000 926.000000 2683.000000 918.000000 2695.000000 925.000000 2706.000000 928.000000 2716.000000 933.000000 2732.000000 940.000000 2737.000000 944.000000 2739.000000 948.000000 2738.000000 953.000000 2739.000000 958.000000 2739.000000 963.000000 2747.000000 969.000000 2752.000000 970.000000 2757.000000 976.000000 2760.000000 977.000000 
		}
	}
	members={
		342 345 1110 1111 1112 1113 1114 1119 1120 1121 1122 1499 1500 2218 2765 2766 2767 2768 2769 2770 2773 2774 2870 2871 2872 2873 2882 2883 2893 2894 2895 2904 2905 2906 2912 2964 2965 2966 4116 4117 
	}
}
timbuktu_node={
	location=1497
	color={
215 135 125 	}
	inland=yes
	outgoing={
		name="tunis_node"
		path={
			1117 1543 1148 341 
		}
		control={
			2759.000000 998.000000 2776.000000 1037.000000 2738.000000 1071.000000 2767.000000 1122.000000 2777.000000 1138.000000 2824.000000 1132.000000 2875.000000 1090.000000 2925.620117 1082.030029 2946.000000 1124.000000 2956.000000 1184.000000 2967.000000 1227.000000 2961.000000 1249.000000 2969.000000 1275.000000 2979.000000 1282.000000 2984.000000 1293.000000 2974.000000 1304.000000 
		}
	}
	outgoing={
		name="cairo_node"
		path={
			1117 1543 1148 1212 2499 361 
		}
		control={
			2775.000000 981.000000 2787.000000 984.000000 2805.000000 977.000000 2809.000000 965.000000 2830.000000 954.000000 2890.000000 961.000000 2924.000000 987.000000 2992.000000 971.000000 3020.000000 1011.000000 3011.000000 1040.000000 3017.000000 1054.000000 3035.000000 1096.000000 3092.000000 1125.000000 3139.000000 1161.000000 3177.000000 1183.000000 3195.000000 1188.000000 3224.000000 1177.000000 3252.000000 1198.000000 
		}
	}
	outgoing={
		name="maghrib_node"
		path={
			1116 1115 1516 343 
		}
		control={
			2759.000000 998.000000 2776.000000 1037.000000 2738.000000 1071.000000 2767.000000 1122.000000 2770.000000 1140.000000 2767.000000 1158.000000 2763.000000 1177.000000 2776.000000 1207.000000 2762.000000 1232.000000 2758.000000 1245.000000 2745.000000 1250.000000 2744.000000 1257.000000 
		}
	}
	members={
		348 1105 1115 1116 1117 1118 1124 1130 1135 1495 1497 1498 1501 1525 1541 1542 1543 1544 1547 2316 2504 2763 2764 2772 2899 2900 2902 2903 2907 2908 2909 2910 2911 2913 2914 2916 2917 2918 2919 2920 2921 2922 2923 2928 2929 2955 2956 2957 2958 2959 4115 
	}
}
hormuz_node={
	location=431
	color={
201 203 205 	}
	outgoing={
		name="isfahan_node"
		path={
			430 2725 429 414 2225 
		}
		control={
			3686.000000 1151.000000 3687.000000 1154.000000 3690.000000 1155.000000 3685.000000 1162.000000 3683.000000 1168.000000 3668.000000 1172.000000 3658.000000 1181.000000 3644.000000 1189.000000 3634.000000 1211.000000 3628.000000 1231.000000 3614.000000 1249.000000 3609.000000 1257.000000 3607.000000 1265.000000 
		}
	}
	outgoing={
		name="baghdad_node"
		path={
			1928 1929 398 415 410 
		}
		control={
			3679.000000 1137.000000 3656.000000 1137.000000 3613.000000 1157.000000 3572.000000 1200.000000 3571.000000 1204.000000 3564.000000 1209.000000 3557.000000 1216.000000 3540.000000 1217.000000 3526.000000 1222.000000 3516.000000 1225.000000 3512.000000 1229.000000 3510.000000 1234.000000 3509.000000 1239.000000 3508.000000 1241.000000 3507.000000 1247.000000 
		}
	}
	members={
		394 395 396 397 400 401 403 430 431 437 466 467 468 469 2228 2229 2235 2725 2538 2539 2652 2808 3068 3069 3070 3828 3829 3830 3832 3833 434 
	}
}
isfahan_node={
	location=2225
	color={
180 135 90 	}
	inland=yes
	outgoing={
		name="baghdad_node"
		path={
			2227 412 1329 410 
		}
		control={
			3601.000000 1268.000000 3577.000000 1272.000000 3572.000000 1282.000000 3558.000000 1284.000000 3541.000000 1277.000000 3525.000000 1281.000000 3519.000000 1271.000000 3513.000000 1265.000000 3512.000000 1259.000000 3510.000000 1255.000000 
		}
	}
	outgoing={
		name="caspian_sea_node"
		path={
			2225 1313 426 
		}
		control={
			3608.000000 1285.000000 3619.000000 1299.000000 3606.000000 1306.000000 3600.000000 1313.000000 3604.000000 1320.000000 3605.000000 1329.000000 3596.000000 1336.000000 3586.000000 1341.000000 3588.000000 1356.000000 3595.000000 1363.000000 3603.000000 1373.000000 3606.000000 1384.000000 3591.000000 1395.000000 3579.000000 1412.000000 3570.000000 1429.000000 3568.000000 1446.000000 3558.000000 1464.000000 3573.000000 1479.000000 
		}
	}
	outgoing={
		name="caucasus_node"
		path={
			3079 1314 463 1321 416 
		}
		control={
			3594.000000 1277.000000 3590.000000 1286.000000 3587.000000 1299.000000 3571.000000 1305.000000 3563.000000 1319.000000 3557.000000 1335.000000 3549.000000 1356.000000 3539.000000 1369.000000 3527.000000 1379.000000 3525.000000 1385.000000 3518.000000 1390.000000 3517.000000 1398.000000 3509.000000 1399.000000 
		}
	}
	members={
		387 390 405 413 414 417 426 429 433 435 446 463 1313 1314 1315 2219 2220 2225 2227 2559 3078 3079 3080 3081 3082 3083 3092 3823 3824 3827 3836 464 3831 551 432 3838 3839 3849 3840 3841 4030 3835 3837 
	}
}
baghdad_node={
	location=410
	color={
166 68 72 	}
	inland=yes
	outgoing={
		name="levant_node"
		path={
			2227 412 1329 410 2230 1324 
		}
		control={
			3503.000000 1253.000000 3500.000000 1257.000000 3494.000000 1258.000000 3485.000000 1261.000000 3483.000000 1266.000000 3479.000000 1269.000000 3472.000000 1276.000000 3455.000000 1277.000000 3446.000000 1288.000000 3439.000000 1292.000000 3434.000000 1300.000000 3416.000000 1301.000000 3402.000000 1284.000000 3398.000000 1274.000000 3389.000000 1267.000000 
		}
	}
	outgoing={
		name="caucasus_node"
		path={
			1314 416 
		}
		control={
			3509.000000 1268.000000 3501.000000 1272.000000 3494.000000 1290.000000 3493.000000 1303.000000 3499.000000 1308.000000 3501.000000 1312.000000 3506.000000 1314.000000 3502.000000 1320.000000 3498.000000 1321.000000 3496.000000 1328.000000 3503.000000 1332.000000 3514.000000 1344.000000 3516.000000 1355.000000 3524.000000 1362.000000 3527.000000 1379.000000 3525.000000 1385.000000 3518.000000 1390.000000 3517.000000 1398.000000 3509.000000 1399.000000 
		}
	}
	members={
		392 393 398 410 411 412 415 1320 1322 1329 1330 2230 2651 2654 2724 2726 2807 2809 3071 3072 3084 3085 3086 3087 3088 3089 3093 3825 3826 3885 3900 3901 3902 
	}
}
levant_node={
	location=382
	color={
116 153 8 	}
	outgoing={
		name="bosphorous_node"
		path={
			1334 1910 2784 1912 1913 1914 1402 
		}
		control={
			3370.000000 1267.000000 3366.000000 1297.000000 3352.000000 1305.000000 3320.000000 1295.000000 3257.000000 1294.000000 3228.000000 1318.000000 3210.000000 1343.000000 3213.000000 1369.000000 3225.000000 1375.000000 3240.000000 1385.000000 3256.000000 1389.000000 
		}
	}
	outgoing={
		name="cairo_node"
		path={
			364 379 359 2498 361 
		}
		control={
			3369.000000 1249.000000 3363.000000 1229.000000 3353.000000 1226.000000 3347.000000 1218.000000 3324.000000 1215.000000 3319.000000 1213.000000 3316.000000 1214.000000 3311.000000 1212.000000 3310.000000 1208.000000 
		}
	}
	members={
		332 364 377 378 379 382 1319 1324 1327 1328 1331 1332 1334 2224 2575 2634 2635 2636 2655 2811 3091 3886 4057 4058 
	}
}
cairo_node={
	location=361
	color={
150 75 0 	}
	outgoing={
		name="bosphorous_node"
		path={
			1909 2784 1912 1913 1914 1402 
		}
		control={
			3300.000000 1208.000000 3303.000000 1210.000000 3306.000000 1214.000000 3306.000000 1218.000000 3309.000000 1229.000000 3300.000000 1242.000000 3278.000000 1261.000000 3228.000000 1318.000000 3210.000000 1343.000000 3213.000000 1369.000000 3225.000000 1375.000000 3240.000000 1385.000000 3256.000000 1389.000000 
		}
	}
	outgoing={
		name="tunis_node"
		path={
			1909 1908 1907 1899 341 
		}
		control={
			3298.000000 1205.000000 3293.000000 1206.000000 3287.000000 1213.000000 3277.000000 1217.000000 3259.000000 1227.000000 3222.000000 1237.000000 3159.000000 1258.000000 3117.000000 1245.000000 3085.000000 1229.000000 3046.000000 1256.000000 2990.000000 1265.000000 2999.000000 1288.000000 2988.000000 1325.000000 
		}
	}
	outgoing={
		name="napoli_node"
		path={
			1909 1908 2782 1901 1898 2531 
		}
		control={
			3285.000000 1233.000000 3230.000000 1241.000000 3151.000000 1269.000000 3084.000000 1298.000000 3059.000000 1341.000000 3055.000000 1356.000000 3040.000000 1380.000000 3040.000000 1380.000000 
		}
	}
	members={
		163 321 358 359 360 361 362 363 365 1208 1210 1211 1212 1213 1214 1338 1339 1526 2497 2498 2499 2502 2503 2543 2544 2649 2650 2660 2661 2666 2667 2749 2750 2951 2952 2954 3003 3004 3005 3009 3027 3028 3887 3888 4082 4092 4093 4094 
	}
}
caspian_sea_node={
	location=1293
	color={
26 27 154 	}
	inland=yes
	outgoing={
		name="moscow_node"
		path={
			1293 1310 1296 2439 301 295 
		}
		control={
			3567.000000 1488.000000 3562.000000 1496.000000 3556.000000 1501.000000 3550.000000 1508.000000 3542.000000 1516.000000 3538.000000 1524.000000 3526.000000 1526.000000 3521.000000 1524.000000 3518.000000 1526.000000 3514.000000 1524.000000 3511.000000 1528.000000 3515.000000 1532.000000 3520.000000 1541.000000 3527.000000 1549.000000 3526.000000 1554.000000 3532.000000 1562.000000 3530.000000 1567.000000 3535.000000 1571.000000 3530.000000 1578.000000 3540.000000 1588.000000 3545.000000 1586.000000 3554.000000 1594.000000 3562.000000 1597.000000 3567.000000 1604.000000 3566.000000 1607.000000 3569.000000 1611.000000 3569.000000 1617.000000 3580.000000 1620.000000 3586.000000 1619.000000 3591.000000 1622.000000 3595.000000 1623.000000 3592.000000 1627.000000 3583.000000 1624.000000 3576.000000 1630.000000 3577.000000 1633.000000 3567.000000 1638.000000 3567.000000 1646.000000 3571.000000 1649.000000 3578.000000 1662.000000 3573.000000 1675.000000 3567.000000 1674.000000 3556.000000 1679.000000 3550.000000 1678.000000 3540.000000 1680.000000 3533.000000 1684.000000 3518.000000 1677.000000 3505.000000 1674.000000 3497.000000 1678.000000 3479.000000 1675.000000 3470.000000 1667.000000 3464.000000 1659.000000 3464.000000 1654.000000 3462.000000 1651.000000 3461.000000 1644.000000 3453.000000 1649.000000 3450.000000 1645.000000 3452.000000 1639.000000 3447.000000 1635.000000 3443.000000 1637.000000 3440.000000 1634.000000 3436.000000 1638.000000 3432.000000 1640.000000 3429.000000 1644.000000 3421.000000 1648.000000 3416.000000 1650.000000 3412.000000 1654.000000 
		}
	}
	outgoing={
		name="crimea_node"
		path={
			1309 1297 1287 1298 1917 1344 
		}
		control={
			3567.000000 1488.000000 3562.000000 1496.000000 3556.000000 1501.000000 3550.000000 1508.000000 3542.000000 1516.000000 3538.000000 1524.000000 3526.000000 1526.000000 3521.000000 1524.000000 3518.000000 1526.000000 3514.000000 1524.000000 3511.000000 1528.000000 3503.000000 1534.000000 3494.000000 1523.000000 3491.000000 1520.000000 3486.000000 1515.000000 3470.000000 1512.000000 3466.000000 1509.000000 3461.000000 1511.000000 3446.000000 1512.000000 3441.000000 1507.000000 3430.000000 1506.000000 3397.000000 1495.000000 3389.000000 1480.000000 
		}
	}
	outgoing={
		name="caucasus_node"
		path={
			1309 2656 2579 425 424 1317 3090 1318 416 
		}
		control={
			3573.000000 1479.000000 3558.000000 1464.000000 3568.000000 1446.000000 3570.000000 1429.000000 3579.000000 1412.000000 3591.000000 1395.000000 3606.000000 1384.000000 3603.000000 1373.000000 3595.000000 1370.000000 3587.000000 1364.000000 3583.000000 1366.000000 3578.000000 1375.000000 3567.000000 1379.000000 3554.000000 1382.000000 3543.000000 1394.000000 3529.000000 1404.000000 3513.000000 1408.000000 
		}
	}
	members={
		386 439 441 443 462 1083 1293 1304 1309 1310 1312 2443 2444 3286 3287 3310 303 1297 4113 
	}
}
tunis_node={
	location=341
	color={
146 134 57 	}
	outgoing={
		name="napoli_node"
		path={
			1900 1901 
		}
		control={
			2977.000000 1326.000000 3001.000000 1332.000000 3055.000000 1312.000000 3059.000000 1341.000000 3055.000000 1356.000000 3036.000000 1381.000000 
		}
	}
	outgoing={
		name="rhone_node"
		path={
			127 201 202 2335 203 
		}
		control={
			2972.000000 1336.000000 2942.000000 1352.000000 2938.000000 1397.000000 2937.000000 1419.000000 2900.000000 1423.000000 2889.000000 1430.000000 2888.000000 1437.000000 2886.000000 1441.000000 2891.000000 1446.000000 2886.000000 1452.000000 2890.000000 1461.000000 2888.000000 1470.000000 
		}
	}
	outgoing={
		name="barcelona_node"
		path={
			1895 1889 
		}
		control={
			2972.000000 1336.000000 2941.000000 1346.000000 2875.000000 1366.000000 2862.000000 1387.000000 
		}
	}
	outgoing={
		name="maghrib_node"
		path={
			1896 1895 335 2972 
		}
		control={
			2966.000000 1332.000000 2887.000000 1334.000000 2821.000000 1315.000000 2781.000000 1292.000000 2771.000000 1287.000000 2760.000000 1277.000000 
		}
	}
	members={
		339 340 341 351 353 354 355 356 1148 1515 1523 2315 2528 2657 2658 2659 2662 2663 2859 2860 2861 2862 2863 2864 2867 2868 2932 2934 2935 2936 2937 2938 2999 4068 
	}
}
maghrib_node={
	location=343
	color={
191 110 62 	}
	outgoing={
		name="sevilla_node"
		path={
			2972 2971 1887 
		}
		control={
			2741.000000 1274.000000 2734.000000 1286.000000 2731.000000 1294.000000 2728.000000 1301.000000 2717.000000 1304.000000 2712.000000 1312.000000 2714.000000 1320.000000 
		}
	}
	outgoing={
		name="lisboa_node"
		path={
			2942 1886 
		}
		control={
			2734.000000 1275.000000 2726.000000 1287.000000 2722.000000 1299.000000 2708.000000 1309.000000 2674.000000 1313.000000 2668.000000 1343.000000 
		}
	}
	members={
		335 336 338 343 344 346 347 349 1340 1516 1522 1532 1535 1548 2866 2933 2940 2941 2942 2943 2944 2971 2972 4072 4074 4075 
	}
}
caucasus_node={
	location=423
	color={
123 24 159 	}
	inland=yes
	outgoing={
		name="crimea_node"
		path={
			1445 2581 1449 1918 1917 2573 
		}
		control={
			3488.000000 1412.000000 3478.000000 1413.000000 3473.000000 1413.000000 3464.000000 1412.000000 3452.000000 1424.000000 3436.000000 1432.000000 3419.000000 1445.000000 3397.000000 1456.000000 3388.000000 1462.000000 
		}
	}
	outgoing={
		name="bosphorous_node"
		path={
			1445 3394 3395 330 1326 328 1447 1915 1402 
		}
		control={
			3483.000000 1400.000000 3474.000000 1404.000000 3464.000000 1402.000000 3454.000000 1402.000000 3440.000000 1398.000000 3430.000000 1401.000000 3409.000000 1399.000000 3384.000000 1408.000000 3350.000000 1419.000000 3311.000000 1410.000000 3296.000000 1402.000000 3274.000000 1401.000000 
		}
	}
	members={
		416 1316 1318 1321 419 423 2581 422 424 425 1303 1317 2576 2577 2578 2579 2656 3090 1445 1442 3394 3395 418 1444 2551 3884 3803 3802 3801 3797 3804 3805 3806 3807 3808 3809 3810 3811 1301 3798 4027 4028 4029 4114 
	}
}
crimea_node={
	location=2573
	color={
59 158 125 	}
	outgoing={
		name="bosphorous_node"
		path={
			1916 1915 1914 1402 
		}
		control={
			3372.000000 1454.000000 3337.000000 1449.000000 3300.000000 1476.000000 3277.000000 1452.000000 3269.000000 1435.000000 3258.000000 1415.000000 3266.000000 1401.000000 
		}
	}
	outgoing={
		name="kiev_node"
		path={
			285 300 276 280 
		}
		control={
			3385.000000 1478.000000 3361.000000 1485.000000 3354.000000 1483.000000 3340.000000 1498.000000 3342.000000 1500.000000 3341.000000 1503.000000 3345.000000 1505.000000 3346.000000 1509.000000 3355.000000 1513.000000 3363.000000 1512.000000 3363.000000 1525.000000 3346.000000 1532.000000 3337.000000 1539.000000 3312.000000 1550.000000 3306.000000 1558.000000 3302.000000 1558.000000 3294.000000 1565.000000 
		}
	}
	members={
		282 284 285 286 287 302 1287 1298 1299 1344 1431 2274 2573 300 2545 1300 1302 1449 2549 328 330 1326 1437 1447 2574 3396 3877 3795 3796 3799 3800 3881 4018 4019 4020 4021 4110 
	}
}
moscow_node={
	location=295
	color={
177 146 37 	}
	inland=yes
	outgoing={
		name="novgorod_node"
		path={
			295 294 292 309 
		}
		control={
			3397.000000 1663.000000 3389.000000 1674.000000 3379.000000 1684.000000 3370.000000 1689.000000 3341.000000 1707.000000 3319.000000 1730.000000 
		}
	}
	outgoing={
		name="kiev_node"
		path={
			1289 381 289 280 
		}
		control={
			3412.000000 1654.000000 3416.000000 1650.000000 3411.000000 1644.000000 3396.000000 1645.000000 3388.000000 1636.000000 3377.000000 1634.000000 3379.000000 1628.000000 3378.000000 1622.000000 3359.000000 1610.000000 3349.000000 1613.000000 3346.000000 1608.000000 3346.000000 1603.000000 3336.000000 1595.000000 3331.000000 1584.000000 3316.000000 1577.000000 3304.000000 1580.000000 3294.000000 1566.000000 
		}
	}
	members={
		295 301 304 306 307 313 1194 1217 1286 1288 1290 1292 1294 1295 1296 1307 1308 1311 1343 1865 2437 2438 2439 2440 2547 2548 2582 3990 3987 3986 3985 3984 3988 3991 4016 4111 4112 
	}
}
novgorod_node={
	location=309
	color={
97 126 37 	}
	inland=yes
	outgoing={
		name="baltic_node"
		path={
			34 28 27 9 
		}
		control={
			3294.000000 1760.000000 3276.000000 1771.000000 3230.000000 1768.000000 3175.000000 1761.000000 3148.000000 1767.000000 3125.000000 1765.000000 
		}
	}
	outgoing={
		name="danzig_node"
		path={
			34 28 27 9 
		}
		control={
			3285.000000 1726.000000 3257.000000 1720.000000 3238.000000 1713.000000 3214.000000 1701.000000 3193.000000 1701.000000 3172.000000 1721.000000 3146.000000 1719.000000 3118.000000 1690.000000 
		}
	}
	outgoing={
		name="kiev_node"
		path={
			289 381 297 310 309 
		}
		control={
			3319.000000 1730.000000 3325.000000 1707.000000 3331.000000 1693.000000 3338.000000 1683.000000 3342.000000 1673.000000 3336.000000 1659.000000 3329.000000 1659.000000 3322.000000 1653.000000 3314.000000 1654.000000 3308.000000 1653.000000 3300.000000 1653.000000 3289.000000 1647.000000 3290.000000 1641.000000 3288.000000 1622.000000 3285.000000 1616.000000 3292.000000 1604.000000 3289.000000 1597.000000 3290.000000 1585.000000 3291.000000 1576.000000 
		}
	}
	members={
		33 34 35 274 277 278 279 288 290 291 292 294 308 309 310 312 314 315 1262 1291 2164 2441 2546 2580 2583 2841 2842 3401 3980 3981 3982 3993 3983 3989 3992 3994 4017 4023 
	}
}
kiev_node={
	location=280
	color={
197 26 137 	}
	inland=yes
	outgoing={
		name="krakow_node"
		path={
			261 1429 2535 262 
		}
		control={
			3263.000000 1564.000000 3237.000000 1560.000000 3219.000000 1558.000000 3200.000000 1552.000000 3171.000000 1558.000000 3145.000000 1563.000000 
		}
	}
	outgoing={
		name="danzig_node"
		path={
			1394 272 41 
		}
		control={
			3291.000000 1576.000000 3283.000000 1581.000000 3272.000000 1595.000000 3265.000000 1598.000000 3264.000000 1604.000000 3265.000000 1609.000000 3258.000000 1617.000000 3252.000000 1621.000000 3233.000000 1649.000000 3216.000000 1658.000000 3211.000000 1656.000000 3204.000000 1656.000000 3201.000000 1660.000000 3187.000000 1661.000000 3185.000000 1658.000000 3177.000000 1662.000000 3159.000000 1663.000000 3137.000000 1669.000000 3121.000000 1665.000000 3113.000000 1653.000000 
		}
	}
	members={
		261 272 275 276 280 289 293 296 297 298 299 305 311 381 1280 1289 1305 1393 1394 1395 2836 2837 2839 2840 2848 3397 3398 3763 3764 
	}
}
plains_node={
	location=896
	color={
144 52 53 	}
	inland=yes
	outgoing={
		name="hudson_node"
		path={
			906 2064 
		}
		control={
			1252.000000 1510.000000 1302.000000 1511.000000 1342.000000 1515.000000 1336.000000 1540.000000 1326.619995 1551.910034 1330.000000 1557.000000 1323.000000 1561.000000 1314.000000 1575.000000 1302.000000 1605.000000 1284.000000 1613.000000 1257.000000 1629.000000 1260.000000 1632.000000 1239.000000 1648.000000 1246.000000 1658.000000 1240.000000 1664.000000 1243.000000 1669.000000 1239.000000 1673.000000 1237.000000 1684.000000 1236.000000 1699.000000 1289.000000 1719.000000 1322.000000 1757.000000 1340.000000 1767.000000 1358.000000 1766.000000 1377.000000 1770.000000 1407.000000 1768.000000 1425.000000 1777.000000 1447.000000 1771.000000 1464.000000 1780.000000 1476.000000 1779.000000 1489.000000 1768.000000 1514.000000 1777.000000 1523.000000 1789.000000 1533.000000 1795.000000 1549.000000 1798.000000 
		}
	}
	outgoing={
		name="mississippi_node"
		path={
			3562 928 
		}
		control={
			1237.000000 1465.000000 1288.000000 1453.000000 1307.000000 1451.000000 1326.000000 1453.000000 1346.000000 1445.000000 1345.000000 1436.000000 1358.000000 1416.000000 1368.000000 1407.000000 1372.000000 1408.000000 1380.000000 1403.000000 1379.000000 1399.000000 1389.000000 1389.000000 1399.000000 1385.000000 
		}
	}
	members={
		889 1464 2195 2461 3569 3570 3571 3665 3666 858 863 884 885 886 887 888 892 893 894 895 896 897 898 899 900 901 903 905 919 1418 1419 1460 1461 1663 3547 3548 3549 3550 3551 3552 3553 3557 3558 3559 3560 3561 3566 3567 3568 3572 
	}
}
mississippi_node={
	location=928
	color={
144 123 11 	}
	outgoing={
		name="quebec_node"
		path={
			922 943 1764 1763 1762 1761 989 993 
		}
		control={
			1399.000000 1385.000000 1389.000000 1389.000000 1379.000000 1399.000000 1380.000000 1403.000000 1384.000000 1418.000000 1388.000000 1422.000000 1387.000000 1425.000000 1392.000000 1427.000000 1387.000000 1431.000000 1388.000000 1437.000000 1387.000000 1439.000000 1388.000000 1442.000000 1387.000000 1448.000000 1390.000000 1457.000000 1396.000000 1463.000000 1404.000000 1480.000000 1415.000000 1500.000000 1418.000000 1505.000000 1420.000000 1510.000000 1429.000000 1510.000000 1430.000000 1515.000000 1434.000000 1518.000000 1436.000000 1520.000000 1441.000000 1533.000000 1444.000000 1539.000000 1442.000000 1546.000000 1446.000000 1552.000000 1450.000000 1589.000000 1451.000000 1615.000000 1462.000000 1650.000000 1488.000000 1667.000000 1526.000000 1651.000000 1524.000000 1618.000000 1520.000000 1606.000000 1516.000000 1604.000000 1514.000000 1595.000000 1540.000000 1600.000000 1574.000000 1611.000000 1576.000000 1622.000000 1595.000000 1627.000000 1610.000000 1629.000000 1626.000000 1641.000000 1639.000000 1652.000000 1650.000000 1656.000000 1660.000000 1666.000000 1680.000000 1678.000000 1694.000000 1684.000000 1702.000000 1691.000000 
		}
	}
	outgoing={
		name="charleston_node"
		path={
			2181 1604 933 
		}
		control={
			1425.000000 1390.000000 1460.000000 1378.000000 1497.000000 1354.000000 1535.000000 1295.000000 1559.000000 1295.000000 1568.000000 1316.000000 1559.000000 1351.000000 1554.000000 1381.000000 1553.000000 1418.000000 1553.000000 1418.000000 
		}
	}
	outgoing={
		name="caribbean_node"
		path={
			1609 1607 1627 1628 492 
		}
		control={
			1425.000000 1390.000000 1460.000000 1378.000000 1497.000000 1354.000000 1535.000000 1295.000000 1567.829956 1286.640015 1598.000000 1265.000000 1637.000000 1241.000000 1658.000000 1227.000000 1664.000000 1208.000000 1644.000000 1205.000000 
		}
	}
	members={
		902 906 911 912 913 914 915 917 918 920 922 934 935 937 941 942 943 944 945 947 948 949 951 956 957 958 1454 1462 1493 1494 2171 2172 2785 3588 3563 3564 3565 3573 3574 3575 3576 3577 3579 3580 3581 3582 3583 3584 3585 3586 3587 3617 3618 921 925 928 1455 1457 1697 2173 3554 3555 3556 3562 3589 3590 3591 3593 
	}
}
caribbean_node={
	location=1618
	color={
213 82 109 	}
	outgoing={
		name="charleston_node"
		path={
			1628 1673 933 
		}
		control={
			1644.000000 1205.000000 1664.000000 1208.000000 1658.000000 1227.000000 1632.000000 1261.000000 1609.000000 1306.000000 1566.000000 1336.000000 1554.000000 1381.000000 1553.000000 1418.000000 
		}
	}
	outgoing={
		name="sevilla_node"
		path={
			1678 1679 1096 
		}
		control={
			1644.000000 1205.000000 1664.000000 1208.000000 1678.000000 1230.000000 1718.000000 1223.000000 1768.000000 1207.000000 1858.000000 1202.000000 2272.000000 1134.000000 2545.000000 1176.000000 2595.000000 1224.000000 2614.000000 1255.000000 2692.000000 1308.000000 2714.000000 1320.000000 
		}
	}
	members={
		481 482 483 484 485 486 487 488 489 490 491 492 493 494 495 496 497 498 499 500 501 502 1536 1537 1538 1539 1540 2591 2592 2593 2594 2595 2596 3546 1618 
	}
}
hudson_node={
	location=2064
	color={
213 32 39 	}
	outgoing={
		name="london_node"
		path={
			2063 2055 1876 236 
		}
		control={
			1565.000000 1821.000000 1563.000000 1858.000000 1600.000000 1882.000000 1566.000000 1925.000000 1576.000000 1989.000000 1610.000000 2032.000000 1688.000000 2019.000000 1772.000000 1991.000000 1840.000000 1969.000000 1989.000000 1890.000000 2084.000000 1847.000000 2263.000000 1834.000000 2375.000000 1840.000000 2484.000000 1845.000000 2657.000000 1830.000000 2731.000000 1817.000000 2779.000000 1761.000000 2803.000000 1702.000000 2830.000000 1643.000000 2848.000000 1610.000000 2831.000000 1590.000000 
		}
	}
	outgoing={
		name="north_sea_node"
		path={
			2063 2055 1857 12 
		}
		control={
			1565.000000 1821.000000 1563.000000 1858.000000 1600.000000 1882.000000 1566.000000 1925.000000 1576.000000 1989.000000 1610.000000 2032.000000 1688.000000 2019.000000 1772.000000 1991.000000 1840.000000 1969.000000 1989.000000 1890.000000 2084.000000 1847.000000 2263.000000 1834.000000 2375.000000 1840.000000 2484.000000 1845.000000 2657.000000 1830.000000 2730.000000 1819.000000 2803.000000 1791.000000 2863.000000 1737.000000 2927.000000 1714.000000 2975.000000 1727.000000 3002.000000 1697.000000 3012.000000 1681.000000 
		}
	}
	members={
		908 909 910 946 992 999 1001 1002 1004 1005 1006 1007 1008 1010 1011 1517 2159 2160 2161 2168 2169 2196 2475 3578 3653 3654 3655 3656 3657 3658 3659 3660 3661 3662 3663 3664 2064 
	}
}
quebec_node={
	location=3637
	color={
51 42 174 	}
	outgoing={
		name="aquitaine_node"
		path={
			1592 1593 1596 1667 1666 1665 1883 1871 1847 176 
		}
		control={
			1717.000000 1700.000000 1732.000000 1717.000000 1796.000000 1740.000000 1882.000000 1689.000000 1934.000000 1666.000000 2015.000000 1676.000000 2265.000000 1672.000000 2623.000000 1572.000000 2715.000000 1514.000000 2775.000000 1481.000000 2797.000000 1477.000000 2802.000000 1470.000000 
		}
	}
	outgoing={
		name="north_sea_node"
		path={
			1592 1595 1598 1599 1600 2055 2054 2051 1864 1857 1856 45 
		}
		control={
			1717.000000 1700.000000 1732.000000 1717.000000 1796.000000 1740.000000 1882.000000 1689.000000 1934.000000 1666.000000 2015.000000 1676.000000 2321.000000 1696.000000 2504.000000 1800.000000 2658.000000 1826.000000 2730.000000 1819.000000 2803.000000 1791.000000 2863.000000 1737.000000 2927.000000 1714.000000 2975.000000 1727.000000 3002.000000 1697.000000 3012.000000 1681.000000 
		}
	}
	members={
		890 971 980 981 982 983 984 985 986 987 988 989 990 991 993 994 995 996 997 998 1000 1003 1009 1489 2180 2182 2183 2197 2198 2481 3632 3633 3634 3635 3636 3637 3638 3639 3640 3641 3642 3643 3644 3645 3646 3647 3648 3649 3650 3651 3652 3695 
	}
}
charleston_node={
	location=933
	color={
224 120 62 	}
	outgoing={
		name="new_york_node"
		path={
			1603 1602 965 
		}
		control={
			1570.000000 1428.000000 1624.000000 1466.000000 1639.000000 1479.000000 1637.000000 1507.000000 1658.000000 1552.000000 
		}
	}
	outgoing={
		name="lisboa_node"
		path={
			1674 1669 1668 
		}
		control={
			1590.000000 1417.000000 1828.000000 1423.000000 2328.000000 1342.000000 2423.000000 1347.000000 2546.000000 1336.000000 2651.000000 1340.000000 
		}
	}
	members={
		904 923 924 926 927 929 930 931 932 933 936 938 1451 1453 1456 2174 2175 2176 2181 3592 3594 3595 3596 3597 3598 3599 3600 3601 3602 3603 3604 3605 3606 3607 3608 3609 3610 3611 3612 3613 3696 
	}
}
new_york_node={
	location=965
	color={
69 157 208 	}
	outgoing={
		name="aquitaine_node"
		path={
			1601 1665 176 
		}
		control={
			1710.000000 1566.000000 1862.000000 1636.000000 2015.000000 1676.000000 2296.000000 1668.000000 2623.000000 1572.000000 2715.000000 1514.000000 2775.000000 1481.000000 2796.000000 1476.000000 2802.000000 1470.000000 
		}
	}
	outgoing={
		name="london_node"
		path={
			1594 1596 1882 239 237 
		}
		control={
			1710.000000 1566.000000 1862.000000 1636.000000 2015.000000 1676.000000 2265.000000 1672.000000 2566.000000 1606.000000 2663.000000 1586.000000 2716.000000 1575.000000 2750.000000 1587.000000 2763.000000 1586.000000 2773.000000 1593.000000 2782.000000 1591.000000 2793.000000 1595.000000 2797.000000 1589.000000 2801.000000 1591.000000 2806.000000 1588.000000 
		}
	}
	members={
		916 939 940 950 952 953 954 955 959 960 961 962 963 964 965 966 967 968 969 970 1452 1458 1459 2177 2178 2179 2671 3614 3615 3616 3619 3620 3621 3622 3623 3624 3625 3626 3627 3628 3629 3630 3631 3691 
	}
}
bosphorous_node={
	location=1402
	color={
126 203 120 	}
	outgoing={
		name="balkan_node"
		path={
			151 1427 157 2382 156 1397 1392 1914 
		}
		control={
			3256.000000 1389.000000 3240.000000 1385.000000 3225.000000 1375.000000 3213.000000 1369.000000 3199.000000 1338.000000 3200.000000 1314.000000 3183.000000 1302.000000 3166.000000 1301.000000 3129.000000 1332.000000 3112.000000 1380.000000 3098.000000 1409.000000 
		}
	}
	outgoing={
		name="napoli_node"
		path={
			1898 1901 1905 1906 2783 1913 1914 
		}
		control={
			3240.000000 1385.000000 3225.000000 1375.000000 3213.000000 1369.000000 3199.000000 1338.000000 3200.000000 1314.000000 3183.000000 1302.000000 3166.000000 1301.000000 3129.000000 1332.000000 3095.000000 1342.000000 3067.000000 1330.000000 3059.000000 1341.000000 3055.000000 1356.000000 3032.000000 1379.000000 3032.000000 1379.000000 
		}
	}
	members={
		145 146 147 149 150 151 155 157 159 164 316 317 318 319 320 322 323 324 325 326 327 329 331 1325 1333 1401 1402 1425 1426 1427 1434 1435 1438 1439 1440 1441 1443 1446 1591 1755 1848 2124 2238 2380 2381 2382 2387 2501 2540 2541 2542 2552 2553 2572 2664 3383 3384 3385 3386 3387 3388 3389 3390 3391 3392 161 1398 2376 2377 2378 3779 3780 3781 3782 3783 3784 3785 3786 3787 3871 3872 3873 3874 3876 3875 3878 3879 3882 3883 3393 4059 4060 4061 4062 4063 4064 4065 4066 4067 
	}
}
krakow_node={
	location=262
	color={
197 92 106 	}
	inland=yes
	outgoing={
		name="danzig_node"
		path={
			263 255 2398 43 
		}
		control={
			3130.000000 1559.000000 3134.000000 1561.000000 3141.000000 1563.000000 3148.000000 1567.000000 3155.000000 1573.000000 3155.000000 1581.000000 3158.000000 1586.000000 3150.000000 1591.000000 3146.000000 1600.000000 3141.000000 1604.000000 3128.000000 1605.000000 3108.000000 1613.000000 3099.000000 1620.000000 3107.000000 1627.000000 3109.000000 1637.000000 
		}
	}
	outgoing={
		name="ostmark_node"
		path={
			2536 1406 1272 133 
		}
		control={
			3116.000000 1561.000000 3104.000000 1555.000000 3095.000000 1553.000000 3090.000000 1544.000000 3081.000000 1542.000000 3074.000000 1529.000000 
		}
	}
	members={
		254 255 256 257 258 259 260 262 263 271 283 1279 1281 1429 1531 2399 2400 2401 2506 2507 2535 2536 2537 2814 2815 2816 2832 2833 2834 160 1269 1400 1433 2236 2379 2626 2838 3756 3757 3758 3759 3760 3761 3762 3791 3792 3793 3794 4026 
	}
}
napoli_node={
	location=2531
	color={
160 30 154 	}
	outgoing={
		name="balkan_node"
		path={
			121 2533 1904 1903 1902 112 
		}
		control={
			3040.000000 1380.000000 3055.000000 1356.000000 3059.000000 1341.000000 3067.000000 1330.000000 3093.000000 1350.000000 3111.000000 1377.000000 3098.000000 1409.000000 
		}
	}
	outgoing={
		name="genoa_node"
		path={
			2562 118 117 1380 115 2564 101 
		}
		control={
			3027.000000 1386.000000 3011.000000 1392.000000 2990.000000 1407.000000 2973.000000 1419.000000 2968.000000 1433.000000 2958.000000 1440.000000 
		}
	}
	outgoing={
		name="barcelona_node"
		path={
			2562 118 3698 1892 1891 1890 213 
		}
		control={
			3027.000000 1386.000000 3011.000000 1392.000000 2990.000000 1407.000000 2973.000000 1419.000000 2965.000000 1434.000000 2938.000000 1432.000000 2900.000000 1423.000000 2887.000000 1420.000000 2870.000000 1406.000000 2852.000000 1398.000000 
		}
	}
	members={
		119 120 121 122 123 124 125 126 127 1285 1413 2241 2242 2357 2531 2532 2533 2534 2562 2852 2853 2854 2855 2856 2857 2858 3870 
	}
}
balkan_node={
	location=137
	color={
250 170 120 	}
	outgoing={
		name="venezia_node"
		path={
			1903 1902 112 
		}
		control={
			3070.000000 1423.000000 3036.000000 1449.000000 
		}
	}
	outgoing={
		name="ostmark_node"
		path={
			1392 1397 141 2612 2390 153 133 
		}
		control={
			3112.000000 1427.000000 3125.000000 1430.000000 3140.000000 1448.000000 3125.000000 1456.000000 3100.000000 1471.000000 3096.000000 1489.000000 
		}
	}
	members={
		129 131 137 138 139 140 141 142 144 148 152 154 156 805 1268 1392 1396 1397 1399 1403 1424 1436 1767 2137 2237 2373 2374 2384 2388 2389 2390 2391 2392 2612 3747 3773 3774 3775 3776 3777 3778 
	}
}
ostmark_node={
	location=83
	color={
221 223 225 	}
	inland=yes
	outgoing={
		name="venezia_node"
		path={
			2436 135 83 132 128 1355 111 107 
		}
		control={
			3066.000000 1515.000000 3066.000000 1502.000000 3062.000000 1493.000000 3055.000000 1498.000000 3047.000000 1498.000000 3037.000000 1497.000000 3030.000000 1491.000000 3025.000000 1488.000000 3025.000000 1484.000000 3023.000000 1481.000000 3024.000000 1477.000000 3013.000000 1473.000000 
		}
	}
	outgoing={
		name="hansa_node"
		path={
			268 266 2617 1373 
		}
		control={
			3069.000000 1529.000000 3057.000000 1533.000000 3046.000000 1537.000000 3043.000000 1546.000000 3039.000000 1551.000000 3041.000000 1555.000000 3041.000000 1561.000000 3038.000000 1564.000000 3041.000000 1567.000000 3036.000000 1573.000000 3039.000000 1575.000000 3035.000000 1579.000000 3027.000000 1581.000000 3019.000000 1589.000000 3014.000000 1595.000000 3006.000000 1596.000000 2997.000000 1600.000000 3003.000000 1609.000000 3001.000000 1617.000000 2982.000000 1624.000000 2974.000000 1627.000000 2981.000000 1630.000000 
		}
	}
	outgoing={
		name="bayern_node"
		path={
			1510 134 1351 
		}
		control={
			3063.000000 1530.000000 3054.000000 1527.000000 3042.000000 1527.000000 3033.000000 1530.000000 3025.000000 1533.000000 3023.000000 1528.000000 3013.000000 1526.000000 3006.000000 1525.000000 3003.000000 1518.000000 
		}
	}
	members={
		60 73 76 83 84 128 132 134 265 266 267 268 270 1277 1510 2383 2831 2846 3322 133 135 153 158 1267 1270 1271 1272 1273 1274 1275 1276 1404 1405 1450 1859 2275 2375 2436 3748 3749 3750 3751 3752 3753 3754 3755 3769 3770 3771 3772 3788 3789 3790 162 1282 1406 
	}
}
bayern_node={
	location=65
	color={
121 123 245 	}
	inland=yes
	outgoing={
		name="frankfurt_node"
		path={
			1358 58 
		}
		control={
			2982.000000 1528.000000 2972.000000 1531.000000 2958.000000 1553.000000 2953.000000 1560.000000 
		}
	}
	outgoing={
		name="rhone_node"
		path={
			1358 2622 2359 
		}
		control={
			2969.000000 1508.000000 2957.000000 1508.000000 2931.000000 1502.000000 2911.000000 1494.000000 2899.000000 1499.000000 2890.000000 1497.000000 2890.000000 1492.000000 2889.000000 1489.000000 2889.000000 1482.000000 
		}
	}
	outgoing={
		name="venezia_node"
		path={
			110 108 1348 
		}
		control={
			3003.000000 1514.000000 2994.000000 1510.000000 2989.000000 1498.000000 2992.000000 1494.000000 2985.000000 1483.000000 2985.000000 1476.000000 2991.000000 1473.000000 2994.000000 1469.000000 3005.000000 1468.000000 3009.000000 1471.000000 
		}
	}
	members={
		64 65 69 70 74 75 77 80 81 82 165 189 193 974 1254 1349 1351 1356 1358 1360 1361 1374 1389 1448 1509 2334 2359 2366 2614 2615 2622 2812 3379 3746 3856 3857 3858 4005 4006 4007 4010 4011 4228 
	}
}
rhone_node={
	location=976
	color={
153 165 149 	}
	outgoing={
		name="barcelona_node"
		path={
			1890 1889 
		}
		control={
			2888.000000 1470.000000 2888.000000 1470.000000 2890.000000 1461.000000 2886.000000 1452.000000 2891.000000 1446.000000 2886.000000 1441.000000 2888.000000 1437.000000 2882.000000 1422.000000 2870.000000 1406.000000 2852.000000 1398.000000 
		}
	}
	outgoing={
		name="paris_node"
		path={
			2332 191 1335 183 
		}
		control={
			2882.000000 1486.000000 2868.000000 1500.000000 2864.000000 1525.000000 
		}
	}
	outgoing={
		name="genoa_node"
		path={
			204 2798 104 1347 101 
		}
		control={
			2901.000000 1467.000000 2905.000000 1466.000000 2909.000000 1470.000000 2915.000000 1476.000000 2917.000000 1475.000000 2927.000000 1477.000000 2935.000000 1478.000000 2938.000000 1473.000000 2948.000000 1467.000000 2955.000000 1467.000000 
		}
	}
	members={
		190 199 200 201 202 203 204 976 1323 1382 1383 1512 2332 2335 2361 2385 3377 3860 
	}
}
barcelona_node={
	location=213
	color={
166 68 72 	}
	outgoing={
		name="sevilla_node"
		path={
			1889 1888 2311 
		}
		control={
			2845.000000 1387.000000 2826.000000 1374.000000 2820.000000 1350.000000 2782.479980 1312.050049 2735.000000 1304.000000 2717.000000 1304.000000 2712.000000 1316.000000 
		}
	}
	outgoing={
		name="aquitaine_node"
		path={
			181 211 179 1381 176 
		}
		control={
			2842.000000 1392.000000 2826.000000 1387.000000 2822.000000 1391.000000 2824.000000 1396.000000 2818.000000 1400.000000 2812.000000 1398.000000 2808.000000 1399.000000 2805.000000 1402.000000 2791.000000 1410.000000 2786.000000 1420.000000 2787.000000 1425.000000 2794.000000 1435.000000 2795.000000 1442.000000 2802.000000 1452.000000 2805.000000 1462.000000 
		}
	}
	outgoing={
		name="genoa_node"
		path={
			1890 1891 1892 101 
		}
		control={
			2852.000000 1398.000000 2870.000000 1406.000000 2887.000000 1420.000000 2900.000000 1423.000000 2943.000000 1434.000000 2954.000000 1442.000000 
		}
	}
	members={
		181 197 210 211 212 213 214 220 333 1284 1408 1420 1845 2358 2368 2369 2473 2565 3366 3367 3368 3369 3370 3863 
	}
}
sevilla_node={
	location=2311
	color={
231 181 12 	}
	outgoing={
		name="lisboa_node"
		path={
			1886 1885 
		}
		control={
			2711.000000 1319.000000 2700.000000 1320.000000 2673.000000 1316.000000 2668.000000 1343.000000 
		}
	}
	outgoing={
		name="genoa_node"
		path={
			1886 101 
		}
		control={
			2712.000000 1312.000000 2717.000000 1304.000000 2735.000000 1304.000000 2783.000000 1312.000000 2820.000000 1350.000000 2826.000000 1374.000000 2845.000000 1387.000000 2870.000000 1406.000000 2887.000000 1420.000000 2900.000000 1423.000000 2938.000000 1432.000000 2954.000000 1442.000000 
		}
	}
	members={
		182 198 207 208 215 216 217 218 219 221 222 223 224 225 226 227 337 350 366 1407 1409 1533 1534 2310 2311 2312 2313 2314 2371 2448 2566 2567 2751 2865 3352 3353 3354 3355 3356 3357 3358 3359 3360 3361 3362 3363 3364 3365 3864 3865 209 1421 4069 4070 4071 4122 
	}
}
lisboa_node={
	location=230
	color={
125 175 255 	}
	outgoing={
		name="aquitaine_node"
		path={
			1885 1884 1872 1847 176 
		}
		control={
			2664.000000 1347.000000 2662.000000 1374.000000 2668.000000 1448.000000 2753.000000 1448.000000 2786.000000 1458.000000 2794.000000 1476.000000 2802.000000 1470.000000 
		}
	}
	outgoing={
		name="low_countries_node"
		path={
			1885 1884 1883 1870 1869 1867 
		}
		control={
			2664.000000 1347.000000 2662.000000 1374.000000 2665.000000 1451.000000 2723.000000 1478.000000 2733.000000 1520.000000 2739.000000 1542.000000 2789.000000 1562.000000 2821.000000 1570.000000 2850.000000 1589.000000 
		}
	}
	members={
		143 206 228 229 230 231 232 334 367 368 1096 1422 1423 1508 1585 2308 2309 2454 2869 2896 2962 3346 3347 3348 3349 3350 3351 4073 
	}
}
aquitaine_node={
	location=176
	color={
103 44 10 	}
	outgoing={
		name="london_node"
		path={
			1847 1757 1754 1919 239 237 
		}
		control={
			2802.000000 1470.000000 2796.000000 1476.000000 2775.000000 1481.000000 2740.000000 1501.000000 2735.000000 1520.000000 2739.000000 1542.000000 2789.000000 1562.000000 2821.000000 1570.000000 2839.000000 1586.000000 2824.000000 1589.000000 
		}
	}
	outgoing={
		name="paris_node"
		path={
			2239 173 180 195 2362 184 2356 183 
		}
		control={
			2802.000000 1470.000000 2796.000000 1476.000000 2775.000000 1498.000000 2780.000000 1508.000000 2791.000000 1505.000000 2807.000000 1509.000000 2818.000000 1503.000000 2824.000000 1506.000000 2832.000000 1508.000000 2845.000000 1518.000000 2837.000000 1527.000000 
		}
	}
	members={
		172 173 174 175 176 179 180 194 196 357 1375 1381 1384 1385 2234 2239 2514 2550 3371 3372 3373 3861 3862 169 170 171 178 1388 2329 4008 
	}
}
paris_node={
	location=183
	color={
10 20 150 	}
	inland=yes
	outgoing={
		name="low_countries_node"
		path={
			1387 2353 91 2363 1867 
		}
		control={
			2848.000000 1536.000000 2845.000000 1536.000000 2839.000000 1540.000000 2835.000000 1543.000000 2827.000000 1549.000000 2819.000000 1548.000000 2810.000000 1551.000000 2826.000000 1570.000000 2850.000000 1589.000000 
		}
	}
	outgoing={
		name="frankfurt_node"
		path={
			1387 186 1511 1362 1367 2756 1365 
		}
		control={
			2858.000000 1537.000000 2862.000000 1537.000000 2873.000000 1542.000000 2881.000000 1537.000000 2894.000000 1529.000000 2913.000000 1524.000000 2909.000000 1535.000000 2934.000000 1534.000000 2938.000000 1537.000000 2944.000000 1544.000000 2947.000000 1553.000000 2944.000000 1559.000000 
		}
	}
	members={
		89 167 168 177 183 184 186 187 188 191 192 195 391 1335 1386 1387 2240 2330 2331 2362 2354 2356 2365 3374 3375 3376 4186 
	}
}
frankfurt_node={
	location=1365
	color={
93 78 117 	}
	inland=yes
	outgoing={
		name="low_countries_node"
		path={
			1362 93 2367 1867 
		}
		control={
			2942.000000 1561.000000 2934.000000 1562.000000 2932.000000 1568.000000 2925.000000 1574.000000 2925.000000 1577.000000 2921.000000 1581.000000 2918.000000 1588.000000 2917.000000 1593.000000 2906.000000 1597.000000 2897.000000 1594.000000 2886.000000 1596.000000 2881.000000 1595.000000 2877.000000 1597.000000 
		}
	}
	outgoing={
		name="hansa_node"
		path={
			2757 79 49 1353 53 45 
		}
		control={
			2953.000000 1570.000000 2965.000000 1575.000000 2962.000000 1581.000000 2964.000000 1586.000000 2962.000000 1593.000000 2960.000000 1598.000000 2953.000000 1603.000000 2959.000000 1614.000000 2954.000000 1621.000000 2949.000000 1624.000000 2946.000000 1639.000000 2957.000000 1637.000000 2962.000000 1632.000000 2967.000000 1631.000000 2974.000000 1627.000000 2981.000000 1630.000000 
		}
	}
	members={
		49 52 56 58 59 61 66 71 78 79 85 86 973 1253 1350 1362 1363 1364 1365 1366 1367 1368 1369 1370 1373 2187 2616 2617 2618 2619 2623 2637 2756 2757 2813 3378 3380 3723 3724 3725 3726 3727 3728 3729 3730 3731 3732 3733 3734 3735 3736 3737 3738 3739 3740 3741 3744 3812 3813 3814 3815 3822 3850 3851 3852 3853 3854 3855 4009 
	}
}
baltic_node={
	location=1
	color={
75 75 175 	}
	outgoing={
		name="hansa_node"
		path={
			1853 1856 45 
		}
		control={
			3105.000000 1757.000000 3105.000000 1757.000000 3108.000000 1752.000000 3090.000000 1720.000000 3075.000000 1685.000000 3044.000000 1671.000000 3023.000000 1658.000000 3004.000000 1649.000000 
		}
	}
	outgoing={
		name="danzig_node"
		path={
			1853 1856 45 
		}
		control={
			3116.000000 1756.000000 3116.000000 1727.000000 
		}
	}
	outgoing={
		name="north_sea_node"
		path={
			1 1853 1855 12 
		}
		control={
			3105.000000 1757.000000 3108.000000 1752.000000 3090.000000 1720.000000 3075.000000 1685.000000 3044.000000 1671.000000 3021.000000 1665.000000 
		}
	}
	members={
		1 2 3 4 5 7 8 9 10 11 19 25 27 28 29 30 31 32 891 1257 1258 1259 1260 1261 2327 3997 
	}
}
danzig_node={
	location=2355
	color={
140 11 190 	}
	outgoing={
		name="north_sea_node"
		path={
			1855 1856 12 
		}
		control={
			3103.000000 1662.000000 3062.000000 1655.000000 3040.000000 1647.000000 3023.000000 1661.000000 
		}
	}
	outgoing={
		name="hansa_node"
		path={
			1855 1856 45 
		}
		control={
			3103.000000 1662.000000 3062.000000 1655.000000 3040.000000 1647.000000 3023.000000 1658.000000 3004.000000 1649.000000 
		}
	}
	members={
		38 40 41 42 43 1265 1391 1844 2355 2398 36 37 39 273 1263 1264 1354 1430 1432 3399 3400 3765 3766 3767 3768 4024 4025 
	}
}
north_sea_node={
	location=12
	color={
50 50 0 	}
	outgoing={
		name="london_node"
		path={
			2055 2054 1874 1868 
		}
		control={
			3012.000000 1681.000000 3002.000000 1697.000000 2975.000000 1727.000000 2935.000000 1707.000000 2933.000000 1667.000000 2928.000000 1643.000000 2896.000000 1634.000000 2877.000000 1611.000000 2852.000000 1592.000000 2835.000000 1589.000000 
		}
	}
	outgoing={
		name="hansa_node"
		path={
			2054 1857 
		}
		control={
			3013.000000 1661.000000 3004.000000 1650.000000 
		}
	}
	members={
		6 12 13 14 15 16 17 18 20 21 22 23 24 26 370 371 1104 1251 67 1255 1256 1266 1428 2754 2755 3720 3721 3722 3998 2333 
	}
}
london_node={
	location=236
	color={
153 0 0 	}
	outgoing={
		name="low_countries_node"
		path={
			235 2363 236 1867 
		}
		control={
			2824.000000 1589.000000 2845.000000 1590.000000 2861.000000 1595.000000 
		}
	}
	outgoing={
		name="hansa_node"
		path={
			1868 1867 1371 100 55 54 1252 45 
		}
		control={
			2835.000000 1589.000000 2852.000000 1592.000000 2877.000000 1611.000000 2896.000000 1634.000000 2928.000000 1643.000000 2933.000000 1667.000000 2935.000000 1707.000000 2975.000000 1727.000000 2998.000000 1699.000000 2984.000000 1680.000000 2986.000000 1664.000000 2984.000000 1653.000000 2987.000000 1645.000000 
		}
	}
	members={
		233 234 235 236 237 238 239 240 241 242 243 244 245 246 247 248 249 250 251 252 253 369 372 373 374 375 376 399 409 427 1250 1283 1410 1411 1412 1416 1417 1514 2386 2512 2529 3323 3324 3325 3326 3327 3328 3329 3330 3331 3332 3333 3334 3335 3336 3337 3338 3719 3859 
	}
}
genoa_node={
	location=101
	color={
218 215 56 	}
	members={
		68 101 102 103 104 106 115 116 117 118 185 205 1247 1346 1347 1376 1377 1379 1380 1390 1415 1513 2530 2563 2564 2851 3697 3698 3699 3703 3866 3868 3869 
	}
	end=yes
}
venezia_node={
	location=112
	color={
208 104 44 	}
	members={
		62 105 107 108 109 110 111 112 113 114 130 136 166 1345 1348 1355 1378 1414 1858 2372 2452 2453 2571 2611 2624 2625 3381 3382 3700 3701 3702 3867 4034 
	}
	end=yes
}
hansa_node={
	location=45
	color={
193 178 117 	}
	members={
		44 45 46 47 48 50 53 54 55 57 72 100 264 1252 1352 1353 1357 2515 2620 2621 2835 2843 2844 2845 2847 2849 2850 269 1278 1359 2561 2633 3742 3743 3745 3817 3818 3819 3820 3821 3999 4000 4001 4002 4003 4015 
	}
	end=yes
}
low_countries_node={
	location=1867
	color={
195 90 0 	}
	members={
		51 63 87 88 90 91 92 93 94 95 96 97 98 99 1371 1372 1511 2307 2353 2360 2363 2364 2367 2370 2449 2450 2451 2795 1867 4004 
	}
	end=yes
}
