#vassal = {
#	first = BLU
#	second = KAZ
#	start_date = 1356.1.1
#	end_date = 1382.1.1
#}

#vassal = {
#	first = GOL
#	second = KAZ
#	start_date = 1438.1.1
#	end_date = 1438.1.1
#}

vassal = {
	first = WHI
	second = SIB
	start_date = 1356.1.1
	end_date = 1382.1.1
}

vassal = {
	first = GOL
	second = SIB
	start_date = 1382.1.1
	end_date = 1441.1.1
}
