
# Philosopher
country_event = {
	id = great_men.4021
	title = "EVTNAME4021"
	desc = "EVTDESC4021"
	picture = ADVISOR_eventPicture
	
	trigger = {
		philosopher = 3
		NOT = { has_country_flag = philosopher }
		NOT = { has_country_modifier = reduced_stability_cost }
	}
	
	mean_time_to_happen = {
		months = 300
		
		modifier = {
			factor = 0.9
			innovativeness_ideas = 4
		}
		modifier = {
			factor = 0.9
			innovativeness_ideas = 6
		}
		modifier = {
			factor = 1.1
			NOT = { innovativeness_ideas = 4 }
		}
		modifier = {
			factor = 1.1
			NOT = { innovativeness_ideas = 2 }
		}
	}
	
	option = {
		name = "EVTOPTA4021"	# His efforts will be admired throughout the nation
		ai_chance = {
			factor = 50
			modifier = {
				factor = 0
				stability = 2
			}
		}
		add_country_modifier = {
			name = "reduced_stability_cost"
			duration = 365
		}
		set_country_flag = philosopher
	}
		
	option = {
		name = "EVTOPTB4021"	# His reputation will reach further than our borders
		ai_chance = {
			factor = 50
			modifier = {
				factor = 0
				NOT = { stability = 1 }
			}
		}
		add_prestige = 15
		set_country_flag = philosopher
	}
}

# Natural Scientist
country_event = {
	id = great_men.4022
	title = "EVTNAME4022"
	desc = "EVTDESC4022"
	picture = ADVISOR_eventPicture
	
	trigger = {
		natural_scientist = 3
		NOT = { has_country_flag = natural_scientist }
		NOT = { has_country_modifier = reduced_stability_cost }
	}
	
	mean_time_to_happen = {
		months = 300
		
		modifier = {
			factor = 0.9
			innovativeness_ideas = 4
		}
		modifier = {
			factor = 0.9
			innovativeness_ideas = 6
		}
		modifier = {
			factor = 1.1
			NOT = { innovativeness_ideas = 4 }
		}
		modifier = {
			factor = 1.1
			NOT = { innovativeness_ideas = 2 }
		}
	}
	
	option = {
		name = "EVTOPTA4022"	# His efforts will be admired throughout the nation
		ai_chance = {
			factor = 50
			modifier = {
				factor = 0
				stability = 2
			}
		}
		add_country_modifier = {
			name = "reduced_stability_cost"
			duration = 365
		}
		add_country_modifier = {
			name = "scientific_evolution"
			duration = 2190
		}
		set_country_flag = natural_scientist
	}

	option = {
		name = "EVTOPTB4022"	# His reputation will reach further than our borders
		ai_chance = {
			factor = 50
			modifier = {
				factor = 0
				NOT = { stability = 1 }
			}
		}
		add_prestige = 15
		add_country_modifier = {
			name = "scientific_evolution"
			duration = 2190
		}
		set_country_flag = natural_scientist
	}
}


# Army Reformer
country_event = {
	id = great_men.4023
	title = "EVTNAME4023"
	desc = "EVTDESC4023"
	picture = REFORM_eventPicture
	
	trigger = {
		army_reformer = 3
		NOT = { has_country_flag = army_reformer }
		NOT = { has_country_modifier = reduced_stability_cost }
	}
	
	mean_time_to_happen = {
		months = 300
		
		modifier = {
			factor = 0.9
			innovativeness_ideas = 4
		}
		modifier = {
			factor = 0.9
			innovativeness_ideas = 6
		}
		modifier = {
			factor = 1.1
			NOT = { innovativeness_ideas = 4 }
		}
		modifier = {
			factor = 1.1
			NOT = { innovativeness_ideas = 2 }
		}
	}
	
	option = {
		name = "EVTOPTA4023"	# His efforts will be admired throughout the nation
		ai_chance = {
			factor = 50
			modifier = {
				factor = 0
				stability = 2
			}
		}
		add_country_modifier = {
			name = "reduced_stability_cost"
			duration = 365
		}
		add_country_modifier = {
			name = "land_investment"
			duration = 2190
		}
		set_country_flag = army_reformer
	}

	option = {
		name = "EVTOPTB4023"	# His reputation will reach further than our borders
		ai_chance = {
			factor = 50
			modifier = {
				factor = 0
				NOT = { stability = 1 }
			}
		}
		add_prestige = 15
		add_country_modifier = {
			name = "land_investment"
			duration = 2190
		}
		set_country_flag = army_reformer
	}
}

# Naval reformer
country_event = {
	id = great_men.4024
	title = "EVTNAME4024"
	desc = "EVTDESC4024"
	picture = REFORM_eventPicture
	
	trigger = {
		naval_reformer = 3
		NOT = { has_country_flag = naval_reformer }
		NOT = { has_country_modifier = reduced_stability_cost }
	}
	
	mean_time_to_happen = {
		months = 300

		modifier = {
			factor = 0.9
			innovativeness_ideas = 4
		}
		modifier = {
			factor = 0.9
			innovativeness_ideas = 6
		}
		modifier = {
			factor = 1.1
			NOT = { innovativeness_ideas = 4 }
		}
		modifier = {
			factor = 1.1
			NOT = { innovativeness_ideas = 2 }
		}
	}
	
	option = {
		name = "EVTOPTA4024"	# His efforts will be admired throughout the nation
		ai_chance = {
			factor = 50
			modifier = {
				factor = 0
				stability = 2
			}
		}
		add_country_modifier = {
			name = "reduced_stability_cost"
			duration = 365
		}
		add_country_modifier = {
			name = "naval_investment"
			duration = 2190
		}
		set_country_flag = naval_reformer
	}
		
	option = {
		name = "EVTOPTB4024"	# His reputation will reach further than our borders
		ai_chance = {
			factor = 50
			modifier = {
				factor = 0
				NOT = { stability = 1 }
			}
		}
		add_prestige = 15
		add_country_modifier = {
			name = "naval_investment"
			duration = 2190
		}
		set_country_flag = naval_reformer
	}
}


# Artist
country_event = {
	id = great_men.4025
	title = "EVTNAME4025"
	desc = "EVTDESC4025"
	picture = PAINTER_ARTIST_eventPicture
	
	trigger = {
		artist = 3
		NOT = { has_country_flag = artist }
		NOT = { has_country_modifier = reduced_stability_cost }
	}
	
	mean_time_to_happen = {
		months = 300
		

		modifier = {
			factor = 0.9
			innovativeness_ideas = 4
		}
		modifier = {
			factor = 0.9
			innovativeness_ideas = 6
		}
		modifier = {
			factor = 1.1
			NOT = { innovativeness_ideas = 4 }
		}
		modifier = {
			factor = 1.1
			NOT = { innovativeness_ideas = 2 }
		}
	}
	
	option = {
		name = "EVTOPTA4025"	# His efforts will be admired throughout the nation
		ai_chance = {
			factor = 50
			modifier = {
				factor = 0
				stability = 2
			}
		}
		add_country_modifier = {
			name = "reduced_stability_cost"
			duration = 365
		}
		add_country_modifier = {
			name = "reduced_stability_cost"
			duration = 2190
		}
		set_country_flag = artist
	}

	option = {
		name = "EVTOPTB4025"	# His reputation will reach further than our borders
		ai_chance = {
			factor = 50
			modifier = {
				factor = 0
				NOT = { stability = 1 }
			}
		}
		add_prestige = 15
		add_country_modifier = {
			name = "reduced_stability_cost"
			duration = 2190
		}
		set_country_flag = artist
	}
}


# Treasurer
country_event = {
	id = great_men.4026
	title = "EVTNAME4026"
	desc = "EVTDESC4026"
	picture = ADVISOR_eventPicture
	
	trigger = {
		treasurer = 3
		NOT = { has_country_flag = treasurer }
		NOT = { has_country_modifier = reduced_stability_cost }
	}
	
	mean_time_to_happen = {
		months = 300
		
	
		modifier = {
			factor = 0.9
			innovativeness_ideas = 4
		}
		modifier = {
			factor = 0.9
			innovativeness_ideas = 6
		}
		modifier = {
			factor = 1.1
			NOT = { innovativeness_ideas = 4 }
		}
		modifier = {
			factor = 1.1
			NOT = { innovativeness_ideas = 2 }
		}
	}
	
	option = {
		name = "EVTOPTA4026"	# His efforts will be admired throughout the nation
		ai_chance = {
			factor = 50
			modifier = {
				factor = 0
				stability = 2
			}
		}
		add_country_modifier = {
			name = "reduced_stability_cost"
			duration = 365
		}
		add_country_modifier = {
			name = "trading_investment"
			duration = 2190
		}
		set_country_flag = treasurer
	}
		
	option = {
		name = "EVTOPTB4026"	# His reputation will reach further than our borders
		ai_chance = {
			factor = 50
			modifier = {
				factor = 0
				NOT = { stability = 1 }
			}
		}
		add_prestige = 15
		add_country_modifier = {
			name = "trading_investment"
			duration = 2190
		}
		set_country_flag = treasurer
	}
}


# Theologian
country_event = {
	id = great_men.4027
	title = "EVTNAME4027"
	desc = "EVTDESC4027"
	picture = ADVISOR_eventPicture
	
	trigger = {
		theologian = 3
		NOT = { has_country_flag = theologian }
		NOT = { has_country_modifier = reduced_stability_cost }
	}
	
	mean_time_to_happen = {
		months = 300
		

		modifier = {
			factor = 0.9
			innovativeness_ideas = 4
		}
		modifier = {
			factor = 0.9
			innovativeness_ideas = 6
		}
		modifier = {
			factor = 1.1
			NOT = { innovativeness_ideas = 4 }
		}
		modifier = {
			factor = 1.1
			NOT = { innovativeness_ideas = 2 }
		}
	}
	
	option = {
		name = "EVTOPTA4027"	# His efforts will be admired throughout the nation
		ai_chance = {
			factor = 50
			modifier = {
				factor = 0
				stability = 2
			}
		}
		add_country_modifier = {
			name = "reduced_stability_cost"
			duration = 365
		}
		add_country_modifier = {
			name = "theology"
			duration = 2190
		}
		set_country_flag = theologian
	}
		
	option = {
		name = "EVTOPTB4027"	# His reputation will reach further than our borders
		ai_chance = {
			factor = 50
			modifier = {
				factor = 0
				NOT = { stability = 1 }
			}
		}
		add_prestige = 15
		add_country_modifier = {
			name = "theology"
			duration = 2190
		}		
		set_country_flag = theologian
	}
}


# Statesman
country_event = {
	id = great_men.4028
	title = "EVTNAME4028"
	desc = "EVTDESC4028"
	picture = ADVISOR_eventPicture
	
	trigger = {
		statesman = 3
		NOT = { has_country_flag = statesman }
		NOT = { has_country_modifier = reduced_stability_cost }
	}
	
	mean_time_to_happen = {
		months = 300
		

		modifier = {
			factor = 0.9
			innovativeness_ideas = 4
		}
		modifier = {
			factor = 0.9
			innovativeness_ideas = 6
		}
		modifier = {
			factor = 1.1
			NOT = { innovativeness_ideas = 4 }
		}
		modifier = {
			factor = 1.1
			NOT = { innovativeness_ideas = 2 }
		}
	}
	
	option = {
		name = "EVTOPTA4028"	# His efforts will be admired throughout the nation
		ai_chance = {
			factor = 50
			modifier = {
				factor = 0
				stability = 2
			}
		}
		add_country_modifier = {
			name = "reduced_stability_cost"
			duration = 365
		}
		add_country_modifier = {
			name = "government_investment"
			duration = 2190
		}
		set_country_flag = statesman
	}
		
	option = {
		name = "EVTOPTB4028"	# His reputation will reach further than our borders
		ai_chance = {
			factor = 50
			modifier = {
				factor = 0
				NOT = { stability = 1 }
			}
		}
		add_prestige = 15
		add_country_modifier = {
			name = "government_investment"
			duration = 2190
		}
		set_country_flag = statesman
	}
}


# Colonial Governor
country_event = {
	id = great_men.4029
	title = "EVTNAME4029"
	desc = "EVTDESC4029"
	picture = ADVISOR_eventPicture
	
	
	trigger = {
		colonial_governor = 3
		NOT = { has_country_flag = colonial_governor }
		NOT = { has_country_modifier = reduced_stability_cost }
	}
	
	mean_time_to_happen = {
		months = 300

		modifier = {
			factor = 0.9
			innovativeness_ideas = 4
		}
		modifier = {
			factor = 0.9
			innovativeness_ideas = 6
		}
		modifier = {
			factor = 1.1
			NOT = { innovativeness_ideas = 4 }
		}
		modifier = {
			factor = 1.1
			NOT = { innovativeness_ideas = 2 }
		}
	}
	
	option = {
		name = "EVTOPTA4029"	# His efforts will be admired throughout the nation
		ai_chance = {
			factor = 50
			modifier = {
				factor = 0
				stability = 2
			}
		}
		add_country_modifier = {
			name = "reduced_stability_cost"
			duration = 365
		}
		add_country_modifier = {
			name = "more_tariffs"
			duration = 2190
		}
		set_country_flag = colonial_governor
	}

	option = {
		name = "EVTOPTB4029"	# His reputation will reach further than our borders
		ai_chance = {
			factor = 50
			modifier = {
				factor = 0
				NOT = { stability = 1 }
			}
		}
		add_prestige = 15
		add_country_modifier = {
			name = "more_tariffs"
			duration = 2190
		}
		set_country_flag = colonial_governor
	}
}


# Spymaster
country_event = {
	id = great_men.4030
	title = "EVTNAME4030"
	desc = "EVTDESC4030"
	picture = ADVISOR_eventPicture
	
	trigger = {
		spymaster = 3
		NOT = { has_country_flag = spymaster }
		NOT = { has_country_modifier = reduced_stability_cost }
	}
	
	mean_time_to_happen = {
		months = 300
		
		modifier = {
			factor = 0.9
			innovativeness_ideas = 4
		}
		modifier = {
			factor = 0.9
			innovativeness_ideas = 6
		}
		modifier = {
			factor = 1.1
			NOT = { innovativeness_ideas = 4 }
		}
		modifier = {
			factor = 1.1
			NOT = { innovativeness_ideas = 2 }
		}
	}
	
	option = {
		name = "EVTOPTA4030"	# His efforts will be admired throughout the nation
		ai_chance = {
			factor = 50
			modifier = {
				factor = 0
				stability = 2
			}
		}
		add_country_modifier = {
			name = "reduced_stability_cost"
			duration = 365
		}
		add_country_modifier = {
			name = "spy"
			duration = 2190
		}
		set_country_flag = spymaster		
	}
		
	option = {
		name = "EVTOPTB4030"	# His reputation will reach further than our borders
		ai_chance = {
			factor = 50
			modifier = {
				factor = 0
				NOT = { stability = 1 }
			}
		}
		add_prestige = 15
		add_country_modifier = {
			name = "spy"
			duration = 2190
		}
		set_country_flag = spymaster		
	}
}


# Diplomat
country_event = {
	id = great_men.4031
	title = "EVTNAME4031"
	desc = "EVTDESC4031"
	picture = ADVISOR_eventPicture
	
	trigger = {
		diplomat = 3
		NOT = { has_country_flag = diplomat }
		NOT = { has_country_modifier = reduced_stability_cost }
	}
	
	mean_time_to_happen = {
		months = 300
		
		modifier = {
			factor = 0.9
			innovativeness_ideas = 4
		}
		modifier = {
			factor = 0.9
			innovativeness_ideas = 6
		}
		modifier = {
			factor = 1.1
			NOT = { innovativeness_ideas = 4 }
		}
		modifier = {
			factor = 1.1
			NOT = { innovativeness_ideas = 2 }
		}
	}
	
	option = {
		name = "EVTOPTA4031"	# His efforts will be admired throughout the nation
		ai_chance = {
			factor = 50
			modifier = {
				factor = 0
				stability = 2
			}
		}
		add_country_modifier = {
			name = "reduced_stability_cost"
			duration = 365
		}
		add_dip_power = 25
		set_country_flag = diplomat
	}
		
	option = {
		name = "EVTOPTB4031"	# His reputation will reach further than our borders
		ai_chance = {
			factor = 50
			modifier = {
				factor = 0
				NOT = { stability = 1 }
			}
		}
		add_prestige = 15
		add_dip_power = 25
		set_country_flag = diplomat
	}
}

# Trader
country_event = {
	id = great_men.4032
	title = "EVTNAME4032"
	desc = "EVTDESC4032"
	picture = ADVISOR_eventPicture
	
	
	trigger = {
		trader = 3
		NOT = { has_country_flag = trader }
		NOT = { has_country_modifier = reduced_stability_cost }
	}
	
	mean_time_to_happen = {
		months = 300
		
		modifier = {
			factor = 0.9
			innovativeness_ideas = 4
		}
		modifier = {
			factor = 0.9
			innovativeness_ideas = 6
		}
		modifier = {
			factor = 1.1
			NOT = { innovativeness_ideas = 4 }
		}
		modifier = {
			factor = 1.1
			NOT = { innovativeness_ideas = 2 }
		}
	}
	
	option = {
		name = "EVTOPTA4032"	# His efforts will be admired throughout the nation
		ai_chance = {
			factor = 50
			modifier = {
				factor = 0
				stability = 2
			}
		}
		add_country_modifier = {
			name = "reduced_stability_cost"
			duration = 365
		}
		add_dip_power = 25
		set_country_flag = trader
	}

	option = {
		name = "EVTOPTB4032"	# His reputation will reach further than our borders
		ai_chance = {
			factor = 50
			modifier = {
				factor = 0
				NOT = { stability = 1 }
			}
		}
		add_prestige = 15
		add_dip_power = 25
		set_country_flag = trader
	}
}

# Master of Mint
country_event = {
	id = great_men.4104
	title = "EVTNAME4104"
	desc = "EVTDESC4104"
	picture = ADVISOR_eventPicture	
	
	trigger = {
		master_of_mint = 3
		NOT = { has_country_flag = master_of_mint }
		NOT = { has_country_modifier = reduced_stability_cost }
	}
	
	mean_time_to_happen = {
		months = 300
		

		modifier = {
			factor = 0.9
			innovativeness_ideas = 4
		}
		modifier = {
			factor = 0.9
			innovativeness_ideas = 6
		}
		modifier = {
			factor = 1.1
			NOT = { innovativeness_ideas = 4 }
		}
		modifier = {
			factor = 1.1
			NOT = { innovativeness_ideas = 2 }
		}
	}
	
	option = {
		name = "EVTOPTA4032"	# His efforts will be admired throughout the nation
		ai_chance = {
			factor = 50
			modifier = {
				factor = 0
				stability = 2
			}
		}
		add_country_modifier = {
			name = "reduced_stability_cost"
			duration = 365
		}
		add_country_modifier = {
			name = "master_of_mint_boost"
			duration = 2190
		}		
		set_country_flag = master_of_mint
	}
		
	option = {
		name = "EVTOPTB4032"	# His reputation will reach further than our borders
		ai_chance = {
			factor = 50
			modifier = {
				factor = 0
				NOT = { stability = 1 }
			}
		}
		add_prestige = 15
		add_country_modifier = {
			name = "master_of_mint_boost"
			duration = 2190
		}
		set_country_flag = master_of_mint
	}
}


# navigator
country_event = {
	id = great_men.4110
	title = "EVTNAME4110"
	desc = "EVTDESC4110"
	picture = ADVISOR_eventPicture
	
	trigger = {
		navigator = 3
		NOT = { has_country_flag = navigator }
		NOT = { has_country_modifier = reduced_stability_cost }
	}
	
	mean_time_to_happen = {
		months = 300

		modifier = {
			factor = 0.9
			innovativeness_ideas = 4
		}
		modifier = {
			factor = 0.9
			innovativeness_ideas = 6
		}
		modifier = {
			factor = 1.1
			NOT = { innovativeness_ideas = 4 }
		}
		modifier = {
			factor = 1.1
			NOT = { innovativeness_ideas = 2 }
		}
	}
	
	option = {
		name = "EVTOPTA4032"	# His efforts will be admired throughout the nation
		ai_chance = {
			factor = 50
			modifier = {
				factor = 0
				stability = 2
			}
		}
		add_country_modifier = {
			name = "reduced_stability_cost"
			duration = 365
		}
		add_country_modifier = {
			name = "navigator_boost"
			duration = 2190
		}		
		set_country_flag = navigator
	}
		
	option = {
		name = "EVTOPTB4032"	# His reputation will reach further than our borders
		ai_chance = {
			factor = 50
			modifier = {
				factor = 0
				NOT = { stability = 1 }
			}
		}
		add_prestige = 15
		add_country_modifier = {
			name = "navigator_boost"
			duration = 2190
		}
		set_country_flag = navigator
	}
}


# grand_captain
country_event = {
	id = great_men.4114
	title = "EVTNAME4114"
	desc = "EVTDESC4114"
	picture = ADVISOR_eventPicture	
	
	trigger = {
		grand_captain = 3
		NOT = { has_country_flag = grand_captain }
		NOT = { has_country_modifier = reduced_stability_cost }
	}
	
	mean_time_to_happen = {
		months = 300

		modifier = {
			factor = 0.9
			innovativeness_ideas = 4
		}
		modifier = {
			factor = 0.9
			innovativeness_ideas = 6
		}
		modifier = {
			factor = 1.1
			NOT = { innovativeness_ideas = 4 }
		}
		modifier = {
			factor = 1.1
			NOT = { innovativeness_ideas = 2 }
		}
	}
	
	option = {
		name = "EVTOPTA4032"	# His efforts will be admired throughout the nation
		ai_chance = {
			factor = 50
			modifier = {
				factor = 0
				stability = 2
			}
		}
		add_country_modifier = {
			name = "reduced_stability_cost"
			duration = 365
		}
		add_country_modifier = {
			name = "grand_captain_boost"
			duration = 2190
		}		
		set_country_flag = grand_captain
	}

	option = {
		name = "EVTOPTB4032"	# His reputation will reach further than our borders
		ai_chance = {
			factor = 50
			modifier = {
				factor = 0
				NOT = { stability = 1 }
			}
		}
		add_prestige = 15
		add_country_modifier = {
			name = "grand_captain_boost"
			duration = 2190
		}
		set_country_flag = grand_captain
	}
}


# army_organiser
country_event = {
	id = great_men.4115
	title = "EVTNAME4115"
	desc = "EVTDESC4115"
	picture = ADVISOR_eventPicture
	
	trigger = {
		army_organiser = 3
		NOT = { has_country_flag = army_organiser }
		NOT = { has_country_modifier = reduced_stability_cost }
	}
	
	mean_time_to_happen = {
		months = 300
		
		modifier = {
			factor = 0.9
			innovativeness_ideas = 4
		}
		modifier = {
			factor = 0.9
			innovativeness_ideas = 6
		}
		modifier = {
			factor = 1.1
			NOT = { innovativeness_ideas = 4 }
		}
		modifier = {
			factor = 1.1
			NOT = { innovativeness_ideas = 2 }
		}
	}
	
	option = {
		name = "EVTOPTA4032"	# His efforts will be admired throughout the nation
		ai_chance = {
			factor = 50
			modifier = {
				factor = 0
				stability = 2
			}
		}
		add_country_modifier = {
			name = "reduced_stability_cost"
			duration = 365
		}
		add_country_modifier = {
			name = "army_organiser_boost"
			duration = 2190
		}		
		set_country_flag = army_organiser
	}

	option = {
		name = "EVTOPTB4032"	# His reputation will reach further than our borders
		ai_chance = {
			factor = 50
			modifier = {
				factor = 0
				NOT = { stability = 1 }
			}
		}
		add_prestige = 15
		add_country_modifier = {
			name = "army_organiser_boost"
			duration = 2190
		}
		set_country_flag = army_organiser
	}
}


# commandant
country_event = {
	id = great_men.4116
	title = "EVTNAME4116"
	desc = "EVTDESC4116"
	picture = ADVISOR_eventPicture
	
	trigger = {
		commandant = 3
		NOT = { has_country_flag = commandant }
		NOT = { has_country_modifier = reduced_stability_cost }
	}
	
	mean_time_to_happen = {
		months = 300
		
		
		modifier = {
			factor = 0.9
			innovativeness_ideas = 4
		}
		modifier = {
			factor = 0.9
			innovativeness_ideas = 6
		}
		modifier = {
			factor = 1.1
			NOT = { innovativeness_ideas = 4 }
		}
		modifier = {
			factor = 1.1
			NOT = { innovativeness_ideas = 2 }
		}
	}
	
	option = {
		name = "EVTOPTA4032"	# His efforts will be admired throughout the nation
		ai_chance = {
			factor = 50
			modifier = {
				factor = 0
				stability = 2
			}
		}
		add_country_modifier = {
			name = "reduced_stability_cost"
			duration = 365
		}
		add_country_modifier = {
			name = "commandant_boost"
			duration = 2190
		}		
		set_country_flag = commandant
	}

	option = {
		name = "EVTOPTB4032"	# His reputation will reach further than our borders
		ai_chance = {
			factor = 50
			modifier = {
				factor = 0
				NOT = { stability = 1 }
			}
		}
		add_prestige = 15
		add_country_modifier = {
			name = "commandant_boost"
			duration = 2190
		}
		set_country_flag = commandant
	}
}


# Quartermaster
country_event = {
	id = great_men.4117
	title = "EVTNAME4117"
	desc = "EVTDESC4117"
	picture = ADVISOR_eventPicture
	
	trigger = {
		quartermaster = 3
		NOT = { has_country_flag = quartermaster }
		NOT = { has_country_modifier = reduced_stability_cost }
	}
	
	mean_time_to_happen = {
		months = 300
		
		modifier = {
			factor = 0.9
			innovativeness_ideas = 4
		}
		modifier = {
			factor = 0.9
			innovativeness_ideas = 6
		}
		modifier = {
			factor = 1.1
			NOT = { innovativeness_ideas = 4 }
		}
		modifier = {
			factor = 1.1
			NOT = { innovativeness_ideas = 2 }
		}
	}
	
	option = {
		name = "EVTOPTA4032"	# His efforts will be admired throughout the nation
		ai_chance = {
			factor = 50
			modifier = {
				factor = 0
				stability = 2
			}
		}
		add_country_modifier = {
			name = "reduced_stability_cost"
			duration = 365
		}
		add_country_modifier = {
			name = "quartermaster_boost"
			duration = 2190
		}		
		set_country_flag = quartermaster
	}

	option = {
		name = "EVTOPTB4032"	# His reputation will reach further than our borders
		ai_chance = {
			factor = 50
			modifier = {
				factor = 0
				NOT = { stability = 1 }
			}
		}
		add_prestige = 15
		add_country_modifier = {
			name = "quartermaster_boost"
			duration = 2190
		}
		set_country_flag = quartermaster
	}
}


# Recruitmaster
country_event = {
	id = great_men.4118
	title = "EVTNAME4118"
	desc = "EVTDESC4118"
	picture = ADVISOR_eventPicture	
	
	trigger = {
		recruitmaster = 3
		NOT = { has_country_flag = recruitmaster }
		NOT = { has_country_modifier = reduced_stability_cost }
	}
	
	mean_time_to_happen = {
		months = 300
		
		modifier = {
			factor = 0.9
			innovativeness_ideas = 4
		}
		modifier = {
			factor = 0.9
			innovativeness_ideas = 6
		}
		modifier = {
			factor = 1.1
			NOT = { innovativeness_ideas = 4 }
		}
		modifier = {
			factor = 1.1
			NOT = { innovativeness_ideas = 2 }
		}
	}
	
	option = {
		name = "EVTOPTA4032"	# His efforts will be admired throughout the nation
		ai_chance = {
			factor = 50
			modifier = {
				factor = 0
				stability = 2
			}
		}
		add_country_modifier = {
			name = "reduced_stability_cost"
			duration = 365
		}
		add_country_modifier = {
			name = "recruitmaster_boost"
			duration = 2190
		}		
		set_country_flag = recruitmaster
	}
		
	option = {
		name = "EVTOPTB4032"	# His reputation will reach further than our borders
		ai_chance = {
			factor = 50
			modifier = {
				factor = 0
				NOT = { stability = 1 }
			}
		}
		add_prestige = 15
		add_country_modifier = {
			name = "recruitmaster_boost"
			duration = 2190
		}
		set_country_flag = recruitmaster
	}
}


# Fortification Expert
country_event = {
	id = great_men.4119
	title = "EVTNAME4119"
	desc = "EVTDESC4119"
	picture = ADVISOR_eventPicture
	
	trigger = {
		fortification_expert = 3
		NOT = { has_country_flag = fortification_expert }
		NOT = { has_country_modifier = reduced_stability_cost }
	}
	
	mean_time_to_happen = {
		months = 300
		
		modifier = {
			factor = 0.9
			innovativeness_ideas = 4
		}
		modifier = {
			factor = 0.9
			innovativeness_ideas = 6
		}
		modifier = {
			factor = 1.1
			NOT = { innovativeness_ideas = 4 }
		}
		modifier = {
			factor = 1.1
			NOT = { innovativeness_ideas = 2 }
		}
	}
	
	option = {
		name = "EVTOPTA4032"	# His efforts will be admired throughout the nation
		ai_chance = {
			factor = 50
			modifier = {
				factor = 0
				stability = 2
			}
		}
		add_country_modifier = {
			name = "reduced_stability_cost"
			duration = 365
		}
		add_country_modifier = {
			name = "fortification_expert_boost"
			duration = 2190
		}		
		set_country_flag = fortification_expert
	}
		
	option = {
		name = "EVTOPTB4032"	# His reputation will reach further than our borders
		ai_chance = {
			factor = 50
			modifier = {
				factor = 0
				NOT = { stability = 1 }
			}
		}
		add_prestige = 15
		add_country_modifier = {
			name = "fortification_expert_boost"
			duration = 2190
		}
		set_country_flag = fortification_expert
	}
}


# Inquisitor
country_event = {
	id = great_men.4120
	title = "EVTNAME4120"
	desc = "EVTDESC4120"
	picture = ADVISOR_eventPicture	
	
	trigger = {
		inquisitor = 3
		NOT = { has_country_flag = inquisitor }
		NOT = { has_country_modifier = reduced_stability_cost }
	}
	
	mean_time_to_happen = {
		months = 300
		
		
		modifier = {
			factor = 0.9
			innovativeness_ideas = 4
		}
		modifier = {
			factor = 0.9
			innovativeness_ideas = 6
		}
		modifier = {
			factor = 1.1
			NOT = { innovativeness_ideas = 4 }
		}
		modifier = {
			factor = 1.1
			NOT = { innovativeness_ideas = 2 }
		}
	}
	
	option = {
		name = "EVTOPTA4032"	# His efforts will be admired throughout the nation
		ai_chance = {
			factor = 50
			modifier = {
				factor = 0
				stability = 2
			}
		}
		add_country_modifier = {
			name = "reduced_stability_cost"
			duration = 365
		}
		add_country_modifier = {
			name = "inquisitor_boost"
			duration = 2190
		}		
		set_country_flag = inquisitor
	}
		
	option = {
		name = "EVTOPTB4032"	# His reputation will reach further than our borders
		ai_chance = {
			factor = 50
			modifier = {
				factor = 0
				NOT = { stability = 1 }
			}
		}
		add_prestige = 15
		add_country_modifier = {
			name = "inquisitor_boost"
			duration = 2190
		}
		set_country_flag = inquisitor
	}
}

# composer
country_event = {
	id = great_men.4121
	title = "EVTNAME4121"
	desc = "EVTDESC4121"
	picture = ADVISOR_eventPicture	
	
	trigger = {
		composer = 3
		NOT = { has_country_flag = composer }
		NOT = { has_country_modifier = reduced_stability_cost }
	}
	
	mean_time_to_happen = {
		months = 300
		
		
		modifier = {
			factor = 0.9
			innovativeness_ideas = 4
		}
		modifier = {
			factor = 0.9
			innovativeness_ideas = 6
		}
		modifier = {
			factor = 1.1
			NOT = { innovativeness_ideas = 4 }
		}
		modifier = {
			factor = 1.1
			NOT = { innovativeness_ideas = 2 }
		}
	}
	
	option = {
		name = "EVTOPTA4032"	# His efforts will be admired throughout the nation
		ai_chance = {
			factor = 50
			modifier = {
				factor = 0
				stability = 2
			}
		}
		add_country_modifier = {
			name = "reduced_stability_cost"
			duration = 365
		}
		add_country_modifier = {
			name = "composer_boost"
			duration = 2190
		}		
		set_country_flag = composer
	}
		
	option = {
		name = "EVTOPTB4032"	# His reputation will reach further than our borders
		ai_chance = {
			factor = 50
			modifier = {
				factor = 0
				NOT = { stability = 1 }
			}
		}
		add_prestige = 15
		add_country_modifier = {
			name = "composer_boost"
			duration = 2190
		}
		set_country_flag = composer
	}
}

# alderman
country_event = {
	id = great_men.4122
	title = "EVTNAME4122"
	desc = "EVTDESC4122"
	picture = ADVISOR_eventPicture	
	
	trigger = {
		alderman = 3
		NOT = { has_country_flag = alderman }
		NOT = { has_country_modifier = reduced_stability_cost }
	}
	
	mean_time_to_happen = {
		months = 300
		
		
		modifier = {
			factor = 0.9
			innovativeness_ideas = 4
		}
		modifier = {
			factor = 0.9
			innovativeness_ideas = 6
		}
		modifier = {
			factor = 1.1
			NOT = { innovativeness_ideas = 4 }
		}
		modifier = {
			factor = 1.1
			NOT = { innovativeness_ideas = 2 }
		}
	}
	
	option = {
		name = "EVTOPTA4032"	# His efforts will be admired throughout the nation
		ai_chance = {
			factor = 50
			modifier = {
				factor = 0
				stability = 2
			}
		}
		add_country_modifier = {
			name = "reduced_stability_cost"
			duration = 365
		}
		add_country_modifier = {
			name = "alderman_boost"
			duration = 2190
		}		
		set_country_flag = alderman
	}
		
	option = {
		name = "EVTOPTB4032"	# His reputation will reach further than our borders
		ai_chance = {
			factor = 50
			modifier = {
				factor = 0
				NOT = { stability = 1 }
			}
		}
		add_prestige = 15
		add_country_modifier = {
			name = "alderman_boost"
			duration = 2190
		}
		set_country_flag = alderman
	}
}

# architect
country_event = {
	id = great_men.4123
	title = "EVTNAME4123"
	desc = "EVTDESC4123"
	picture = ADVISOR_eventPicture	
	
	trigger = {
		architect = 3
		NOT = { has_country_flag = architect }
		NOT = { has_country_modifier = reduced_stability_cost }
	}
	
	mean_time_to_happen = {
		months = 300
		
		
		modifier = {
			factor = 0.9
			innovativeness_ideas = 4
		}
		modifier = {
			factor = 0.9
			innovativeness_ideas = 6
		}
		modifier = {
			factor = 1.1
			NOT = { innovativeness_ideas = 4 }
		}
		modifier = {
			factor = 1.1
			NOT = { innovativeness_ideas = 2 }
		}
	}
	
	option = {
		name = "EVTOPTA4032"	# His efforts will be admired throughout the nation
		ai_chance = {
			factor = 50
			modifier = {
				factor = 0
				stability = 2
			}
		}
		add_country_modifier = {
			name = "reduced_stability_cost"
			duration = 365
		}
		add_country_modifier = {
			name = "architect_boost"
			duration = 2190
		}		
		set_country_flag = architect
	}
		
	option = {
		name = "EVTOPTB4032"	# His reputation will reach further than our borders
		ai_chance = {
			factor = 50
			modifier = {
				factor = 0
				NOT = { stability = 1 }
			}
		}
		add_prestige = 15
		add_country_modifier = {
			name = "architect_boost"
			duration = 2190
		}
		set_country_flag = architect
	}
}

# high_judge
country_event = {
	id = great_men.4124
	title = "EVTNAME4124"
	desc = "EVTDESC4124"
	picture = ADVISOR_eventPicture	
	
	trigger = {
		high_judge = 3
		NOT = { has_country_flag = high_judge }
		NOT = { has_country_modifier = reduced_stability_cost }
	}
	
	mean_time_to_happen = {
		months = 300
		
		
		modifier = {
			factor = 0.9
			innovativeness_ideas = 4
		}
		modifier = {
			factor = 0.9
			innovativeness_ideas = 6
		}
		modifier = {
			factor = 1.1
			NOT = { innovativeness_ideas = 4 }
		}
		modifier = {
			factor = 1.1
			NOT = { innovativeness_ideas = 2 }
		}
	}
	
	option = {
		name = "EVTOPTA4032"	# His efforts will be admired throughout the nation
		ai_chance = {
			factor = 50
			modifier = {
				factor = 0
				stability = 2
			}
		}
		add_country_modifier = {
			name = "reduced_stability_cost"
			duration = 365
		}
		add_country_modifier = {
			name = "high_judge_boost"
			duration = 2190
		}		
		set_country_flag = high_judge
	}
		
	option = {
		name = "EVTOPTB4032"	# His reputation will reach further than our borders
		ai_chance = {
			factor = 50
			modifier = {
				factor = 0
				NOT = { stability = 1 }
			}
		}
		add_prestige = 15
		add_country_modifier = {
			name = "high_judge_boost"
			duration = 2190
		}
		set_country_flag = high_judge
	}
}

# collector
country_event = {
	id = great_men.4125
	title = "EVTNAME4125"
	desc = "EVTDESC4125"
	picture = ADVISOR_eventPicture	
	
	trigger = {
		collector = 3
		NOT = { has_country_flag = collector }
		NOT = { has_country_modifier = reduced_stability_cost }
	}
	
	mean_time_to_happen = {
		months = 300
		
		
		modifier = {
			factor = 0.9
			innovativeness_ideas = 4
		}
		modifier = {
			factor = 0.9
			innovativeness_ideas = 6
		}
		modifier = {
			factor = 1.1
			NOT = { innovativeness_ideas = 4 }
		}
		modifier = {
			factor = 1.1
			NOT = { innovativeness_ideas = 2 }
		}
	}
	
	option = {
		name = "EVTOPTA4032"	# His efforts will be admired throughout the nation
		ai_chance = {
			factor = 50
			modifier = {
				factor = 0
				stability = 2
			}
		}
		add_country_modifier = {
			name = "reduced_stability_cost"
			duration = 365
		}
		add_country_modifier = {
			name = "collector_boost"
			duration = 2190
		}		
		set_country_flag = collector
	}
		
	option = {
		name = "EVTOPTB4032"	# His reputation will reach further than our borders
		ai_chance = {
			factor = 50
			modifier = {
				factor = 0
				NOT = { stability = 1 }
			}
		}
		add_prestige = 15
		add_country_modifier = {
			name = "collector_boost"
			duration = 2190
		}
		set_country_flag = collector
	}
}

# sheriff
country_event = {
	id = great_men.4126
	title = "EVTNAME4126"
	desc = "EVTDESC4126"
	picture = ADVISOR_eventPicture	
	
	trigger = {
		sheriff = 3
		NOT = { has_country_flag = sheriff }
		NOT = { has_country_modifier = reduced_stability_cost }
	}
	
	mean_time_to_happen = {
		months = 300
		
		
		modifier = {
			factor = 0.9
			innovativeness_ideas = 4
		}
		modifier = {
			factor = 0.9
			innovativeness_ideas = 6
		}
		modifier = {
			factor = 1.1
			NOT = { innovativeness_ideas = 4 }
		}
		modifier = {
			factor = 1.1
			NOT = { innovativeness_ideas = 2 }
		}
	}
	
	option = {
		name = "EVTOPTA4032"	# His efforts will be admired throughout the nation
		ai_chance = {
			factor = 50
			modifier = {
				factor = 0
				stability = 2
			}
		}
		add_country_modifier = {
			name = "reduced_stability_cost"
			duration = 365
		}
		add_country_modifier = {
			name = "sheriff_boost"
			duration = 2190
		}		
		set_country_flag = sheriff
	}
		
	option = {
		name = "EVTOPTB4032"	# His reputation will reach further than our borders
		ai_chance = {
			factor = 50
			modifier = {
				factor = 0
				NOT = { stability = 1 }
			}
		}
		add_prestige = 15
		add_country_modifier = {
			name = "sheriff_boost"
			duration = 2190
		}
		set_country_flag = sheriff
	}
}

# banker
country_event = {
	id = great_men.4127
	title = "EVTNAME4127"
	desc = "EVTDESC4127"
	picture = ADVISOR_eventPicture	
	
	trigger = {
		banker = 3
		NOT = { has_country_flag = banker }
		NOT = { has_country_modifier = reduced_stability_cost }
	}
	
	mean_time_to_happen = {
		months = 300
		
		
		modifier = {
			factor = 0.9
			innovativeness_ideas = 4
		}
		modifier = {
			factor = 0.9
			innovativeness_ideas = 6
		}
		modifier = {
			factor = 1.1
			NOT = { innovativeness_ideas = 4 }
		}
		modifier = {
			factor = 1.1
			NOT = { innovativeness_ideas = 2 }
		}
	}
	
	option = {
		name = "EVTOPTA4032"	# His efforts will be admired throughout the nation
		ai_chance = {
			factor = 50
			modifier = {
				factor = 0
				stability = 2
			}
		}
		add_country_modifier = {
			name = "reduced_stability_cost"
			duration = 365
		}
		add_country_modifier = {
			name = "banker_boost"
			duration = 2190
		}		
		set_country_flag = banker
	}
		
	option = {
		name = "EVTOPTB4032"	# His reputation will reach further than our borders
		ai_chance = {
			factor = 50
			modifier = {
				factor = 0
				NOT = { stability = 1 }
			}
		}
		add_prestige = 15
		add_country_modifier = {
			name = "banker_boost"
			duration = 2190
		}
		set_country_flag = banker
	}
}

# grand_admiral
country_event = {
	id = great_men.4128
	title = "EVTNAME4128"
	desc = "EVTDESC4128"
	picture = ADVISOR_eventPicture	
	
	trigger = {
		grand_admiral = 3
		NOT = { has_country_flag = grand_admiral }
		NOT = { has_country_modifier = reduced_stability_cost }
	}
	
	mean_time_to_happen = {
		months = 300
		
		
		modifier = {
			factor = 0.9
			innovativeness_ideas = 4
		}
		modifier = {
			factor = 0.9
			innovativeness_ideas = 6
		}
		modifier = {
			factor = 1.1
			NOT = { innovativeness_ideas = 4 }
		}
		modifier = {
			factor = 1.1
			NOT = { innovativeness_ideas = 2 }
		}
	}
	
	option = {
		name = "EVTOPTA4032"	# His efforts will be admired throughout the nation
		ai_chance = {
			factor = 50
			modifier = {
				factor = 0
				stability = 2
			}
		}
		add_country_modifier = {
			name = "reduced_stability_cost"
			duration = 365
		}
		add_country_modifier = {
			name = "grand_admiral_boost"
			duration = 2190
		}		
		set_country_flag = grand_admiral
	}
		
	option = {
		name = "EVTOPTB4032"	# His reputation will reach further than our borders
		ai_chance = {
			factor = 50
			modifier = {
				factor = 0
				NOT = { stability = 1 }
			}
		}
		add_prestige = 15
		add_country_modifier = {
			name = "grand_admiral_boost"
			duration = 2190
		}
		set_country_flag = grand_admiral
	}
}

# acardinal
country_event = {
	id = great_men.4129
	title = "EVTNAME4129"
	desc = "EVTDESC4129"
	picture = ADVISOR_eventPicture	
	
	trigger = {
		acardinal = 3
		NOT = { has_country_flag = acardinal }
		NOT = { has_country_modifier = reduced_stability_cost }
	}
	
	mean_time_to_happen = {
		months = 300
		
		
		modifier = {
			factor = 0.9
			innovativeness_ideas = 4
		}
		modifier = {
			factor = 0.9
			innovativeness_ideas = 6
		}
		modifier = {
			factor = 1.1
			NOT = { innovativeness_ideas = 4 }
		}
		modifier = {
			factor = 1.1
			NOT = { innovativeness_ideas = 2 }
		}
	}
	
	option = {
		name = "EVTOPTA4032"	# His efforts will be admired throughout the nation
		ai_chance = {
			factor = 50
			modifier = {
				factor = 0
				stability = 2
			}
		}
		add_country_modifier = {
			name = "reduced_stability_cost"
			duration = 365
		}
		add_country_modifier = {
			name = "acardinal_boost"
			duration = 2190
		}		
		set_country_flag = acardinal
	}
		
	option = {
		name = "EVTOPTB4032"	# His reputation will reach further than our borders
		ai_chance = {
			factor = 50
			modifier = {
				factor = 0
				NOT = { stability = 1 }
			}
		}
		add_prestige = 15
		add_country_modifier = {
			name = "acardinal_boost"
			duration = 2190
		}
		set_country_flag = acardinal
	}
}

# lord_proprietor
country_event = {
	id = great_men.4130
	title = "EVTNAME4130"
	desc = "EVTDESC4130"
	picture = ADVISOR_eventPicture	
	
	trigger = {
		lord_proprietor = 3
		NOT = { has_country_flag = lord_proprietor }
		NOT = { has_country_modifier = reduced_stability_cost }
	}
	
	mean_time_to_happen = {
		months = 300
		
		
		modifier = {
			factor = 0.9
			innovativeness_ideas = 4
		}
		modifier = {
			factor = 0.9
			innovativeness_ideas = 6
		}
		modifier = {
			factor = 1.1
			NOT = { innovativeness_ideas = 4 }
		}
		modifier = {
			factor = 1.1
			NOT = { innovativeness_ideas = 2 }
		}
	}
	
	option = {
		name = "EVTOPTA4032"	# His efforts will be admired throughout the nation
		ai_chance = {
			factor = 50
			modifier = {
				factor = 0
				stability = 2
			}
		}
		add_country_modifier = {
			name = "reduced_stability_cost"
			duration = 365
		}
		add_country_modifier = {
			name = "lord_proprietor_boost"
			duration = 2190
		}		
		set_country_flag = lord_proprietor
	}
		
	option = {
		name = "EVTOPTB4032"	# His reputation will reach further than our borders
		ai_chance = {
			factor = 50
			modifier = {
				factor = 0
				NOT = { stability = 1 }
			}
		}
		add_prestige = 15
		add_country_modifier = {
			name = "lord_proprietor_boost"
			duration = 2190
		}
		set_country_flag = lord_proprietor
	}
}

# astronomist
country_event = {
	id = great_men.4131
	title = "EVTNAME4131"
	desc = "EVTDESC4131"
	picture = ADVISOR_eventPicture	
	
	trigger = {
		astronomist = 3
		NOT = { has_country_flag = astronomist }
		NOT = { has_country_modifier = reduced_stability_cost }
	}
	
	mean_time_to_happen = {
		months = 300
		
		
		modifier = {
			factor = 0.9
			innovativeness_ideas = 4
		}
		modifier = {
			factor = 0.9
			innovativeness_ideas = 6
		}
		modifier = {
			factor = 1.1
			NOT = { innovativeness_ideas = 4 }
		}
		modifier = {
			factor = 1.1
			NOT = { innovativeness_ideas = 2 }
		}
	}
	
	option = {
		name = "EVTOPTA4032"	# His efforts will be admired throughout the nation
		ai_chance = {
			factor = 50
			modifier = {
				factor = 0
				stability = 2
			}
		}
		add_country_modifier = {
			name = "reduced_stability_cost"
			duration = 365
		}
		add_country_modifier = {
			name = "astronomist_boost"
			duration = 2190
		}		
		set_country_flag = astronomist
	}
		
	option = {
		name = "EVTOPTB4032"	# His reputation will reach further than our borders
		ai_chance = {
			factor = 50
			modifier = {
				factor = 0
				NOT = { stability = 1 }
			}
		}
		add_prestige = 15
		add_country_modifier = {
			name = "astronomist_boost"
			duration = 2190
		}
		set_country_flag = astronomist
	}
}

# rear_admiral
country_event = {
	id = great_men.4132
	title = "EVTNAME4132"
	desc = "EVTDESC4132"
	picture = ADVISOR_eventPicture	
	
	trigger = {
		rear_admiral = 3
		NOT = { has_country_flag = rear_admiral }
		NOT = { has_country_modifier = reduced_stability_cost }
	}
	
	mean_time_to_happen = {
		months = 300
		
		
		modifier = {
			factor = 0.9
			innovativeness_ideas = 4
		}
		modifier = {
			factor = 0.9
			innovativeness_ideas = 6
		}
		modifier = {
			factor = 1.1
			NOT = { innovativeness_ideas = 4 }
		}
		modifier = {
			factor = 1.1
			NOT = { innovativeness_ideas = 2 }
		}
	}
	
	option = {
		name = "EVTOPTA4032"	# His efforts will be admired throughout the nation
		ai_chance = {
			factor = 50
			modifier = {
				factor = 0
				stability = 2
			}
		}
		add_country_modifier = {
			name = "reduced_stability_cost"
			duration = 365
		}
		add_country_modifier = {
			name = "rear_admiral_boost"
			duration = 2190
		}		
		set_country_flag = rear_admiral
	}
		
	option = {
		name = "EVTOPTB4032"	# His reputation will reach further than our borders
		ai_chance = {
			factor = 50
			modifier = {
				factor = 0
				NOT = { stability = 1 }
			}
		}
		add_prestige = 15
		add_country_modifier = {
			name = "rear_admiral_boost"
			duration = 2190
		}
		set_country_flag = rear_admiral
	}
}

# colonel
country_event = {
	id = great_men.4133
	title = "EVTNAME4133"
	desc = "EVTDESC4133"
	picture = ADVISOR_eventPicture	
	
	trigger = {
		colonel = 3
		NOT = { has_country_flag = colonel }
		NOT = { has_country_modifier = reduced_stability_cost }
	}
	
	mean_time_to_happen = {
		months = 300
		
		
		modifier = {
			factor = 0.9
			innovativeness_ideas = 4
		}
		modifier = {
			factor = 0.9
			innovativeness_ideas = 6
		}
		modifier = {
			factor = 1.1
			NOT = { innovativeness_ideas = 4 }
		}
		modifier = {
			factor = 1.1
			NOT = { innovativeness_ideas = 2 }
		}
	}
	
	option = {
		name = "EVTOPTA4032"	# His efforts will be admired throughout the nation
		ai_chance = {
			factor = 50
			modifier = {
				factor = 0
				stability = 2
			}
		}
		add_country_modifier = {
			name = "reduced_stability_cost"
			duration = 365
		}
		add_country_modifier = {
			name = "colonel_boost"
			duration = 2190
		}		
		set_country_flag = colonel
	}
		
	option = {
		name = "EVTOPTB4032"	# His reputation will reach further than our borders
		ai_chance = {
			factor = 50
			modifier = {
				factor = 0
				NOT = { stability = 1 }
			}
		}
		add_prestige = 15
		add_country_modifier = {
			name = "colonel_boost"
			duration = 2190
		}
		set_country_flag = colonel
	}
}

