# Scottish events

# The Education Act
country_event = {
	id = hee_SCO.1
	title = hee_SCO.1.t
	desc = hee_SCO.1.d
	picture = ADVISOR_eventPicture

	fire_only_once = yes

	trigger = {
		tag = SCO
		is_year = 1480
		NOT = {
			is_year = 1520
		}
		is_subject = no
		government = monarchy
	}

	mean_time_to_happen = {
		months = 360
		modifier = {
			factor = 0.8
			ADM = 4
		}
		modifier = {
			factor = 0.8
			advisor = statesman
		}
	}

	# Every noble should be a skilled administrator
	option = {
		name = hee_SCO.1.a
		add_adm_power = -10
		add_country_modifier = {
			name = hee_education_act
			duration = 18250
		}
	}

	# It is better if they focus on military prowess.
	option = {
		name = hee_SCO.1.b
		add_mil_power = 30
	}
}

# Anti-French sentiment
country_event = {
	id = hee_SCO.2
	title = hee_SCO.2.t
	desc = hee_SCO.2.d
	picture = ANGRY_MOB_eventPicture

	fire_only_once = yes

	trigger = {
		tag = SCO
		alliance_with = FRA
		is_at_war = no
		OR = {
			religion = protestant
			religion = reformed
		}
		FRA = {
			religion = catholic
		}
		NOT = {
			is_year = 1580
		}
	}

	mean_time_to_happen = {
		months = 360
		modifier = {
			factor = 0.75
			FRA = {
				is_defender_of_faith = yes
			}
		}
	}

	option = {
		name = hee_SCO.2.a
		add_country_modifier = {
			name = hee_scottish_french_supression
			duration = 3650
		}
	}
	option = {
		name = hee_SCO.2.b
		reverse_add_opinion = {
			who = FRA
			modifier = hee_scottish_anti_french
		}
	}
}

# Claim of Rights
country_event = {
	id = hee_SCO.3
	title = hee_SCO.3.t
	desc = hee_SCO.3.d
	picture = GOOD_WITH_MONARCH_eventPicture

	fire_only_once = yes

	trigger = {
		is_lesser_in_union = yes
		OR = {
			tag = SCO
			AND = {
				tag = GBR
				any_owned_province = {
					OR = { 
						area = highlands_area
						area = lowlands_area
					}
				}
			}
		}
		is_year = 1600
	}

	mean_time_to_happen = {
		months = 2
	}

	option = {
		name = hee_SCO.3.a
		add_country_modifier = {
			name = hee_claim_suppressed
			duration = 7200
		}
		overlord = {
			add_opinion = {
				who = ROOT
				modifier = hee_subject_claim_supressed
			}
		}
	}
	option = {
		name = hee_SCO.3.b
		overlord = {
			country_event = {
				id = hee_SCO.4 days = 5 tooltip = hee_SCO.3.b.tt
			}
		}
	}
}

# Scotland Presents its Claim of Right
country_event = {
	id = hee_SCO.4
	title = hee_SCO.4.t
	desc = hee_SCO.4.d
	picture = CONQUEST_eventPicture

	is_triggered_only = yes

	trigger = {
		SCO = {
			is_subject_of = ROOT
		}
	}

	option = {
		name = hee_SCO.4.a
		FROM = {
			add_country_modifier = {
				name = hee_claim_supressed
				duration = 10000
			}
			add_liberty_desire = 25
		}
	}
	option = {
		name = hee_SCO.4.b
		FROM = {
			every_province = {
				limit = {
					OR = {
						area = lowlands_area
						area = highlands_area
					}
				}
			add_local_autonomy = 50
			}
		}
	}
}
