# Palatine Events

# Johann Wilhelm II, Elector Palatine
country_event = {
	id = hee_PAL.1
	title = hee_PAL.1.t
	desc = hee_PAL.1.d
	picture = ADVISOR_eventPicture

	fire_only_once = yes

	trigger = {
		tag = PAL
		is_year = 1680
		NOT = {
			is_year = 1715
		}
	}

	mean_time_to_happen = {
		months = 300
		modifier = {
			factor = 0.9
			has_idea_group = innovativeness_ideas
		}
		modifier = {
			factor = 0.9
			has_idea_group = humanist_ideas
		}
	}

	option = {
		name = hee_PAL.1.a
		add_stability = 1
		add_adm_power = 50
	}	
}
