# 240 - Midlands

owner = ENG
controller = ENG
culture = english
religion = catholic
hre = no
base_tax = 14
base_production = 1
trade_goods = wool
base_manpower = 1
is_city = yes
capital = "Coventry"
add_core = ENG
discovered_by = western
discovered_by = muslim
discovered_by = eastern

#1100.1.1 = { bailiff = yes }
1250.1.1 = { temple = yes }
1300.1.1 = { road_network = yes }
1453.1.1   = { unrest = 5 } #Start of the War of the Roses
1461.3.1   = { controller = REB } #Coventry's Switch to the Yorkists
1461.6.1   = { unrest = 2 controller = ENG } #Coronation of Edward IV
1467.1.1   = { unrest = 5 } #Rivalry between Edward IV & Warwick
1470.9.1   = { controller = REB }
1470.10.6  = { controller = ENG } #Readeption of Henry VI
1471.1.1   = { unrest = 8 } #Unpopularity of Warwick & War with Burgundy
1471.3.15  = { controller = REB } #Capture of Warwick Castle
1471.5.4   = { unrest = 2 controller = ENG } #Murder of Henry VI & Restoration of Edward IV
1483.6.26  = { unrest = 8 } #Revulsion at Supposed Murder of the Princes in the Tower
1485.8.23  = { unrest = 0 } #Battle of Bosworth Field & the End of the War of the Roses
1529.2.5 = { bailiff = yes }
1548.1.1   = { religion = protestant } #anglican
1585.1.1   = { religion = reformed }
1600.1.1   = { fort_14th = yes }
1645.12.17 = { controller = REB }
1646.5.5   = { controller = ENG } #End of First English Civil War
1707.5.12  = {
	owner = GBR
	controller = GBR
	add_core = GBR
	remove_core = ENG
}
