# No previous file for Ordu

owner = CNK
controller = CNK
culture = pontic
religion = orthodox
capital = "Canik"
trade_goods = wool
hre = no
base_tax = 9
base_production = 0
base_manpower = 1
is_city = yes
discovered_by = western
discovered_by = eastern
discovered_by = muslim
discovered_by = turkishtech
discovered_by = steppestech

1356.1.1  = {
	add_core = CNK
	add_core = TRE
}
1460.1.1 = {
	owner = TUR
	controller = TUR
	add_core = TUR
	remove_core = CNK
}
1481.6.1  = { revolt = { type = pretender_rebels size = 0 } controller = REB } # Civil war, Bayezid & Jem
1482.7.26 = {
	revolt = {}
	controller = TUR
} # Jem escapes to Rhodes
1509.1.1  = { revolt = { type = revolutionary_rebels size = 0 } controller = REB } # Civil war
1513.1.1  = { revolt = {} controller = TUR }
1515.1.1 = { training_fields = yes }
1519.1.1 = { bailiff = yes }
1595.1.1  = { revolt = { type = nationalist_rebels size = 3 } controller = REB } # 3rd Celali uprising
1600.1.1  = { revolt = {}  }
1610.1.1  = { controller = TUR }
1623.1.1  = { revolt = { type = revolutionary_rebels size = 0 } controller = REB } # The empire fell into anarchy, Janissaries stormed the palace
1625.1.1  = { revolt = {} controller = TUR } # Murad tries to quell the corruption
