#1098 - St. Helena

capital = "Saint Helena"
culture = yorumba
religion = west_african_pagan_reformed
hre = no
base_tax = 1
base_production = 1
trade_goods = crops #fish
base_manpower = 1
native_size = 0
native_ferocity = 0
native_hostileness = 0

1356.1.1  = {
	add_permanent_province_modifier = { name = remote_island duration = -1 }
}
1502.5.21 = { discovered_by = POR }
1645.1.1  = {
	owner = NED
	controller = NED
	citysize = 300
   	culture = dutch
   	religion = reformed
	trade_goods = fish
	set_province_flag = trade_good_set
} # Small Dutch presence from 1645
1651.1.1  = {
	owner = ENG
	controller = ENG
   	culture = english
  	religion = protestant #anglican
} # The English take over St. Helena
1658.1.1  = { citysize = 500 capital = Jamestown } #Jamestown Founded
1666.1.1  = { citysize = 625 }
1667.1.1  = { citysize = 950 } # Influx of Immigrants from Great Fire of London
1673.1.1  = { controller = NED } # Captured by the Dutch
1673.5.15 = { controller = ENG } # Recapture by the English
1700.1.1  = { citysize = 1000 } # Estimated
1701.1.1  = { add_core = ENG }
1707.5.12 = {
	owner = GBR
	controller = GBR
	add_core = GBR
	remove_core = ENG
} 
1708.1.1  = { fort_14th = yes } # Town Gates Constructed
1740.1.1  = { citysize = 2000 } # Estimated

1800.1.1  = { citysize = 4000 } # Estimated
