# 2794 - Kaduna

owner = KTS
controller = KTS
culture = haussa		
religion = west_african_pagan_reformed		 
capital = "Kaduna"
base_tax = 10
base_production = 10
base_manpower = 2
is_city = yes
trade_goods = millet
discovered_by = soudantech
hre = no

1356.1.1 = {
	add_core = KTS
}
1807.1.1 = {
	owner = SOK
	controller = SOK
	add_core = SOK
}
1810.1.1   = {
	remove_core = KTS
}
