# No previous file for Garmsir

owner = MIH
controller = MIH
culture = baluchi
religion = sunni
capital = "Gasmir"
trade_goods = wheat
hre = no
base_tax = 4
base_production = 4
base_manpower = 2
is_city = yes
discovered_by = muslim
discovered_by = indian
discovered_by = turkishtech
discovered_by = steppestech

1356.1.1  = {
	add_core = MIH
	add_core = TIM
}
1384.1.1   = {
	owner = TIM
	controller = TIM
}
1444.1.1  = {
	owner = MIH
	controller = MIH
	remove_core = TIM
	add_core = KAB
} # Shaybanids break free from the Timurids
1507.1.1  = {
	controller = SHY
}
1507.7.1  = {
	owner = SHY
}
1510.1.1  = {
	controller = SAM
}
1511.1.1  = {
	owner = SAM
}
1512.1.1  = {
	owner = PER
	controller = PER
	add_core = PER
	#religion = shiite
} # Safawids "form persia"
1515.1.1 = { training_fields = yes }
1529.12.11 = { add_core = DUR remove_core = KAB }
1545.1.1 = {
	owner = MUG
	controller = MUG
} # Back to Mughals
1566.6.1 = { revolt = { }
	owner = KAB
	controller = KAB
}	#Independent of Mughals for a long while
1585.1.1 = {
	controller = MUG
}	# Man Singh occupies Kabulistan after death of Mirza Hakim
1585.2.1 = {
	owner = MUG
} # Annexed into empire again
1647.1.1 = {
	controller = PER
} # Back to Persia
1648.1.1 = {
	owner = PER
} # Back to Persia
1677.1.1 = { discovered_by = FRA }
1690.1.1  = { discovered_by = ENG }
1704.1.1  = { unrest = 5 } # Afghanian revolts
1707.5.12 = { discovered_by = GBR }
1708.1.1  = { unrest = 8 } # Mir Wais rebelled against Persian rule
1709.1.1  = {
	controller = REB
	revolt = { type = nationalist_rebels size = 3 }
} # Widespread tribal uprisings
1711.1.1  = {
	owner = KAB
	controller = KAB
	revolt = { }
}
1738.1.1  = {
	owner = PER
	controller = PER
} # Nader Shah absorbs Afghanistan
1747.10.1 = {
	owner = DUR
	controller = DUR
	add_core = DUR
	remove_core = MUG
} # Ahmad Shah established the Durrani empire
