# No previous file for Amritsar

owner = MUL
controller = MUL
culture = panjabi
religion = sunni
capital = "Amritsar"
trade_goods = carpet
hre = no
base_tax = 3
base_production = 3
base_manpower = 1
is_city = yes
discovered_by = indian
discovered_by = muslim
discovered_by = steppestech
discovered_by = turkishtech

1115.1.1 = { bailiff = yes }
1120.1.1 = { textile = yes }
1180.1.1 = { post_system = yes }
1200.1.1 = { road_network = yes }
1356.1.1 = {
	#owner = DLH
	#controller = DLH
	#add_core = DLH
	add_core = MUL
	add_core = PTA
}
1398.8.1  = {
	revolt = {  }
	controller = TIM
}
1399.1.1  = {
	owner = MUL
	controller = MUL
}
1414.1.1  = {
	owner = DLH
	controller = DLH
	remove_core = MUL
}
1419.1.1 = {
	owner = PTA
	controller = PTA
	add_core = PTA
}
	
#1443.1.1 = {
#	revolt = { type = pretender_rebels leader = "Bahlul Lodi" }
#	controller = REB
#} #First revolt of Bahlul Lodi
#1445.1.1 = {
#	controller = DLH
#	revolt = {  }
#} #Bahlul Lodi returns to the Punjab
#1447.1.1 = {
#	revolt = { type = pretender_rebels leader = "Bahlul Lodi" }
#	controller = REB
#} #Second revolt of Bahlul Lodi
#1448.1.1 = {
#	controller = DLH
#	revolt = {  }
#} #Bahlul Lodi returns to the Punjab
1451.4.20 = {
	controller = DLH
	owner = DLH
	#remove_core = PTA
	revolt = {  }
} #Final triumph of the Lodi
1525.1.1 = {
	controller = TIM owner = TIM add_core = TIM
	revolt = { }
} #Defects to Babur
1526.4.21 = {
	owner = MUG
	controller = MUG
	add_core = MUG
	remove_core = DLH
	remove_core = TIM
} # Battle of Panipat & Tag Change
1527.1.1  = {
	owner = MUG
	controller = MUG
} # Turned over to Babur
1530.1.1 = { add_core = AHM }
1544.1.1  = {
	owner = BNG
	controller = BNG
	add_core = BNG
} # Sur expansion
1553.1.1  = {
	owner = MUL
	controller = MUL
	remove_core = BNG
} # Independent
1557.7.1  = {
	owner = MUG
	controller = MUG
} # Bairam Khan occupies Multan
1574.1.1 = { fort_14th = yes } #Sikhs build a fort
1617.7.1  = { add_core = MUG }
1690.1.1  = { discovered_by = ENG }
1707.5.12 = { discovered_by = GBR }
1747.6.1  = {
	owner = DUR
	controller = DUR
	add_core = DUR
	remove_core = MUG
	unrest = 2
}
1755.1.1  = {
	owner = KSH
	controller = KSH
} # Governor declares independence
1762.1.1  = {
	owner = DUR
	controller = DUR
} # Revolt beaten
1799.1.1 = {
	owner = PUN
	controller = PUN
	add_core = PUN
}
1849.3.30 = {
	owner = GBR
	controller = GBR
} # End of the Second Anglo-Sikh War
