# 3825 - Qasr-e Shirin

owner = CHU
controller = CHU
culture = kurdish
religion = sunni #Dei Gratia
capital = "Qasr-e Shirin"
trade_goods = wheat
hre = no
base_tax = 4
base_production = 4
base_manpower = 2
is_city = yes
discovered_by = western
discovered_by = muslim
discovered_by = eastern
discovered_by = turkishtech
discovered_by = steppestech

1133.1.1 = { mill = yes }
1200.1.1 = { road_network = yes }
1356.1.1 = {
	add_core = CHU
	add_core = BLU
	unrest = 4
	add_core = JAI
}
1357.1.1   = {
	owner = BLU
	controller = BLU
	remove_core = CHU
}
1360.1.1   = {
	owner = JAI
	controller = JAI
	remove_core = BLU
}
1384.1.1   = {
	owner = TIM
	controller = TIM
	add_core = TIM
}
1408.1.1 = {
	controller = QAR
}
1409.1.1  = {
	owner = QAR
	add_core = QAR
	remove_core = TIM
} # Fars and surroundings to Qara Quyunlu
1444.1.1 = {
	remove_core = JAI
	add_core = AKK
}	
1469.1.1 = {
	controller = AKK
}
1470.1.1 = {
	owner = AKK
	add_core = AKK
	remove_core = QAR
}
1478.1.6   = {
	controller = REB
	revolt = { type = pretender_rebels }
} # Death of Uzun Hasan
1481.1.1   = {
	controller = AKK
	revolt = { }
} # End of civil war
1501.1.1  = {
	controller = SAM
}
1508.1.1  = {
	owner = SAM
}
1512.1.1  = {
	owner = PER
	controller = PER
	add_core = PER
	religion = shiite
	remove_core = SAM
	remove_core = AKK
} # Safawids "form persia"
#1524.1.1   = {
#	controller = REB
#	revolt = { type = pretender_rebels }
#} # Civil War
1533.1.1   = {
	controller = PER
	revolt = { }
} # Civil War
1583.8.15   = {
	controller = TUR
} # Ottoman conquest
1590.3.21   = {
	owner = TUR
} # Peace of Istanbul
1603.9.26 = {
	controller = PER
}
1612.11.20 = { owner = PER }

1722.1.1 = {
	controller = REB
	revolt = { type = pretender_rebels }
} # Anti Ghilzai
1730.1.1 = {
	controller = PER
	revolt = { }
} # Afghans Ousted
1747.1.1 = {
	controller = REB
	revolt = { type = pretender_rebels }
} # Anti Ghilzai
1760.1.1 = {
	controller = PER
	revolt = { }
} # Afghans Ousted
