# 658 - Bicol

culture = tagalog
religion = hinduism
capital = "Bicol"
trade_goods = crops
hre = no
base_tax = 3
base_production = 3
#base_manpower = 1.0
base_manpower = 2.0
native_size = 50
native_ferocity = 1
native_hostileness = 3
discovered_by = chinese
discovered_by = austranesian

1355.1.1 = {
	owner = LUS
	controller = LUS
	add_core = LUS
	citysize = 5000
	trade_goods = clove
	set_province_flag = trade_good_set
}
1521.1.1 = { discovered_by = SPA } # Ferdinand Magellan
1570.1.1 = {
	owner = SPA
	controller = SPA
	culture = castillian
	religion = catholic
	citysize = 150
}
1595.1.1 = { add_core = SPA }
1600.1.1 = { citysize = 700 }
1650.1.1 = { citysize = 1254 }
1700.1.1 = { citysize = 2800 }
1750.1.1 = { citysize = 4050 }
1800.1.1 = { citysize = 6800 }
