# No previous file for Navasink

culture = lenape
religion = totemism
capital = "Navasink"
trade_goods = crops
hre = no
base_tax = 1
base_production = 1
base_manpower = 1
native_size = 15
native_ferocity = 1 
native_hostileness = 6

1609.1.1   = { discovered_by = NED } # Henry Hudson
1643.1.1   = { owner = SWE
		controller = SWE
		citysize = 500
		culture = swedish
		religion = protestant
		trade_goods = tobacco
		capital = "Nya Elfsborg" } #Founding of settlement in New Jersey
1655.9.15  = {	owner = NED
		controller = NED
		culture = dutch
		religion = reformed
	     } # Incorporated into the Dutch new Netherlands
1665.6.1   = { controller = ENG } # English seize New Netherlands at outset of Second Anglo-Dutch war
1667.7.31  = {	owner = ENG
		culture = english
		religion = protestant
		citysize = 1200
		capital = "Trenton"
	     } # Treaty of Breda
1692.7.31  = { add_core = ENG }
1700.1.1   = { citysize = 3500 }
1707.5.12  = {
	discovered_by = GBR
	owner = GBR
	controller = GBR
	add_core = GBR
	remove_core = ENG
}
1750.1.1   = { citysize = 12000 }
1764.7.1   = {	culture = american
		unrest = 6
	     } # Growing unrest
1776.7.4   = {	owner = USA
		controller = USA
		add_core = USA
	     } # Declaration of independence
1782.11.1  = { unrest = 0 remove_core = GBR } # Preliminary articles of peace, the British recognized Amercian independence
1800.1.1   = { citysize = 41220 }
