increase_taxes = {

	category = 3

	allow = {
		always = yes
	}
	
	effect = {
		add_years_of_income = 0.25
	}
	
	modifier = {
		global_tax_modifier = 0.10
		global_unrest = 1
	}

	ai_will_do = {
		factor = 1
		modifier = {
			factor = 2
			num_of_loans = 1
		}		
	}	
}