# Conquest Missions

annex_minor_mission = {

	type = neighbor_countries
	category = MIL
	ai_mission = yes
	
	target_provinces = {
		owned_by = ROOT
	}
	allow = {
		is_subject = no
		FROM = {	
			is_subject = no
			is_at_war = no
			NOT = { alliance_with = FROM }
		}
		NOT = { tag = PAP }
		OR = {
			NOT = { tag = JAP }
			AND = {
				tag = JAP
				OR = { 
					government_rank = 6
					AND = {
						NOT = { government = early_medieval_japanese_gov }
						NOT = { government = late_medieval_japanese_gov }
						NOT = { government = early_modern_japanese_gov }
					}
				}
			}
		}
		num_of_cities = 1
		NOT = { num_of_cities = 2 }
		NOT = { has_opinion = { who = FROM value = 0 } }
		OR = {
			is_part_of_hre = no
			FROM = { is_part_of_hre = no }
		}
		capital_scope = {
			has_discovered = FROM
		}
	}
	abort = {
		NOT = { num_of_cities = 1 }
	}
	success = {
		all_target_province = {
			owned_by = FROM
		}
		exists = no
	}
	chance = {
		factor = 1000
		modifier = {
			factor = 1.5
			capital_scope = {
				culture = FROM
			}
		}
		modifier = {
			factor = 1.5
			capital_scope = {
				religion = FROM
			}
		}
		modifier = {
			factor = 1.5
			FROM = { mil = 3 }
		}
		modifier = {
			factor = 0.5
			truce_with = FROM
		}
		modifier = {
			factor = 0.5
			FROM = { NOT = { mil = 2 } }
		}		
	}
	immediate = {
		every_target_province = {
			add_claim = FROM
		}
	}
	abort_effect = {
		every_target_province = {
			remove_claim = FROM
		}
	}
	effect = {
		FROM = {
			add_country_modifier = {
				name = "military_victory"
				duration = 3000
			}
		}
		every_target_province = {
			limit = {
				NOT = { is_core = FROM }
			}
			add_province_modifier = {
				name = "gaining_control"
				duration = -1
			}
		}
	}
}


conquer_a_port = {

	type = neighbor_provinces
	category = MIL
	ai_mission = yes
	
	allow = {
		FROM = {
			is_subject = no
			is_at_war = no
			NOT = { num_of_total_ports = 1 }
			NOT = { has_country_flag = conquered_a_port }
			NOT = { has_country_modifier = expansion_of_the_shipbuilding_industry }
		}
		owner = {
			NOT = { truce_with = FROM }
			NOT = { alliance_with = FROM }
		}
		has_port = yes
		has_discovered = FROM
		OR = {
			owner = { is_part_of_hre = no }
			FROM = { is_part_of_hre = no }
		}
		OR = {
			is_capital = no
			owner = { NOT = { num_of_cities = 2} }
		}
		OR = {
			NOT = { owned_by = PAP }
			is_capital = no
		}
	}
	abort = {
		FROM = { 
			num_of_total_ports = 1
		}
	}
	success = {
		owned_by = FROM
	}
	chance = {
		factor = 1000
		modifier = {
			factor = 0.75
			NOT = { culture = FROM }
		}
		modifier = {
			factor = 0.75
			NOT = { religion = FROM }
		}
		modifier = {
			factor = 1.5
			FROM = { mil = 4 }
		}
	}
	immediate = {
		add_claim = FROM
	}
	abort_effect = {
		remove_claim = FROM
	}
	effect = {
		FROM = {
			set_country_flag = conquered_a_port
			add_navy_tradition = 5
			add_country_modifier = {
				name = "expansion_of_the_shipbuilding_industry"
				duration = 3650
			}
		}
		if = {
			limit = {
				NOT = { is_core = FROM }
			}
			add_province_modifier = {
				name = "gaining_control"
				duration = -1
			}
		}
	}
}


conquer_neighbour = {

	type = neighbor_provinces
	category = MIL
	ai_mission = yes
	
	allow = {
		FROM = {	
			is_subject = no
			NOT = { has_country_modifier = military_victory }
		}
		NOT = { is_core = FROM }
		is_colony = no
		NOT = { owner = { has_opinion = { who = FROM value = 0 } } }
		culture_group = FROM
		owner = { NOT = { truce_with = FROM } }
		NOT = { owner = { num_of_infantry = FROM  } }
		NOT = { owner = { vassal_of = FROM } }
		owner = { is_subject = no }
		owner = { is_at_war = no }
		has_discovered = FROM
		OR = {
			is_capital = no
			owner = { NOT = { num_of_cities = 2} }
		}
		OR = {
			owner = { is_part_of_hre = no }
			FROM = { is_part_of_hre = no }
		}
		OR = {
			NOT = { owned_by = PAP }
			is_capital = no
		}
		owner = {
			OR = {
				NOT = { tag = JAP }
				AND = {
					tag = JAP
					OR = { 
						government_rank = 6
						AND = {
							NOT = { government = early_medieval_japanese_gov }
							NOT = { government = late_medieval_japanese_gov }
							NOT = { government = early_modern_japanese_gov }
						}
					}
				}
			}
		}
	}
	abort = {
		owner = { NOT = { is_neighbor_of = FROM } }
	}
	success = {
		owned_by = FROM
	}
	chance = {
		factor = 1000
		modifier = {
			factor = 1.5
			culture = FROM
		}
		modifier = {
			factor = 1.5
			religion = FROM
		}
		modifier = {
			factor = 1.5
			FROM = { mil = 3 }
		}
		modifier = {
			factor = 0.5
			FROM = { NOT = { mil = 2 } }
		}
		modifier =  {
			factor = 0.5
			owner = { truce_with = FROM }
		}
	}
	immediate = {
		add_claim = FROM
	}
	abort_effect = {
		remove_claim = FROM
	}
	effect = {
		FROM = {
			add_country_modifier = {
				name = "military_victory"
				duration = 3000
			}
		}
		if = {
			limit = {
				NOT = { is_core = FROM }
			}
			add_province_modifier = {
				name = "gaining_control"
				duration = -1
			}
		}
	}	
}


conquer_core = {

	type = neighbor_provinces 
	category = MIL
	ai_mission = yes

	allow = {
		FROM = {	
			is_subject = no
			NOT = { has_country_modifier = military_victory }
		}
		is_core = FROM
		is_colony = no
		OR = {
			is_capital = no
			owner = { NOT = { num_of_cities = 2} }
		}
		NOT = { owner = { vassal_of = FROM } }
		NOT = { owner = { junior_union_with = FROM } }
		owner = { NOT = { truce_with = FROM } }
		owner = { is_subject = no }
		owner = { is_at_war = no }
		has_discovered = FROM
		owner = {
			OR = {
				NOT = { tag = JAP }
				AND = {
					tag = JAP
					OR = { 
						government_rank = 6
						AND = {
							NOT = { government = early_medieval_japanese_gov }
							NOT = { government = late_medieval_japanese_gov }
							NOT = { government = early_modern_japanese_gov }
						}
					}
				}
			}
		}
	}
	abort = {
		NOT = { is_core = FROM }
	}
	success = {
		owned_by = FROM
	}
	chance = {
		factor = 1000
		modifier = {
			factor = 1.5
			culture = FROM
		}
		modifier = {
			factor = 1.5
			religion = FROM
		}
		modifier = {
			factor = 1.5
			FROM = { mil = 3 }
		}
		modifier = {
			factor = 0.5
			FROM = { NOT = { mil = 2 } }
		}
		modifier = { 
			factor = 0.5
			owner = { truce_with = FROM }
		}
	}
	effect = {
		FROM = {
			add_prestige = 5
			add_army_tradition = 5
			add_country_modifier = {
				name = "military_victory"
				duration = 3000
			}
		}
	}	
}


get_control_of_naval_supplies = {

	type = country
	category = MIL
	ai_mission = yes
	
	allow = {
		NOT = { naval_supplies = 1 }
		OR = {
			num_of_heavy_ship = 12
			num_of_light_ship = 24
		}
		num_of_ports = 1
		NOT = { has_country_modifier = expansion_of_the_shipbuilding_industry }
		OR = {
			NOT = { has_country_flag = got_control_of_naval_supplies }
			had_country_flag = { flag = got_control_of_naval_supplies days = 7300 }
		}
	}
	abort = {
	}
	success = {
		naval_supplies = 1
	}
	chance = {
		factor = 1000
		modifier = {
			factor = 2.0
			has_idea = press_gangs
		}
		modifier = {
			factor = 10.0
			has_idea = grand_navy
		}
		modifier = {
			factor = 2.0
			has_idea = sea_hawks
		}
		modifier = {
			factor = 2.0
			has_idea = superior_seamanship
		}	
		modifier = {
			factor = 2.0
			has_idea = naval_fighting_instruction
		}
		modifier = {
			factor = 2.0
			has_idea = excellent_shipwrights
		}
		modifier = {
			factor = 2.0
			has_idea = naval_glory
		}
	}
	effect = {
		add_navy_tradition = 5
		add_prestige = 5
		set_country_flag = got_control_of_naval_supplies
		add_country_modifier = {
			name = "expansion_of_the_shipbuilding_industry"
			duration = 3650
		}
	}
}


protect_religious_minority = {

	type = neighbor_provinces
	category = MIL
	ai_mission = yes
	
	allow = {
		FROM = {
			is_subject = no
			is_at_war = no
			has_regency = no
		}
		religion = FROM
		owner = { NOT = { religion = FROM } }
		owner = { NOT = { alliance_with = FROM } }
		owner = { NOT = { is_subject_of = FROM } }
		has_discovered = FROM
		OR = {
			is_capital = no
			owner = { NOT = { num_of_cities = 2} }
		}
	}
	abort = {
		OR = {
			NOT = { religion = FROM }
			owner = { alliance_with = FROM }
			owner = { religion = FROM }
			owner = { is_subject_of = FROM }
		}
	}
	success = {
		owned_by = FROM
	}
	chance = {
		factor = 1000
		modifier = {
			factor = 1.5
			culture = FROM
		}
		modifier = {
			factor = 1.5
			religion = FROM
		}
		modifier = {
			factor = 1.5
			FROM = { mil = 3 }
		}
		modifier = {
			factor = 0.5
		FROM = { NOT = { mil = 2 } }
		}		
		modifier = { 
			factor = 0.5
			owner = { truce_with = FROM }
		}
	}
	immediate = {
		add_claim = FROM
	}
	abort_effect = {
		remove_claim = FROM
	}
	effect = {
		FROM = { add_prestige = 5 }
		add_province_modifier = {
			name = "faster_integration"
			duration = 3650
		}
		if = {
			limit = {
				NOT = { is_core = FROM }
			}
			add_province_modifier = {
				name = "gaining_control"
				duration = -1
			}
		}
	}
}


protect_cultural_minority = {

	type = neighbor_provinces
	category = MIL
	ai_mission = yes
	
	allow = {
		FROM = {	
			is_subject = no
			is_at_war = no
			has_regency = no
		}
		culture = FROM
		owner = { NOT = { primary_culture = FROM } }
		owner = { NOT = { alliance_with = FROM } }
		owner = { NOT = { is_subject_of = FROM } }
		has_discovered = FROM
		OR = {
			is_capital = no
			owner = { NOT = { num_of_cities = 2} }
		}
		
		OR = {
			owner = { is_part_of_hre = no }
			FROM = { is_part_of_hre = no }
		}
		OR = {
			NOT = { owned_by = PAP }
			is_capital = no
		}
		
	}
	abort = {
		OR = {
			NOT = { culture = FROM }
			owner = { primary_culture = FROM }
			owner = { alliance_with = FROM }
			owner = { is_subject_of = FROM }
		}
	}
	success = {
		owned_by = FROM
	}
	chance = {
		factor = 1000
		modifier = {
			factor = 1.5
			culture = FROM
		}
		modifier = {
			factor = 1.5
			religion = FROM
		}
		modifier = {
			factor = 1.5
		FROM = { mil = 3 }
		}
		modifier = {
			factor = 0.5
			FROM = { NOT = { mil = 2 } }
		}		
		modifier = {
			factor = 0.5
			owner = { truce_with = FROM }
		}
	}
	immediate = {
		add_claim = FROM
	}
	abort_effect = {
		remove_claim = FROM
	}
	effect = {
		FROM = { add_prestige = 5 }
		add_province_modifier = {
			name = "faster_integration"
			duration = 3650
		}
		if = {
			limit = {
				NOT = { is_core = FROM }
			}
			add_province_modifier = {
				name = "gaining_control"
				duration = -1
			}
		}
	}
}


keep_rival_out_of_italy = {

	type = rival_countries
	category = MIL
	ai_mission = yes

	allow = {
		normal_or_historical_nations = yes
		FROM = { 
			is_subject = no
			num_of_cities = 10 
			is_at_war = no
			has_regency = no
			OR = {
				NOT = { has_country_flag = kept_rival_out_of_italy }
				had_country_flag = { flag = kept_rival_out_of_italy days = 7300 }
			}
		}
		num_of_cities = 5
		NOT = { culture_group = latin }
		italy_region = { owned_by = FROM }
		NOT = { has_opinion = { who = FROM value = 100 } }
		any_owned_province = {	
			region = italy_region
		}
		OR = {
			is_part_of_hre = no
			FROM = { is_part_of_hre = no }
		}
		NOT = { truce_with = FROM }
		NOT = { alliance_with = FROM }
		NOT = { is_subject = yes }
		FROM = { NOT = { is_subject = yes } } 
		capital_scope = {
			continent = europe
		}
	}
	abort = {
		NOT = {
			italy_region = {
				owned_by = FROM
			}
		}
	}
	success = {
		NOT = {
			any_owned_province = {	
				region = italy_region
			}
		}
	}
	chance = {
		factor = 1000
		modifier = {
			factor = 1.5
			FROM = { mil = 3 }
		}
		modifier = {
			factor = 0.5
			FROM = { NOT = { dip = 2 } }
		}

	}
	effect = {
		FROM = { add_prestige = 5 }
		custom_tooltip = keep_rival_out_of_italy_tooltip
		hidden_effect = {
			FROM = {
				set_country_flag = kept_rival_out_of_italy
				every_owned_province = {
					limit = {
						region = italy_region
					}
					add_province_modifier = {
						name = "protected_italian_interests"
						duration = 3650
					}
				}
			}
		}
	}	
}


attack_prestigous_rival = {

	type = rival_countries
	category = MIL
	ai_mission = yes

	allow = {
		prestige = FROM
		is_neighbor_of = FROM
		FROM = { 
			num_of_cities = 5
			is_at_war = no
			is_subject = no
			NOT = { has_country_modifier = military_victory }
		}
		num_of_cities = 5
		has_regency = no
		NOT = { is_nomad = yes } #not vs nomads!
		NOT = { truce_with = FROM }
		NOT = { alliance_with = FROM }
		NOT = { is_subject = yes }
		FROM = { NOT = { is_subject = yes } }
		OR = {
			is_part_of_hre = no
			FROM = { is_part_of_hre = no }
		}
		OR = {
			NOT = { tag = JAP }
			AND = {
				tag = JAP
				OR = { 
					government_rank = 6
					AND = {
						NOT = { government = early_medieval_japanese_gov }
						NOT = { government = late_medieval_japanese_gov }
						NOT = { government = early_modern_japanese_gov }
					}
				}
			}
		}
	}
	abort = {
		OR = {
			FROM = {
				is_subject = yes
			}
			NOT = { num_of_cities = 1 }
		}
	}
	success = {
		war_with = FROM
	}
	chance = {
		factor = 1000
		modifier = {
			factor = 1.5
			FROM = { mil = 3 }
		}
		modifier = {
			factor = 0.5
			FROM = { NOT = { dip = 2 } }
		}
	}
	effect = {
		FROM = { 
		add_army_tradition = 5 
		add_country_modifier = {
				name = "military_victory"
				duration = 3000
			}
		}
		
	}	
}


attack_weaker_rival = {

	type = rival_countries
	category = MIL
	ai_mission = yes

	allow = {
		FROM = {	
			is_subject = no
			num_of_cities = 5
			is_at_war = no
			NOT = { has_country_modifier = military_victory }
		}	
		NOT = { num_of_infantry = FROM }
		is_neighbor_of = FROM
		is_at_war = yes
		num_of_cities = 5
		NOT = { truce_with = FROM }
		NOT = { alliance_with = FROM }
		NOT = { is_subject = yes }
		FROM = { NOT = { is_subject = yes } } 
		OR = {
			is_part_of_hre = no
			FROM = { is_part_of_hre = no }
		}
		OR = {
			NOT = { tag = JAP }
			AND = {
				tag = JAP
				OR = { 
					government_rank = 6
					AND = {
						NOT = { government = early_medieval_japanese_gov }
						NOT = { government = late_medieval_japanese_gov }
						NOT = { government = early_modern_japanese_gov }
					}
				}
			}
		}
		has_regency = no
	}
	abort = {
		OR = {
			FROM = {
				is_subject = yes
			}
			is_at_war = no
		}
	}
	success = {
		war_with = FROM
	}
	chance = {
		factor = 1000
		modifier = {
			factor = 1.5
			FROM = { mil = 3 }
		}
		modifier = {
			factor = 0.5
			FROM = { NOT = { dip = 2 } }
		}
	}
	effect = {
		FROM = { 
		add_army_tradition = 5 
		add_country_modifier = {
				name = "military_victory"
				duration = 3000
			}
		}
	}	
}


italian_ambition = {

	type = country
	category = MIL
	ai_mission = yes

	allow = {
		normal_or_historical_nations = yes
		is_subject = no
		is_year = 1460
		NOT = { has_country_flag = had_italian_ambition_mission }
		num_of_cities = 10 
		NOT = { is_year = 1600 }
		NOT = { culture_group = latin }
		religion_group = christian
		OR = {
			culture_group = langue_d_oil
			culture_group = langue_d_oc
			primary_culture = austrian
			culture_group = iberian
		}
		NOT = {
			any_owned_province = {	
				region = italy_region
			}
		}
		capital_scope = {
			continent = europe
		}
	}
	abort = {
		is_subject = yes
	}
	success = {
		num_of_owned_provinces_with = {
			value = 3
			region = italy_region
		}
	}
	chance = {
		factor = 1000
		modifier = {
			factor = 1.5
			FROM = { mil = 3 }
		}
		modifier = {
			factor = 0.5
			NOT = { dip = 2 }
		}
	}
	effect = {
		add_prestige = 5
		add_army_tradition = 5
		set_country_flag = had_italian_ambition_mission
		add_country_modifier = {
			name = "italian_ambition_modifier"
			duration = 3650
		}
	}
}

conquest_of_xalisco = {

	type = country

	category = MIL
	ai_mission = yes
	
	target_provinces = {
		owned_by = XAL
	}
	allow = {
		is_subject = no
		is_at_war = no
		is_neighbor_of = XAL
		XAL = { religion_group = new_world_pagan }
	}
	abort = {
		NOT = { exists = XAL }
	}
	success = {
		NOT = { exists = XAL }
		all_target_province = {
			owned_by = ROOT
		}
	}
	chance = {
		factor = 1000
		modifier = {
			factor = 2
			mil = 4
		}
		modifier = {
			factor = 2
			mil = 6
		}
		modifier = {
			factor = 2
			adm = 4
		}	
	}
	immediate = {
		every_target_province = {
			add_claim = ROOT
		}
	}
	abort_effect = {
		every_target_province = {
			remove_claim = ROOT
		}
	}
	effect = {
		add_army_tradition = 15
		add_war_exhaustion = -4
		every_target_province = {
			limit = {
				NOT = { is_core = ROOT }
			}
			add_province_modifier = {
				name = "gaining_control"
				duration = -1
			}
		}
	}
}

conquest_of_purepecha = {

	type = country

	category = MIL
	ai_mission = yes
	
	target_provinces = {
		owned_by = PUR
	}
	allow = {
		is_subject = no
		is_at_war = no
		is_neighbor_of = PUR
		PUR = { religion_group = new_world_pagan }
	}
	abort = {
		NOT = { exists = PUR }
	}
	success = {
		NOT = { exists = PUR }
		all_target_province = {
			owned_by = ROOT
		}
	}
	chance = {
		factor = 1000
		modifier = {
			factor = 2
			mil = 4
		}
		modifier = {
			factor = 2
			mil = 6
		}
		modifier = {
			factor = 2
			adm = 4
		}	
	}
	immediate = {
		every_target_province = {
			add_claim = ROOT
		}
	}
	abort_effect = {
		every_target_province = {
			remove_claim = ROOT
		}
	}
	effect = {
		add_army_tradition = 15
		add_war_exhaustion = -4
		every_target_province = {
			limit = {
				NOT = { is_core = ROOT }
			}
			add_province_modifier = {
				name = "gaining_control"
				duration = -1
			}
		}
	}
}

# the 2 following missions is for conquering no longer existing tags
# conquest_of_nahualt = {

	# type = country

	# category = MIL
	
	# target_provinces = {
		# owned_by = NAH
	# }
	# allow = {
		# is_subject = no
		# is_at_war = no
		# is_neighbor_of = NAH
		# NAH = { religion_group = new_world_pagan }
	# }
	# abort = {
		# NOT = { exists = NAH }
	# }
	# success = {
		# NOT = { exists = NAH }
		# all_target_province = {
			# owned_by = ROOT
		# }
	# }
	# chance = {
		# factor = 1000
		# modifier = {
			# factor = 2
			# mil = 4
		# }
		# modifier = {
			# factor = 2
			# mil = 6
		# }
		# modifier = {
			# factor = 2
			# adm = 4
		# }	
	# }
	# immediate = {
		# every_target_province = {
			# add_claim = ROOT
		# }
	# }
	# abort_effect = {
		# every_target_province = {
			# remove_claim = ROOT
		# }
	# }
	# effect = {
		# add_army_tradition = 15
		# add_war_exhaustion = -4
		# every_target_province = {
			# limit = {
				# NOT = { is_core = ROOT }
			# }
			# add_province_modifier = {
				# name = "gaining_control"
				# duration = -1
			# }
		# }
	# }
# }

# conquest_of_otomis = {

	# type = country

	# category = MIL
	
	# target_provinces = {
		# owned_by = OTO
	# }
	# allow = {
		# is_subject = no
		# is_at_war = no
		# is_neighbor_of = OTO
		# OTO = { religion_group = new_world_pagan }
	# }
	# abort = {
		# NOT = { exists = OTO }
	# }
	# success = {
		# NOT = { exists = OTO }
		# all_target_province = {
			# owned_by = ROOT
		# }
	# }
	# chance = {
		# factor = 1000
		# modifier = {
			# factor = 2
			# mil = 4
		# }
		# modifier = {
			# factor = 2
			# mil = 6
		# }
		# modifier = {
			# factor = 2
			# adm = 4
		# }	
	# }
	# immediate = {
		# every_target_province = {
			# add_claim = ROOT
		# }
	# }
	# abort_effect = {
		# every_target_province = {
			# remove_claim = ROOT
		# }
	# }
	# effect = {
		# add_army_tradition = 15
		# add_war_exhaustion = -4
		# every_target_province = {
			# limit = {
				# NOT = { is_core = ROOT }
			# }
			# add_province_modifier = {
				# name = "gaining_control"
				# duration = -1
			# }
		# }
	# }
# }

conquest_of_tepanec = {

	type = country

	category = MIL
	ai_mission = yes
	
	target_provinces = {
		owned_by = TEP
	}
	allow = {
		is_subject = no
		is_at_war = no
		is_neighbor_of = TEP
		TEP = { religion_group = new_world_pagan }
	}
	abort = {
		NOT = { exists = TEP }
	}
	success = {
		NOT = { exists = TEP }
		all_target_province = {
			owned_by = ROOT
		}
	}
	chance = {
		factor = 1000
		modifier = {
			factor = 2
			mil = 4
		}
		modifier = {
			factor = 2
			mil = 6
		}
		modifier = {
			factor = 2
			adm = 4
		}	
	}
	immediate = {
		every_target_province = {
			add_claim = ROOT
		}
	}
	abort_effect = {
		every_target_province = {
			remove_claim = ROOT
		}
	}
	effect = {
		add_army_tradition = 15
		add_war_exhaustion = -4
		every_target_province = {
			limit = {
				NOT = { is_core = ROOT }
			}
			add_province_modifier = {
				name = "gaining_control"
				duration = -1
			}
		}
	}
}

conquest_of_tenotictlan = {

	type = country

	category = MIL
	ai_mission = yes
	
	target_provinces = {
		owned_by = TEN
	}
	allow = {
		is_subject = no
		is_at_war = no
		is_neighbor_of = TEN
		TEN = { religion_group = new_world_pagan }
	}
	abort = {
		NOT = { exists = TEN }
	}
	success = {
		NOT = { exists = TEN }
		all_target_province = {
			owned_by = ROOT
		}
	}
	chance = {
		factor = 1000
		modifier = {
			factor = 2
			mil = 4
		}
		modifier = {
			factor = 2
			mil = 6
		}
		modifier = {
			factor = 2
			adm = 4
		}	
	}
	immediate = {
		every_target_province = {
			add_claim = ROOT
		}
	}
	abort_effect = {
		every_target_province = {
			remove_claim = ROOT
		}
	}
	effect = {
		add_army_tradition = 15
		add_war_exhaustion = -4
		every_target_province = {
			limit = {
				NOT = { is_core = ROOT }
			}
			add_province_modifier = {
				name = "gaining_control"
				duration = -1
			}
		}
	}
}

conquest_of_acolhua = {

	type = country

	category = MIL
	ai_mission = yes
	
	target_provinces = {
		owned_by = ACO
	}
	allow = {
		is_subject = no
		is_at_war = no
		is_neighbor_of = ACO
		ACO = { religion_group = new_world_pagan }
	}
	abort = {
		NOT = { exists = ACO }
	}
	success = {
		NOT = { exists = ACO }
		all_target_province = {
			owned_by = ROOT
		}
	}
	chance = {
		factor = 1000
		modifier = {
			factor = 2
			mil = 4
		}
		modifier = {
			factor = 2
			mil = 6
		}
		modifier = {
			factor = 2
			adm = 4
		}	
	}
	immediate = {
		every_target_province = {
			add_claim = ROOT
		}
	}
	abort_effect = {
		every_target_province = {
			remove_claim = ROOT
		}
	}
	effect = {
		add_army_tradition = 15
		add_war_exhaustion = -4
		every_target_province = {
			limit = {
				NOT = { is_core = ROOT }
			}
			add_province_modifier = {
				name = "gaining_control"
				duration = -1
			}
		}
	}
}

conquest_of_tlaxcalla = {

	type = country

	category = MIL
	ai_mission = yes
	
	target_provinces = {
		owned_by = TXL
	}
	allow = {
		is_subject = no
		is_at_war = no
		is_neighbor_of = TXL
		TXL = { religion_group = new_world_pagan }
	}
	abort = {
		NOT = { exists = TXL }
	}
	success = {
		NOT = { exists = TXL }
		all_target_province = {
			owned_by = ROOT
		}
	}
	chance = {
		factor = 1000
		modifier = {
			factor = 2
			mil = 4
		}
		modifier = {
			factor = 2
			mil = 6
		}
		modifier = {
			factor = 2
			adm = 4
		}	
	}
	immediate = {
		every_target_province = {
			add_claim = ROOT
		}
	}
	abort_effect = {
		every_target_province = {
			remove_claim = ROOT
		}
	}
	effect = {
		add_army_tradition = 15
		add_war_exhaustion = -4
		every_target_province = {
			limit = {
				NOT = { is_core = ROOT }
			}
			add_province_modifier = {
				name = "gaining_control"
				duration = -1
			}
		}
	}
}

conquest_of_aztec = {

	type = country

	category = MIL
	ai_mission = yes
	
	target_provinces = {
		owned_by = AZT
	}
	allow = {
		is_subject = no
		is_at_war = no
		is_neighbor_of = AZT
		AZT = { religion_group = new_world_pagan }
	}
	abort = {
		NOT = { exists = AZT }
	}
	success = {
		NOT = { exists = AZT }
		all_target_province = {
			owned_by = ROOT
		}
	}
	chance = {
		factor = 1000
		modifier = {
			factor = 2
			mil = 4
		}
		modifier = {
			factor = 2
			mil = 6
		}
		modifier = {
			factor = 2
			adm = 4
		}	
	}
	immediate = {
		every_target_province = {
			add_claim = ROOT
		}
	}
	abort_effect = {
		every_target_province = {
			remove_claim = ROOT
		}
	}
	effect = {
		add_army_tradition = 15
		add_war_exhaustion = -4
		every_target_province = {
			limit = {
				NOT = { is_core = ROOT }
			}
			add_province_modifier = {
				name = "gaining_control"
				duration = -1
			}
		}
	}
}

conquest_of_mixtec = {

	type = country

	category = MIL
	ai_mission = yes
	
	target_provinces = {
		owned_by = MIX
	}
	allow = {
		is_subject = no
		is_at_war = no
		is_neighbor_of = MIX
		MIX = { religion_group = new_world_pagan }
	}
	abort = {
		NOT = { exists = MIX }
	}
	success = {
		NOT = { exists = MIX }
		all_target_province = {
			owned_by = ROOT
		}
	}
	chance = {
		factor = 1000
		modifier = {
			factor = 2
			mil = 4
		}
		modifier = {
			factor = 2
			mil = 6
		}
		modifier = {
			factor = 2
			adm = 4
		}	
	}
	immediate = {
		every_target_province = {
			add_claim = ROOT
		}
	}
	abort_effect = {
		every_target_province = {
			remove_claim = ROOT
		}
	}
	effect = {
		add_army_tradition = 15
		add_war_exhaustion = -4
		every_target_province = {
			limit = {
				NOT = { is_core = ROOT }
			}
			add_province_modifier = {
				name = "gaining_control"
				duration = -1
			}
		}
	}
}

conquest_of_mayaempire = {

	type = country

	category = MIL
	ai_mission = yes
	
	target_provinces = {
		owned_by = MAY
	}
	allow = {
		is_subject = no
		is_at_war = no
		is_neighbor_of = MAY
		MAY = { religion_group = new_world_pagan }
	}
	abort = {
		NOT = { exists = MAY }
	}
	success = {
		NOT = { exists = MAY }
		all_target_province = {
			owned_by = ROOT
		}
	}
	chance = {
		factor = 1000
		modifier = {
			factor = 2
			mil = 4
		}
		modifier = {
			factor = 2
			mil = 6
		}
		modifier = {
			factor = 2
			adm = 4
		}	
	}
	immediate = {
		every_target_province = {
			add_claim = ROOT
		}
	}
	abort_effect = {
		every_target_province = {
			remove_claim = ROOT
		}
	}
	effect = {
		add_army_tradition = 15
		add_war_exhaustion = -4
		every_target_province = {
			limit = {
				NOT = { is_core = ROOT }
			}
			add_province_modifier = {
				name = "gaining_control"
				duration = -1
			}
		}
	}
}

conquest_of_mayapan = {

	type = country

	category = MIL
	ai_mission = yes
	
	target_provinces = {
		owned_by = KKM
	}
	allow = {
		is_subject = no
		is_at_war = no
		is_neighbor_of = KKM
		KKM = { religion_group = new_world_pagan }
	}
	abort = {
		NOT = { exists = KKM }
	}
	success = {
		NOT = { exists = KKM }
		all_target_province = {
			owned_by = ROOT
		}
	}
	chance = {
		factor = 1000
		modifier = {
			factor = 2
			mil = 4
		}
		modifier = {
			factor = 2
			mil = 6
		}
		modifier = {
			factor = 2
			adm = 4
		}	
	}
	immediate = {
		every_target_province = {
			add_claim = ROOT
		}
	}
	abort_effect = {
		every_target_province = {
			remove_claim = ROOT
		}
	}
	effect = {
		add_army_tradition = 15
		add_war_exhaustion = -4
		every_target_province = {
			limit = {
				NOT = { is_core = ROOT }
			}
			add_province_modifier = {
				name = "gaining_control"
				duration = -1
			}
		}
	}
}

conquest_of_qumarkaj = {

	type = country

	category = MIL
	ai_mission = yes
	
	target_provinces = {
		owned_by = QUM
	}
	allow = {
		is_subject = no
		is_at_war = no
		is_neighbor_of = QUM
		QUM = { religion_group = new_world_pagan }
	}
	abort = {
		NOT = { exists = QUM }
	}
	success = {
		NOT = { exists = QUM }
		all_target_province = {
			owned_by = ROOT
		}
	}
	chance = {
		factor = 1000
		modifier = {
			factor = 2
			mil = 4
		}
		modifier = {
			factor = 2
			mil = 6
		}
		modifier = {
			factor = 2
			adm = 4
		}	
	}
	immediate = {
		every_target_province = {
			add_claim = ROOT
		}
	}
	abort_effect = {
		every_target_province = {
			remove_claim = ROOT
		}
	}
	effect = {
		add_army_tradition = 15
		add_war_exhaustion = -4
		every_target_province = {
			limit = {
				NOT = { is_core = ROOT }
			}
			add_province_modifier = {
				name = "gaining_control"
				duration = -1
			}
		}
	}
}

conquest_of_cuzcatlan = {

	type = country

	category = MIL
	ai_mission = yes
	
	target_provinces = {
		owned_by = PIP
	}
	allow = {
		is_subject = no
		is_at_war = no
		is_neighbor_of = PIP
		PIP = { religion_group = new_world_pagan }
	}
	abort = {
		NOT = { exists = PIP }
	}
	success = {
		NOT = { exists = PIP }
		all_target_province = {
			owned_by = ROOT
		}
	}
	chance = {
		factor = 1000
		modifier = {
			factor = 2
			mil = 4
		}
		modifier = {
			factor = 2
			mil = 6
		}
		modifier = {
			factor = 2
			adm = 4
		}	
	}
	immediate = {
		every_target_province = {
			add_claim = ROOT
		}
	}
	abort_effect = {
		every_target_province = {
			remove_claim = ROOT
		}
	}
	effect = {
		add_army_tradition = 15
		add_war_exhaustion = -4
		every_target_province = {
			limit = {
				NOT = { is_core = ROOT }
			}
			add_province_modifier = {
				name = "gaining_control"
				duration = -1
			}
		}
	}
}

conquest_of_teotitlan = {

	type = country

	category = MIL
	ai_mission = yes
	
	target_provinces = {
		owned_by = TEO
	}
	allow = {
		is_subject = no
		is_at_war = no
		is_neighbor_of = TEO
		TEO = { religion_group = new_world_pagan }
	}
	abort = {
		NOT = { exists = TEO }
	}
	success = {
		NOT = { exists = TEO }
		all_target_province = {
			owned_by = ROOT
		}
	}
	chance = {
		factor = 1000
		modifier = {
			factor = 2
			mil = 4
		}
		modifier = {
			factor = 2
			mil = 6
		}
		modifier = {
			factor = 2
			adm = 4
		}	
	}
	immediate = {
		every_target_province = {
			add_claim = ROOT
		}
	}
	abort_effect = {
		every_target_province = {
			remove_claim = ROOT
		}
	}
	effect = {
		add_army_tradition = 15
		add_war_exhaustion = -4
		every_target_province = {
			limit = {
				NOT = { is_core = ROOT }
			}
			add_province_modifier = {
				name = "gaining_control"
				duration = -1
			}
		}
	}
}

conquest_of_totonacapan = {

	type = country

	category = MIL
	ai_mission = yes
	
	target_provinces = {
		owned_by = TOT
	}
	allow = {
		is_subject = no
		is_at_war = no
		is_neighbor_of = TOT
		TOT = { religion_group = new_world_pagan }
	}
	abort = {
		NOT = { exists = TOT }
	}
	success = {
		NOT = { exists = TOT }
		all_target_province = {
			owned_by = ROOT
		}
	}
	chance = {
		factor = 1000
		modifier = {
			factor = 2
			mil = 4
		}
		modifier = {
			factor = 2
			mil = 6
		}
		modifier = {
			factor = 2
			adm = 4
		}	
	}
	immediate = {
		every_target_province = {
			add_claim = ROOT
		}
	}
	abort_effect = {
		every_target_province = {
			remove_claim = ROOT
		}
	}
	effect = {
		add_army_tradition = 15
		add_war_exhaustion = -4
		every_target_province = {
			limit = {
				NOT = { is_core = ROOT }
			}
			add_province_modifier = {
				name = "gaining_control"
				duration = -1
			}
		}
	}
}

conquest_of_zapotec = {

	type = country

	category = MIL
	ai_mission = yes
	
	target_provinces = {
		owned_by = ZAP
	}
	allow = {
		is_subject = no
		is_at_war = no
		is_neighbor_of = ZAP
		ZAP = { religion_group = new_world_pagan }
	}
	abort = {
		NOT = { exists = ZAP }
	}
	success = {
		NOT = { exists = ZAP }
		all_target_province = {
			owned_by = ROOT
		}
	}
	chance = {
		factor = 1000
		modifier = {
			factor = 2
			mil = 4
		}
		modifier = {
			factor = 2
			mil = 6
		}
		modifier = {
			factor = 2
			adm = 4
		}	
	}
	immediate = {
		every_target_province = {
			add_claim = ROOT
		}
	}
	abort_effect = {
		every_target_province = {
			remove_claim = ROOT
		}
	}
	effect = {
		add_army_tradition = 15
		add_war_exhaustion = -4
		every_target_province = {
			limit = {
				NOT = { is_core = ROOT }
			}
			add_province_modifier = {
				name = "gaining_control"
				duration = -1
			}
		}
	}
}

conquest_of_ayamarca = {

	type = country

	category = MIL
	ai_mission = yes
	
	target_provinces = {
		owned_by = AYA
	}
	allow = {
		is_subject = no
		is_at_war = no
		is_neighbor_of = AYA
		AYA = { religion_group = new_world_pagan }
	}
	abort = {
		NOT = { exists = AYA }
	}
	success = {
		NOT = { exists = AYA }
		all_target_province = {
			owned_by = ROOT
		}
	}
	chance = {
		factor = 1000
		modifier = {
			factor = 2
			mil = 4
		}
		modifier = {
			factor = 2
			mil = 6
		}
		modifier = {
			factor = 2
			adm = 4
		}	
	}
	immediate = {
		every_target_province = {
			add_claim = ROOT
		}
	}
	abort_effect = {
		every_target_province = {
			remove_claim = ROOT
		}
	}
	effect = {
		add_army_tradition = 15
		add_war_exhaustion = -4
		every_target_province = {
			limit = {
				NOT = { is_core = ROOT }
			}
			add_province_modifier = {
				name = "gaining_control"
				duration = -1
			}
		}
	}
}

conquest_of_aymara = {

	type = country

	category = MIL
	ai_mission = yes
	
	target_provinces = {
		owned_by = AYM
	}
	allow = {
		is_subject = no
		is_at_war = no
		is_neighbor_of = AYM
		AYM = { religion_group = new_world_pagan }
	}
	abort = {
		NOT = { exists = AYM }
	}
	success = {
		NOT = { exists = AYM }
		all_target_province = {
			owned_by = ROOT
		}
	}
	chance = {
		factor = 1000
		modifier = {
			factor = 2
			mil = 4
		}
		modifier = {
			factor = 2
			mil = 6
		}
		modifier = {
			factor = 2
			adm = 4
		}	
	}
	immediate = {
		every_target_province = {
			add_claim = ROOT
		}
	}
	abort_effect = {
		every_target_province = {
			remove_claim = ROOT
		}
	}
	effect = {
		add_army_tradition = 15
		add_war_exhaustion = -4
		every_target_province = {
			limit = {
				NOT = { is_core = ROOT }
			}
			add_province_modifier = {
				name = "gaining_control"
				duration = -1
			}
		}
	}
}

conquest_of_chibchaya = {

	type = country

	category = MIL
	ai_mission = yes
	
	target_provinces = {
		owned_by = CBC
	}
	allow = {
		is_subject = no
		is_at_war = no
		is_neighbor_of = CBC
		CBC = { religion_group = new_world_pagan }
	}
	abort = {
		NOT = { exists = CBC }
	}
	success = {
		NOT = { exists = CBC }
		all_target_province = {
			owned_by = ROOT
		}
	}
	chance = {
		factor = 1000
		modifier = {
			factor = 2
			mil = 4
		}
		modifier = {
			factor = 2
			mil = 6
		}
		modifier = {
			factor = 2
			adm = 4
		}	
	}
	immediate = {
		every_target_province = {
			add_claim = ROOT
		}
	}
	abort_effect = {
		every_target_province = {
			remove_claim = ROOT
		}
	}
	effect = {
		add_army_tradition = 15
		add_war_exhaustion = -4
		every_target_province = {
			limit = {
				NOT = { is_core = ROOT }
			}
			add_province_modifier = {
				name = "gaining_control"
				duration = -1
			}
		}
	}
}

conquest_of_chancay = {

	type = country

	category = MIL
	ai_mission = yes
	
	target_provinces = {
		owned_by = CHC
	}
	allow = {
		is_subject = no
		is_at_war = no
		is_neighbor_of = CHC
		CHC = { religion_group = new_world_pagan }
	}
	abort = {
		NOT = { exists = CHC }
	}
	success = {
		NOT = { exists = CHC }
		all_target_province = {
			owned_by = ROOT
		}
	}
	chance = {
		factor = 1000
		modifier = {
			factor = 2
			mil = 4
		}
		modifier = {
			factor = 2
			mil = 6
		}
		modifier = {
			factor = 2
			adm = 4
		}	
	}
	immediate = {
		every_target_province = {
			add_claim = ROOT
		}
	}
	abort_effect = {
		every_target_province = {
			remove_claim = ROOT
		}
	}
	effect = {
		add_army_tradition = 15
		add_war_exhaustion = -4
		every_target_province = {
			limit = {
				NOT = { is_core = ROOT }
			}
			add_province_modifier = {
				name = "gaining_control"
				duration = -1
			}
		}
	}
}

conquest_of_chimu = {

	type = country

	category = MIL
	ai_mission = yes
	
	target_provinces = {
		owned_by = CHM
	}
	allow = {
		is_subject = no
		is_at_war = no
		is_neighbor_of = CHM
		CHM = { religion_group = new_world_pagan }
	}
	abort = {
		NOT = { exists = CHM }
	}
	success = {
		NOT = { exists = CHM }
		all_target_province = {
			owned_by = ROOT
		}
	}
	chance = {
		factor = 1000
		modifier = {
			factor = 2
			mil = 4
		}
		modifier = {
			factor = 2
			mil = 6
		}
		modifier = {
			factor = 2
			adm = 4
		}	
	}
	immediate = {
		every_target_province = {
			add_claim = ROOT
		}
	}
	abort_effect = {
		every_target_province = {
			remove_claim = ROOT
		}
	}
	effect = {
		add_army_tradition = 15
		add_war_exhaustion = -4
		every_target_province = {
			limit = {
				NOT = { is_core = ROOT }
			}
			add_province_modifier = {
				name = "gaining_control"
				duration = -1
			}
		}
	}
}

conquest_of_cuzco = {

	type = country

	category = MIL
	ai_mission = yes
	
	target_provinces = {
		owned_by = CZC
	}
	allow = {
		is_subject = no
		is_at_war = no
		is_neighbor_of = CZC
		CZC = { religion_group = new_world_pagan }
	}
	abort = {
		NOT = { exists = CZC }
	}
	success = {
		NOT = { exists = CZC }
		all_target_province = {
			owned_by = ROOT
		}
	}
	chance = {
		factor = 1000
		modifier = {
			factor = 2
			mil = 4
		}
		modifier = {
			factor = 2
			mil = 6
		}
		modifier = {
			factor = 2
			adm = 4
		}	
	}
	immediate = {
		every_target_province = {
			add_claim = ROOT
		}
	}
	abort_effect = {
		every_target_province = {
			remove_claim = ROOT
		}
	}
	effect = {
		add_army_tradition = 15
		add_war_exhaustion = -4
		every_target_province = {
			limit = {
				NOT = { is_core = ROOT }
			}
			add_province_modifier = {
				name = "gaining_control"
				duration = -1
			}
		}
	}
}

conquest_of_huanca = {

	type = country

	category = MIL
	ai_mission = yes
	
	target_provinces = {
		owned_by = HUA
	}
	allow = {
		is_subject = no
		is_at_war = no
		is_neighbor_of = HUA
		HUA = { religion_group = new_world_pagan }
	}
	abort = {
		NOT = { exists = HUA }
	}
	success = {
		NOT = { exists = HUA }
		all_target_province = {
			owned_by = ROOT
		}
	}
	chance = {
		factor = 1000
		modifier = {
			factor = 2
			mil = 4
		}
		modifier = {
			factor = 2
			mil = 6
		}
		modifier = {
			factor = 2
			adm = 4
		}	
	}
	immediate = {
		every_target_province = {
			add_claim = ROOT
		}
	}
	abort_effect = {
		every_target_province = {
			remove_claim = ROOT
		}
	}
	effect = {
		add_army_tradition = 15
		add_war_exhaustion = -4
		every_target_province = {
			limit = {
				NOT = { is_core = ROOT }
			}
			add_province_modifier = {
				name = "gaining_control"
				duration = -1
			}
		}
	}
}

conquest_of_inca = {

	type = country

	category = MIL
	ai_mission = yes
	
	target_provinces = {
		owned_by = INC
	}
	allow = {
		is_subject = no
		is_at_war = no
		is_neighbor_of = INC
		INC = { religion_group = new_world_pagan }
	}
	abort = {
		NOT = { exists = INC }
	}
	success = {
		NOT = { exists = INC }
		all_target_province = {
			owned_by = ROOT
		}
	}
	chance = {
		factor = 1000
		modifier = {
			factor = 2
			mil = 4
		}
		modifier = {
			factor = 2
			mil = 6
		}
		modifier = {
			factor = 2
			adm = 4
		}	
	}
	immediate = {
		every_target_province = {
			add_claim = ROOT
		}
	}
	abort_effect = {
		every_target_province = {
			remove_claim = ROOT
		}
	}
	effect = {
		add_army_tradition = 15
		add_war_exhaustion = -4
		every_target_province = {
			limit = {
				NOT = { is_core = ROOT }
			}
			add_province_modifier = {
				name = "gaining_control"
				duration = -1
			}
		}
	}
}

# keep this one for the natives module ...
# conquest_of_mapuche = {

	# type = country

	# category = MIL
	
	# target_provinces = {
		# owned_by = MAP
	# }
	# allow = {
		# is_subject = no
		# is_at_war = no
		# is_neighbor_of = MAP
		# MAP = { religion_group = new_world_pagan }
	# }
	# abort = {
		# NOT = { exists = MAP }
	# }
	# success = {
		# NOT = { exists = MAP }
		# all_target_province = {
			# owned_by = ROOT
		# }
	# }
	# chance = {
		# factor = 1000
		# modifier = {
			# factor = 2
			# mil = 4
		# }
		# modifier = {
			# factor = 2
			# mil = 6
		# }
		# modifier = {
			# factor = 2
			# adm = 4
		# }	
	# }
	# immediate = {
		# every_target_province = {
			# add_claim = ROOT
		# }
	# }
	# abort_effect = {
		# every_target_province = {
			# remove_claim = ROOT
		# }
	# }
	# effect = {
		# add_army_tradition = 15
		# add_war_exhaustion = -4
		# every_target_province = {
			# limit = {
				# NOT = { is_core = ROOT }
			# }
			# add_province_modifier = {
				# name = "gaining_control"
				# duration = -1
			# }
		# }
	# }
# }

conquest_of_nazca = {

	type = country

	category = MIL
	ai_mission = yes
	
	target_provinces = {
		owned_by = NZC
	}
	allow = {
		is_subject = no
		is_at_war = no
		is_neighbor_of = NZC
		NZC = { religion_group = new_world_pagan }
	}
	abort = {
		NOT = { exists = NZC }
	}
	success = {
		NOT = { exists = NZC }
		all_target_province = {
			owned_by = ROOT
		}
	}
	chance = {
		factor = 1000
		modifier = {
			factor = 2
			mil = 4
		}
		modifier = {
			factor = 2
			mil = 6
		}
		modifier = {
			factor = 2
			adm = 4
		}	
	}
	immediate = {
		every_target_province = {
			add_claim = ROOT
		}
	}
	abort_effect = {
		every_target_province = {
			remove_claim = ROOT
		}
	}
	effect = {
		add_army_tradition = 15
		add_war_exhaustion = -4
		every_target_province = {
			limit = {
				NOT = { is_core = ROOT }
			}
			add_province_modifier = {
				name = "gaining_control"
				duration = -1
			}
		}
	}
}

conquest_of_quito = {

	type = country

	category = MIL
	ai_mission = yes
	
	target_provinces = {
		owned_by = QUI
	}
	allow = {
		is_subject = no
		is_at_war = no
		is_neighbor_of = QUI
		QUI = { religion_group = new_world_pagan }
	}
	abort = {
		NOT = { exists = QUI }
	}
	success = {
		NOT = { exists = QUI }
		all_target_province = {
			owned_by = ROOT
		}
	}
	chance = {
		factor = 1000
		modifier = {
			factor = 2
			mil = 4
		}
		modifier = {
			factor = 2
			mil = 6
		}
		modifier = {
			factor = 2
			adm = 4
		}	
	}
	immediate = {
		every_target_province = {
			add_claim = ROOT
		}
	}
	abort_effect = {
		every_target_province = {
			remove_claim = ROOT
		}
	}
	effect = {
		add_army_tradition = 15
		add_war_exhaustion = -4
		every_target_province = {
			limit = {
				NOT = { is_core = ROOT }
			}
			add_province_modifier = {
				name = "gaining_control"
				duration = -1
			}
		}
	}
}
