# Burgundian Missions

vassalize_lorraine = {
	
	type = country

	category = MIL
	ai_mission = yes
	
	allow = {
		tag = BUR
		exists = LOR
		is_subject = no
		NOT = { has_country_modifier = military_vassalization }
		LOR = {
			is_subject = no
			is_neighbor_of = ROOT
			NOT = { num_of_cities = ROOT }
		}
	}
	abort = {
		OR = {
			is_subject = yes
			NOT = { exists = LOR }
			LOR = { is_subject = yes }
		}
	}
	success = {
		LOR = { vassal_of = BUR }
	}
	immediate = {
		add_casus_belli = {
			type = cb_vassalize_mission
			months = 120
			target = LOR
		}
	}
	abort_effect = {
		remove_casus_belli = {
			type = cb_vassalize_mission
			target = LOR
		}
	}
	chance = {
		factor = 1000
		modifier = {
			factor = 2
			NOT = { has_opinion = { who = LOR value = 0 } }
		}
		modifier = {
			factor = 1.12
			primary_culture = FROM
		}
		modifier = {
			factor = 1.03
			religion = FROM
		}
		modifier = {
			factor = 1.1
			has_opinion = { who = FROM value = 50 }
		}
		modifier = {
			factor = 1.1
			FROM = { dip = 3 }
		}
		modifier = {
			factor = 1.04
			prestige = FROM
		}
		modifier = {
			factor = 1.08
			NOT = { legitimacy = FROM }
		}
		modifier = {
			factor = 1.20
			is_neighbor_of = FRA
		}
	}
	effect = {
		add_army_tradition = 10
		add_country_modifier = {
			name = military_vassalization
			duration = 3650
		}
		hidden_effect = {
			remove_casus_belli = {
				type = cb_vassalize_mission
				target = LOR
			}
		}
	}
}

burgundy_flanders_relations = {
	
	type = country

	category = DIP
	
	allow = {
		tag = BUR
		exists = FLA
		is_subject = no
		government = monarchy
		NOT = { war_with = FLA }
		NOT = { marriage_with = FLA }
		NOT = { has_country_modifier = foreign_contacts }
		FLA = {
			is_subject = no
			government = monarchy
			NOT = { num_of_cities = ROOT }
			religion_group = ROOT
		}
		NOT = { FLA = { has_opinion = { who = BUR value = 100 } } }
		FROM = { is_rival = ROOT }
		ROOT = { is_rival = FROM }
	}
	abort = {
		OR = {
			is_subject = yes
			NOT = { government = monarchy }
			NOT = { exists = FLA }
			war_with = FLA
			FLA = {
				OR = {
					is_subject = yes
					NOT = { government = monarchy }
				}
			}
		}
	}
	success = {
		FLA = { has_opinion = { who = BUR value = 100 } }
	}
	chance = {
		factor = 1000
		modifier = {
			factor = 2
			NOT = { has_opinion = { who = FLA value = 0 } }
		}
		modifier = {
			factor = 2
			NOT = { has_opinion = { who = FLA value = -100 } }
		}
		modifier = {
			factor = 4
			is_neighbor_of = FLA
		}
		modifier = {
			factor = 2
			ai = yes
		}	
	}
	effect = {
		add_dip_power = 30
		add_country_modifier = {
				name = "foreign_contacts"
				duration = 365
			}
	}
}

burgundy_flanders_royal_marriage = {

	type = country
	
	category = DIP

	allow = {
		tag = BUR
		exists = FLA
		is_subject = no
		has_regency = no
		is_at_war = no	
		government = monarchy
		NOT = { war_with = FLA }
		NOT = { marriage_with = FLA }
		FLA = {
			is_subject = no
			government = monarchy
			NOT = { num_of_cities = ROOT }
			religion_group = ROOT
		}
		FLA = { has_opinion = { who = BUR value = 100 } }
	}
	abort = {
		OR = {
			is_subject = yes
			NOT = { government = monarchy }
			NOT = { exists = FLA }
			war_with = FLA
			FLA = {
				OR = {
					is_subject = yes
					NOT = { government = monarchy }
				}
			}
		}
	}
	success = {
		marriage_with = FLA
	}
	chance = {
		factor = 1000
		modifier = {
			factor = 1.12
			primary_culture = FROM
		}
		modifier = {
			factor = 1.03
			religion = FROM
		}
		modifier = {
			factor = 1.1
			has_opinion = { who = FROM value = 50 }
		}
		modifier = {
			factor = 1.1
			FROM = { dip = 3 }
		}
		modifier = {
			factor = 1.04
			prestige = FROM
		}
		modifier = {
			factor = 1.08
			NOT = { legitimacy = FROM }
		}
		modifier = {
			factor = 1.20
			is_neighbor_of = FRA
		}
		modifier = {
			factor = 2
			ai = yes
		}	
	}
	effect = {
		add_adm_power = 50
		# create_union = FLA			# overpowered gain
	}	
}

burgundy_vassalize_flanders = {

	type = country
	
	category = DIP

	allow = {
		tag = BUR
		exists = FLA
		is_subject = no
		NOT = { has_country_modifier = military_vassalization }
		has_regency = no
		is_at_war = no	
		government = monarchy
		NOT = { war_with = FLA }
		marriage_with = FLA
		FLA = {
			is_subject = no
			government = monarchy
			NOT = { num_of_cities = ROOT }
			religion_group = ROOT
		}
		has_opinion = { who = FLA value = 100 }
	}
	abort = {
		OR = {
			is_subject = yes
			NOT = { government = monarchy }
			NOT = { exists = FLA }
			war_with = FLA
			FLA = {
				OR = {
					AND = {
						is_subject = yes
						NOT = { vassal_of = BUR }
					}
					NOT = { government = monarchy }
				}
			}
		}
	}
	success = {
		FLA = { vassal_of = BUR }
	}
	chance = {
		factor = 1000
		modifier = {
			factor = 1.12
			primary_culture = FROM
		}
		modifier = {
			factor = 1.03
			religion = FROM
		}
		modifier = {
			factor = 1.1
			has_opinion = { who = FROM value = 50 }
		}
		modifier = {
			factor = 1.1
			FROM = { dip = 3 }
		}
		modifier = {
			factor = 1.04
			prestige = FROM
		}
		modifier = {
			factor = 1.08
			NOT = { legitimacy = FROM }
		}
		modifier = {
			factor = 1.20
			is_neighbor_of = FRA
		}
	}
	immediate = {
		FROM = {
			add_casus_belli = {
				type = cb_vassalize_mission
				months = 120
				target = ROOT
			}
		}
	}
	abort_effect = {
		FROM = {
			remove_casus_belli = {
				type = cb_vassalize_mission
				target = ROOT
			}
		}
	}
	effect = {
		FROM = {
			add_dip_power = 25
			add_adm_power = 25
			add_country_modifier = {
			name = military_vassalization
			duration = 3650
		}
		}
		hidden_effect = {
			remove_casus_belli = {
				type = cb_vassalize_mission
				target = ROOT
			}
		}
	}	
}

burgundy_diplo_annex_flanders = {
	
	type = country

	category = DIP
	
	target_provinces = {
		owned_by = FLA
	}
	allow = {
		tag = BUR
		exists = FLA
		is_subject = no
		FLA = {
			vassal_of = BUR
			is_neighbor_of = ROOT
			NOT = { num_of_cities = ROOT }
			religion_group = ROOT
		}
		has_opinion = { who = FLA value = 100 }
	}
	abort = {
		OR = {
			is_subject = yes
			NOT = { exists = FLA }
			FLA = {
				NOT = { religion_group = ROOT }
			}
		}
	}
	success = {
		NOT = { exists = FLA }
		all_target_province = {
			owned_by = ROOT
		}
	}
	chance = {
		factor = 1000
		modifier = {
			factor = 2
			has_opinion = { who = FLA value = 100 }
		}
		modifier = {
			factor = 2
			has_opinion = { who = FLA value = 200 }
		}
	}
	effect = {
		add_prestige = 10
		add_adm_power = 50
		add_dip_power = 50
	}
}

burgundy_conquers_flanders = {

	type = country

	category = MIL
	
	target_provinces = {
		owned_by = FLA
	}
	allow = {
		tag = BUR
		exists = FLA
		is_subject = no
		mil = 4
		has_regency = no
		is_at_war = no	
		NOT = { marriage_with = FLA }
		FLA = {
			is_subject = no
			NOT = { num_of_cities = ROOT }
		}
		NOT = { has_opinion = { who = FLA value = 100 } }
	}
	abort = {
		NOT = { exists = FLA }
	}
	success = {
		NOT = { exists = FLA }
		all_target_province = {
			owned_by = ROOT
		}
	}
	immediate = {
		every_target_province = {
			add_claim = ROOT
		}
	}
	abort_effect = {
		every_target_province = {
			remove_claim = ROOT
		}
	}
	chance = {
		factor = 1000
		modifier = {
			factor = 2
			mil = 4
		}
		modifier = {
			factor = 2
			mil = 6
		}		
		modifier = {
			factor = 2
			adm = 4
		}	
		modifier = {
			factor = 0.1
			ai = yes
		}	
	}
	effect = {
		add_army_tradition = 15
		add_war_exhaustion = -4
		every_target_province = {
			limit = {
				NOT = { is_core = ROOT }
			}
			add_province_modifier = {
				name = "gaining_control"
				duration = -1
			}
		}
		every_target_province = {
			add_province_modifier = {
				name = "faster_integration"
				duration = 3650
			}
		}
	}
}

burgundy_hainaut_relations = {
	
	type = country

	category = DIP
	
	allow = {
		tag = BUR
		exists = HAI
		is_subject = no
		government = monarchy
		NOT = { has_country_modifier = foreign_contacts }
		NOT = { war_with = HAI }
		NOT = { marriage_with = HAI }
		HAI = {
			is_subject = no
			government = monarchy
			NOT = { num_of_cities = ROOT }
			religion_group = ROOT
		}
		NOT = { HAI = { has_opinion = { who = BUR value = 100 } } }
		FROM = { is_rival = ROOT }
		ROOT = { is_rival = FROM }
	}
	abort = {
		OR = {
			is_subject = yes
			NOT = { government = monarchy }
			NOT = { exists = HAI }
			war_with = HAI
			HAI = {
				OR = {
					is_subject = yes
					NOT = { government = monarchy }
				}
			}
		}
	}
	success = {
		HAI = { has_opinion = { who = BUR value = 100 } }
	}
	chance = {
		factor = 1000
		modifier = {
			factor = 2
			NOT = { has_opinion = { who = HAI value = 0 } }
		}
		modifier = {
			factor = 2
			NOT = { has_opinion = { who = HAI value = -100 } }
		}
		modifier = {
			factor = 2
			ai = yes
		}	
	}
	effect = {
		add_dip_power = 30
		add_country_modifier = {
				name = "foreign_contacts"
				duration = 365
			}
	}
}

burgundy_hainaut_royal_marriage = {

	type = country
	
	category = DIP

	allow = {
		tag = BUR
		exists = HAI
		is_subject = no
		has_regency = no
		is_at_war = no	
		government = monarchy
		NOT = { war_with = HAI }
		NOT = { marriage_with = HAI }
		HAI = {
			is_subject = no
			government = monarchy
			NOT = { num_of_cities = ROOT }
			religion_group = ROOT
		}
		HAI = { has_opinion = { who = BUR value = 100 } }
	}
	abort = {
		OR = {
			is_subject = yes
			NOT = { government = monarchy }
			NOT = { exists = HAI }
			war_with = HAI
			HAI = {
				OR = {
					is_subject = yes
					NOT = { government = monarchy }
				}
			}
		}
	}
	success = {
		marriage_with = HAI
	}
	chance = {
		factor = 1000
		modifier = {
			factor = 1.12
			primary_culture = FROM
		}
		modifier = {
			factor = 1.03
			religion = FROM
		}
		modifier = {
			factor = 1.1
			has_opinion = { who = FROM value = 50 }
		}
		modifier = {
			factor = 1.1
			FROM = { dip = 3 }
		}
		modifier = {
			factor = 1.04
			prestige = FROM
		}
		modifier = {
			factor = 1.08
			NOT = { legitimacy = FROM }
		}
		modifier = {
			factor = 1.20
			is_neighbor_of = FRA
		}
		modifier = {
			factor = 2
			ai = yes
		}	
	}
	effect = {
		add_adm_power = 50
	}	
}

burgundy_vassalize_hainaut = {

	type = country
	
	category = DIP

	allow = {
		tag = BUR
		exists = HAI
		is_subject = no
		has_regency = no
		is_at_war = no	
		government = monarchy
		NOT = { war_with = HAI }
		marriage_with = HAI
		NOT = { has_country_modifier = military_vassalization }
		HAI = {
			is_subject = no
			government = monarchy
			NOT = { num_of_cities = ROOT }
			religion_group = ROOT
		}
		HAI = { has_opinion = { who = BUR value = 100 } }
	}
	abort = {
		OR = {
			is_subject = yes
			NOT = { government = monarchy }
			NOT = { exists = HAI }
			war_with = HAI
			HAI = {
				OR = {
					AND = {
						is_subject = yes
						NOT = { vassal_of = BUR }
					}
					NOT = { government = monarchy }
				}
			}
		}
	}
	success = {
		HAI = { vassal_of = BUR }
	}
	chance = {
		factor = 1000
		modifier = {
			factor = 1.12
			primary_culture = FROM
		}
		modifier = {
			factor = 1.03
			religion = FROM
		}
		modifier = {
			factor = 1.1
			has_opinion = { who = FROM value = 50 }
		}
		modifier = {
			factor = 1.1
			FROM = { dip = 3 }
		}
		modifier = {
			factor = 1.04
			prestige = FROM
		}
		modifier = {
			factor = 1.08
			NOT = { legitimacy = FROM }
		}
		modifier = {
			factor = 1.20
			is_neighbor_of = FRA
		}
	}
	immediate = {
		FROM = {
			add_casus_belli = {
				type = cb_vassalize_mission
				months = 120
				target = ROOT
			}
		}
	}
	abort_effect = {
		FROM = {
			remove_casus_belli = {
				type = cb_vassalize_mission
				target = ROOT
			}
		}
	}
	effect = {
		FROM = {
			add_dip_power = 25
			add_adm_power = 25
			add_country_modifier = {
			name = military_vassalization
			duration = 3650
		}
		}
		hidden_effect = {
			remove_casus_belli = {
				type = cb_vassalize_mission
				target = ROOT
			}
		}
	}	
}

burgundy_diplo_annex_hainaut = {
	
	type = country

	category = DIP
	
	target_provinces = {
		owned_by = HAI
	}
	allow = {
		tag = BUR
		exists = HAI
		is_subject = no
		HAI = {
			vassal_of = BUR
			is_neighbor_of = ROOT
			NOT = { num_of_cities = ROOT }
			religion_group = ROOT
		}
		HAI = { has_opinion = { who = BUR value = 100 } }
	}
	abort = {
		OR = {
			is_subject = yes
			NOT = { exists = HAI }
			HAI = {
				NOT = { religion_group = ROOT }
			}
		}
	}
	success = {
		NOT = { exists = HAI }
		all_target_province = {
			owned_by = ROOT
		}
	}
	chance = {
		factor = 1000
		modifier = {
			factor = 2
			has_opinion = { who = HAI value = 100 }
		}
		modifier = {
			factor = 2
			has_opinion = { who = HAI value = 200 }
		}
	}
	effect = {
		add_prestige = 10
		add_adm_power = 50
		add_dip_power = 50
	}
}

burgundy_conquers_hainaut = {

	type = country

	category = MIL
	
	target_provinces = {
		owned_by = HAI
	}
	allow = {
		tag = BUR
		exists = HAI
		is_subject = no
		mil = 4
		has_regency = no
		is_at_war = no	
		NOT = { marriage_with = HAI }
		HAI = {
			is_subject = no
			NOT = { num_of_cities = ROOT }
		}
		NOT = { has_opinion = { who = HAI value = 100 } }
	}
	abort = {
		NOT = { exists = HAI }
	}
	success = {
		NOT = { exists = HAI }
		all_target_province = {
			owned_by = ROOT
		}
	}
	immediate = {
		every_target_province = {
			add_claim = ROOT
		}
	}
	abort_effect = {
		every_target_province = {
			remove_claim = ROOT
		}
	}
	chance = {
		factor = 1000
		modifier = {
			factor = 2
			mil = 4
		}
		modifier = {
			factor = 2
			mil = 6
		}		
		modifier = {
			factor = 2
			adm = 4
		}	
		modifier = {
			factor = 0.1
			ai = yes
		}	
	}
	effect = {
		add_army_tradition = 15
		add_war_exhaustion = -4
		every_target_province = {
			limit = {
				NOT = { is_core = ROOT }
			}
			add_province_modifier = {
				name = "gaining_control"
				duration = -1
			}
		}
	}
}

burgundy_brabant_relations = {
	
	type = country

	category = DIP
	
	allow = {
		tag = BUR
		exists = BRB
		is_subject = no
		government = monarchy
		NOT = { has_country_modifier = foreign_contacts }
		NOT = { war_with = BRB }
		NOT = { marriage_with = BRB }
		BRB = {
			is_subject = no
			government = monarchy
			NOT = { num_of_cities = ROOT }
			religion_group = ROOT
		}
		NOT = { BRB = { has_opinion = { who = BUR value = 100 } } }
		FROM = { is_rival = ROOT }
		ROOT = { is_rival = FROM }
	}
	abort = {
		OR = {
			is_subject = yes
			NOT = { government = monarchy }
			NOT = { exists = BRB }
			war_with = BRB
			BRB = {
				OR = {
					is_subject = yes
					NOT = { government = monarchy }
				}
			}
		}
	}
	success = {
		BRB = { has_opinion = { who = BUR value = 100 } }
	}
	chance = {
		factor = 1000
		modifier = {
			factor = 2
			NOT = { has_opinion = { who = BRB value = 0 } }
		}
		modifier = {
			factor = 2
			NOT = { has_opinion = { who = BRB value = -100 } }
		}
		modifier = {
			factor = 2
			ai = yes
		}	
	}
	effect = {
		add_dip_power = 30
		add_country_modifier = {
				name = "foreign_contacts"
				duration = 365
			}
	}
}

burgundy_brabant_royal_marriage = {

	type = country
	
	category = DIP

	allow = {
		tag = BUR
		exists = BRB
		is_subject = no
		has_regency = no
		is_at_war = no	
		government = monarchy
		NOT = { war_with = BRB }
		NOT = { marriage_with = BRB }
		BRB = {
			is_subject = no
			government = monarchy
			NOT = { num_of_cities = ROOT }
			religion_group = ROOT
		}
		BRB = { has_opinion = { who = BUR value = 100 } }
	}
	abort = {
		OR = {
			is_subject = yes
			NOT = { government = monarchy }
			NOT = { exists = BRB }
			war_with = BRB
			BRB = {
				OR = {
					is_subject = yes
					NOT = { government = monarchy }
				}
			}
		}
	}
	success = {
		marriage_with = BRB
	}
	chance = {
		factor = 1000
		modifier = {
			factor = 1.12
			primary_culture = FROM
		}
		modifier = {
			factor = 1.03
			religion = FROM
		}
		modifier = {
			factor = 1.1
			has_opinion = { who = FROM value = 50 }
		}
		modifier = {
			factor = 1.1
			FROM = { dip = 3 }
		}
		modifier = {
			factor = 1.04
			prestige = FROM
		}
		modifier = {
			factor = 1.08
			NOT = { legitimacy = FROM }
		}
		modifier = {
			factor = 1.20
			is_neighbor_of = FRA
		}
		modifier = {
			factor = 2
			ai = yes
		}	
	}
	effect = {
		add_adm_power = 50
	}	
}

burgundy_vassalize_brabant = {

	type = country
	
	category = DIP

	allow = {
		tag = BUR
		exists = BRB
		is_subject = no
		has_regency = no
		is_at_war = no	
		government = monarchy
		NOT = { war_with = BRB }
		marriage_with = BRB
		NOT = { has_country_modifier = military_vassalization }
		BRB = {
			is_subject = no
			government = monarchy
			NOT = { num_of_cities = ROOT }
			religion_group = ROOT
		}
		BRB = { has_opinion = { who = BUR value = 100 } }
	}
	abort = {
		OR = {
			is_subject = yes
			NOT = { government = monarchy }
			NOT = { exists = BRB }
			war_with = BRB
			BRB = {
				OR = {
					AND = {
						is_subject = yes
						NOT = { vassal_of = BUR }
					}
					NOT = { government = monarchy }
				}
			}
		}
	}
	success = {
		BRB = { vassal_of = BUR }
	}
	chance = {
		factor = 1000
		modifier = {
			factor = 1.12
			primary_culture = FROM
		}
		modifier = {
			factor = 1.03
			religion = FROM
		}
		modifier = {
			factor = 1.1
			has_opinion = { who = FROM value = 50 }
		}
		modifier = {
			factor = 1.1
			FROM = { dip = 3 }
		}
		modifier = {
			factor = 1.04
			prestige = FROM
		}
		modifier = {
			factor = 1.08
			NOT = { legitimacy = FROM }
		}
		modifier = {
			factor = 1.20
			is_neighbor_of = FRA
		}
	}
	immediate = {
		FROM = {
			add_casus_belli = {
				type = cb_vassalize_mission
				months = 120
				target = ROOT
			}
		}
	}
	abort_effect = {
		FROM = {
			remove_casus_belli = {
				type = cb_vassalize_mission
				target = ROOT
			}
		}
	}
	effect = {
		FROM = {
			add_dip_power = 25
			add_adm_power = 25
			add_country_modifier = {
			name = military_vassalization
			duration = 3650
		}
		}
		hidden_effect = {
			remove_casus_belli = {
				type = cb_vassalize_mission
				target = ROOT
			}
		}
	}	
}

burgundy_diplo_annex_brabant = {
	
	type = country

	category = DIP
	
	target_provinces = {
		owned_by = BRB
	}
	allow = {
		tag = BUR
		exists = BRB
		is_subject = no
		BRB = {
			vassal_of = BUR
			is_neighbor_of = ROOT
			NOT = { num_of_cities = ROOT }
			religion_group = ROOT
		}
		BRB = { has_opinion = { who = BUR value = 100 } }
	}
	abort = {
		OR = {
			is_subject = yes
			NOT = { exists = BRB }
			BRB = {
				NOT = { religion_group = ROOT }
			}
		}
	}
	success = {
		NOT = { exists = BRB }
		all_target_province = {
			owned_by = ROOT
		}
	}
	chance = {
		factor = 1000
		modifier = {
			factor = 2
			has_opinion = { who = BRB value = 100 }
		}
		modifier = {
			factor = 2
			has_opinion = { who = BRB value = 200 }
		}
	}
	effect = {
		add_prestige = 10
		add_adm_power = 50
		add_dip_power = 50
	}
}

burgundy_conquers_brabant = {

	type = country

	category = MIL
	
	target_provinces = {
		owned_by = BRB
	}
	allow = {
		tag = BUR
		exists = BRB
		is_subject = no
		mil = 4
		has_regency = no
		is_at_war = no	
		NOT = { marriage_with = BRB }
		BRB = {
			is_subject = no
			NOT = { num_of_cities = ROOT }
		}
		NOT = { has_opinion = { who = BRB value = 100 } }
	}
	abort = {
		NOT = { exists = BRB }
	}
	success = {
		NOT = { exists = BRB }
		all_target_province = {
			owned_by = ROOT
		}
	}
	immediate = {
		every_target_province = {
			add_claim = ROOT
		}
	}
	abort_effect = {
		every_target_province = {
			remove_claim = ROOT
		}
	}
	chance = {
		factor = 1000
		modifier = {
			factor = 2
			mil = 4
		}
		modifier = {
			factor = 2
			mil = 6
		}		
		modifier = {
			factor = 2
			adm = 4
		}	
		modifier = {
			factor = 0.1
			ai = yes
		}	
	}
	effect = {
		add_army_tradition = 15
		add_war_exhaustion = -4
		every_target_province = {
			limit = {
				NOT = { is_core = ROOT }
			}
			add_province_modifier = {
				name = "gaining_control"
				duration = -1
			}
		}
	}
}

burgundy_namur_relations = {
	
	type = country

	category = DIP
	
	allow = {
		tag = BUR
		exists = NAM
		is_subject = no
		government = monarchy
		NOT = { has_country_modifier = foreign_contacts }
		NOT = { war_with = NAM }
		NOT = { marriage_with = NAM }
		NAM = {
			is_subject = no
			government = monarchy
			NOT = { num_of_cities = ROOT }
			religion_group = ROOT
		}
		NOT = { NAM = { has_opinion = { who = BUR value = 100 } } }
		FROM = { is_rival = ROOT }
		ROOT = { is_rival = FROM }
	}
	abort = {
		OR = {
			is_subject = yes
			NOT = { government = monarchy }
			NOT = { exists = NAM }
			war_with = NAM
			NAM = {
				OR = {
					is_subject = yes
					NOT = { government = monarchy }
				}
			}
		}
	}
	success = {
		NAM = { has_opinion = { who = BUR value = 100 } }
	}
	chance = {
		factor = 1000
		modifier = {
			factor = 2
			NOT = { has_opinion = { who = NAM value = 0 } }
		}
		modifier = {
			factor = 2
			NOT = { has_opinion = { who = NAM value = -100 } }
		}
		modifier = {
			factor = 2
			ai = yes
		}	
	}
	effect = {
		add_dip_power = 30
		add_country_modifier = {
				name = "foreign_contacts"
				duration = 365
			}
	}
}

burgundy_namur_royal_marriage = {

	type = country
	
	category = DIP

	allow = {
		tag = BUR
		exists = NAM
		is_subject = no
		has_regency = no
		is_at_war = no	
		government = monarchy
		NOT = { war_with = NAM }
		NOT = { marriage_with = NAM }
		NAM = {
			is_subject = no
			government = monarchy
			NOT = { num_of_cities = ROOT }
			religion_group = ROOT
		}
		NAM = { has_opinion = { who = BUR value = 100 } }
	}
	abort = {
		OR = {
			is_subject = yes
			NOT = { government = monarchy }
			NOT = { exists = NAM }
			war_with = NAM
			NAM = {
				OR = {
					is_subject = yes
					NOT = { government = monarchy }
				}
			}
		}
	}
	success = {
		marriage_with = NAM
	}
	chance = {
		factor = 1000
		modifier = {
			factor = 1.12
			primary_culture = FROM
		}
		modifier = {
			factor = 1.03
			religion = FROM
		}
		modifier = {
			factor = 1.1
			has_opinion = { who = FROM value = 50 }
		}
		modifier = {
			factor = 1.1
			FROM = { dip = 3 }
		}
		modifier = {
			factor = 1.04
			prestige = FROM
		}
		modifier = {
			factor = 1.08
			NOT = { legitimacy = FROM }
		}
		modifier = {
			factor = 1.20
			is_neighbor_of = FRA
		}
		modifier = {
			factor = 2
			ai = yes
		}	
	}
	effect = {
		add_adm_power = 50
	}	
}

burgundy_vassalize_namur = {

	type = country
	
	category = DIP

	allow = {
		tag = BUR
		exists = NAM
		is_subject = no
		has_regency = no
		is_at_war = no	
		government = monarchy
		NOT = { war_with = NAM }
		marriage_with = NAM
		NOT = { has_country_modifier = military_vassalization }
		NAM = {
			is_subject = no
			government = monarchy
			NOT = { num_of_cities = ROOT }
			religion_group = ROOT
		}
		NAM = { has_opinion = { who = BUR value = 100 } }
	}
	abort = {
		OR = {
			is_subject = yes
			NOT = { government = monarchy }
			NOT = { exists = NAM }
			war_with = NAM
			NAM = {
				OR = {
					AND = {
						is_subject = yes
						NOT = { vassal_of = BUR }
					}
					NOT = { government = monarchy }
				}
			}
		}
	}
	success = {
		NAM = { vassal_of = BUR }
	}
	chance = {
		factor = 1000
		modifier = {
			factor = 1.12
			primary_culture = FROM
		}
		modifier = {
			factor = 1.03
			religion = FROM
		}
		modifier = {
			factor = 1.1
			has_opinion = { who = FROM value = 50 }
		}
		modifier = {
			factor = 1.1
			FROM = { dip = 3 }
		}
		modifier = {
			factor = 1.04
			prestige = FROM
		}
		modifier = {
			factor = 1.08
			NOT = { legitimacy = FROM }
		}
		modifier = {
			factor = 1.20
			is_neighbor_of = FRA
		}
	}
	immediate = {
		FROM = {
			add_casus_belli = {
				type = cb_vassalize_mission
				months = 120
				target = ROOT
			}
		}
	}
	abort_effect = {
		FROM = {
			remove_casus_belli = {
				type = cb_vassalize_mission
				target = ROOT
			}
		}
	}
	effect = {
		FROM = {
			add_dip_power = 25
			add_adm_power = 25
			add_country_modifier = {
			name = military_vassalization
			duration = 3650
		}
		}
		hidden_effect = {
			remove_casus_belli = {
				type = cb_vassalize_mission
				target = ROOT
			}
		}
	}	
}

burgundy_diplo_annex_namur = {
	
	type = country

	category = DIP
	
	target_provinces = {
		owned_by = NAM
	}
	allow = {
		tag = BUR
		exists = NAM
		is_subject = no
		NAM = {
			vassal_of = BUR
			is_neighbor_of = ROOT
			NOT = { num_of_cities = ROOT }
			religion_group = ROOT
		}
		NAM = { has_opinion = { who = BUR value = 100 } }
	}
	abort = {
		OR = {
			is_subject = yes
			NOT = { exists = NAM }
			NAM = {
				NOT = { religion_group = ROOT }
			}
		}
	}
	success = {
		NOT = { exists = NAM }
		all_target_province = {
			owned_by = ROOT
		}
	}
	chance = {
		factor = 1000
		modifier = {
			factor = 2
			has_opinion = { who = NAM value = 100 }
		}
		modifier = {
			factor = 2
			has_opinion = { who = NAM value = 200 }
		}
	}
	effect = {
		add_prestige = 10
		add_adm_power = 50
		add_dip_power = 50
	}
}

burgundy_conquers_namur = {

	type = country

	category = MIL
	
	target_provinces = {
		owned_by = NAM
	}
	allow = {
		tag = BUR
		exists = NAM
		is_subject = no
		mil = 4
		has_regency = no
		is_at_war = no	
		NOT = { marriage_with = NAM }
		NAM = {
			is_subject = no
			NOT = { num_of_cities = ROOT }
		}
		NOT = { has_opinion = { who = NAM value = 100 } }
	}
	abort = {
		NOT = { exists = NAM }
	}
	success = {
		NOT = { exists = NAM }
		all_target_province = {
			owned_by = ROOT
		}
	}
	immediate = {
		every_target_province = {
			add_claim = ROOT
		}
	}
	abort_effect = {
		every_target_province = {
			remove_claim = ROOT
		}
	}
	chance = {
		factor = 1000
		modifier = {
			factor = 2
			mil = 4
		}
		modifier = {
			factor = 2
			mil = 6
		}		
		modifier = {
			factor = 2
			adm = 4
		}	
		modifier = {
			factor = 0.1
			ai = yes
		}	
	}
	effect = {
		add_army_tradition = 15
		add_war_exhaustion = -4
		every_target_province = {
			limit = {
				NOT = { is_core = ROOT }
			}
			add_province_modifier = {
				name = "gaining_control"
				duration = -1
			}
		}
	}
}

burgundy_liege_relations = {
	
	type = country

	category = DIP
	
	allow = {
		tag = BUR
		exists = LIE
		is_subject = no
		government = monarchy
		NOT = { has_country_modifier = foreign_contacts }
		NOT = { war_with = LIE }
		NOT = { marriage_with = LIE }
		LIE = {
			is_subject = no
			government = monarchy
			NOT = { num_of_cities = ROOT }
			religion_group = ROOT
		}
		NOT = { LIE = { has_opinion = { who = BUR value = 100 } } }
		FROM = { is_rival = ROOT }
		ROOT = { is_rival = FROM }
	}
	abort = {
		OR = {
			is_subject = yes
			NOT = { government = monarchy }
			NOT = { exists = LIE }
			war_with = LIE
			LIE = {
				OR = {
					is_subject = yes
					NOT = { government = monarchy }
				}
			}
		}
	}
	success = {
		LIE = { has_opinion = { who = BUR value = 100 } }
	}
	chance = {
		factor = 1000
		modifier = {
			factor = 2
			NOT = { has_opinion = { who = LIE value = 0 } }
		}
		modifier = {
			factor = 2
			NOT = { has_opinion = { who = LIE value = -100 } }
		}
		modifier = {
			factor = 2
			ai = yes
		}	
	}
	effect = {
		add_dip_power = 30
		add_country_modifier = {
				name = "foreign_contacts"
				duration = 365
			}
	}
}

burgundy_liege_royal_marriage = {

	type = country
	
	category = DIP

	allow = {
		tag = BUR
		exists = LIE
		is_subject = no
		has_regency = no
		is_at_war = no	
		government = monarchy
		NOT = { war_with = LIE }
		NOT = { marriage_with = LIE }
		LIE = {
			is_subject = no
			government = monarchy
			NOT = { num_of_cities = ROOT }
			religion_group = ROOT
		}
		LIE = { has_opinion = { who = BUR value = 100 } }
	}
	abort = {
		OR = {
			is_subject = yes
			NOT = { government = monarchy }
			NOT = { exists = LIE }
			war_with = LIE
			LIE = {
				OR = {
					is_subject = yes
					NOT = { government = monarchy }
				}
			}
		}
	}
	success = {
		marriage_with = LIE
	}
	chance = {
		factor = 1000
		modifier = {
			factor = 1.12
			primary_culture = FROM
		}
		modifier = {
			factor = 1.03
			religion = FROM
		}
		modifier = {
			factor = 1.1
			has_opinion = { who = FROM value = 50 }
		}
		modifier = {
			factor = 1.1
			FROM = { dip = 3 }
		}
		modifier = {
			factor = 1.04
			prestige = FROM
		}
		modifier = {
			factor = 1.08
			NOT = { legitimacy = FROM }
		}
		modifier = {
			factor = 1.20
			is_neighbor_of = FRA
		}
		modifier = {
			factor = 2
			ai = yes
		}	
	}
	effect = {
		add_adm_power = 50
	}	
}

burgundy_vassalize_liege = {

	type = country
	
	category = DIP

	allow = {
		tag = BUR
		exists = LIE
		is_subject = no
		has_regency = no
		is_at_war = no	
		government = monarchy
		NOT = { war_with = LIE }
		marriage_with = LIE
		NOT = { has_country_modifier = military_vassalization }
		LIE = {
			is_subject = no
			government = monarchy
			NOT = { num_of_cities = ROOT }
			religion_group = ROOT
		}
		LIE = { has_opinion = { who = BUR value = 100 } }
	}
	abort = {
		OR = {
			is_subject = yes
			NOT = { government = monarchy }
			NOT = { exists = LIE }
			war_with = LIE
			LIE = {
				OR = {
					AND = {
						is_subject = yes
						NOT = { vassal_of = BUR }
					}
					NOT = { government = monarchy }
				}
			}
		}
	}
	success = {
		LIE = { vassal_of = BUR }
	}
	chance = {
		factor = 1000
		modifier = {
			factor = 1.12
			primary_culture = FROM
		}
		modifier = {
			factor = 1.03
			religion = FROM
		}
		modifier = {
			factor = 1.1
			has_opinion = { who = FROM value = 50 }
		}
		modifier = {
			factor = 1.1
			FROM = { dip = 3 }
		}
		modifier = {
			factor = 1.04
			prestige = FROM
		}
		modifier = {
			factor = 1.08
			NOT = { legitimacy = FROM }
		}
		modifier = {
			factor = 1.20
			is_neighbor_of = FRA
		}
	}
	immediate = {
		FROM = {
			add_casus_belli = {
				type = cb_vassalize_mission
				months = 120
				target = ROOT
			}
		}
	}
	abort_effect = {
		FROM = {
			remove_casus_belli = {
				type = cb_vassalize_mission
				target = ROOT
			}
		}
	}
	effect = {
		FROM = {
			add_dip_power = 25
			add_adm_power = 25
			add_country_modifier = {
			name = military_vassalization
			duration = 3650
		}
		}
		hidden_effect = {
			remove_casus_belli = {
				type = cb_vassalize_mission
				target = ROOT
			}
		}
	}	
}

burgundy_diplo_annex_liege = {
	
	type = country

	category = DIP
	
	target_provinces = {
		owned_by = LIE
	}
	allow = {
		tag = BUR
		exists = LIE
		is_subject = no
		LIE = {
			vassal_of = BUR
			is_neighbor_of = ROOT
			NOT = { num_of_cities = ROOT }
			religion_group = ROOT
		}
		LIE = { has_opinion = { who = BUR value = 100 } }
	}
	abort = {
		OR = {
			is_subject = yes
			NOT = { exists = LIE }
			LIE = {
				NOT = { religion_group = ROOT }
			}
		}
	}
	success = {
		NOT = { exists = LIE }
		all_target_province = {
			owned_by = ROOT
		}
	}
	chance = {
		factor = 1000
		modifier = {
			factor = 2
			has_opinion = { who = LIE value = 100 }
		}
		modifier = {
			factor = 2
			has_opinion = { who = LIE value = 200 }
		}
	}
	effect = {
		add_prestige = 10
		add_adm_power = 50
		add_dip_power = 50
	}
}

burgundy_conquers_liege = {

	type = country

	category = MIL
	
	target_provinces = {
		owned_by = LIE
	}
	allow = {
		tag = BUR
		exists = LIE
		is_subject = no
		mil = 4
		has_regency = no
		is_at_war = no	
		NOT = { marriage_with = LIE }
		LIE = {
			is_subject = no
			NOT = { num_of_cities = ROOT }
		}
		NOT = { has_opinion = { who = LIE value = 100 } }
	}
	abort = {
		NOT = { exists = LIE }
	}
	success = {
		NOT = { exists = LIE }
		all_target_province = {
			owned_by = ROOT
		}
	}
	immediate = {
		every_target_province = {
			add_claim = ROOT
		}
	}
	abort_effect = {
		every_target_province = {
			remove_claim = ROOT
		}
	}
	chance = {
		factor = 1000
		modifier = {
			factor = 2
			mil = 4
		}
		modifier = {
			factor = 2
			mil = 6
		}		
		modifier = {
			factor = 2
			adm = 4
		}	
		modifier = {
			factor = 0.1
			ai = yes
		}	
	}
	effect = {
		add_army_tradition = 15
		add_war_exhaustion = -4
		every_target_province = {
			limit = {
				NOT = { is_core = ROOT }
			}
			add_province_modifier = {
				name = "gaining_control"
				duration = -1
			}
		}
	}
}

burgundy_luxemburg_relations = {
	
	type = country

	category = DIP
	
	allow = {
		tag = BUR
		exists = LUX
		is_subject = no
		government = monarchy
		NOT = { has_country_modifier = foreign_contacts }
		NOT = { war_with = LUX }
		NOT = { marriage_with = LUX }
		LUX = {
			is_subject = no
			government = monarchy
			NOT = { num_of_cities = ROOT }
			religion_group = ROOT
		}
		NOT = {
			OR = {
				any_country = { vassal_of = LUX }
				any_country = { junior_union_with = LUX }
			}
		}
		NOT = { LUX = { has_opinion = { who = BUR value = 100 } } }
		FROM = { is_rival = ROOT }
		ROOT = { is_rival = FROM }
	}
	abort = {
		OR = {
			is_subject = yes
			NOT = { government = monarchy }
			NOT = { exists = LUX }
			war_with = LUX
			LUX = {
				OR = {
					is_subject = yes
					NOT = { government = monarchy }
				}
			}
		}
	}
	success = {
		LUX = { has_opinion = { who = BUR value = 100 } }
	}
	chance = {
		factor = 1000
		modifier = {
			factor = 2
			NOT = { has_opinion = { who = LUX value = 0 } }
		}
		modifier = {
			factor = 2
			NOT = { has_opinion = { who = LUX value = -100 } }
		}
		modifier = {
			factor = 2
			ai = yes
		}	
	}
	effect = {
		add_dip_power = 30
		add_country_modifier = {
				name = "foreign_contacts"
				duration = 365
			}
	}
}

burgundy_luxemburg_royal_marriage = {

	type = country
	
	category = DIP

	allow = {
		tag = BUR
		exists = LUX
		is_subject = no
		has_regency = no
		is_at_war = no	
		government = monarchy
		NOT = { war_with = LUX }
		NOT = { marriage_with = LUX }
		LUX = {
			is_subject = no
			government = monarchy
			NOT = { num_of_cities = ROOT }
			religion_group = ROOT
		}
		NOT = { LUX = { has_opinion = { who = BUR value = 100 } } }
	}
	abort = {
		OR = {
			is_subject = yes
			NOT = { government = monarchy }
			NOT = { exists = LUX }
			war_with = LUX
			LUX = {
				OR = {
					is_subject = yes
					NOT = { government = monarchy }
				}
			}
		}
	}
	success = {
		marriage_with = LUX
	}
	chance = {
		factor = 1000
		modifier = {
			factor = 1.12
			primary_culture = FROM
		}
		modifier = {
			factor = 1.03
			religion = FROM
		}
		modifier = {
			factor = 1.1
			has_opinion = { who = FROM value = 50 }
		}
		modifier = {
			factor = 1.1
			FROM = { dip = 3 }
		}
		modifier = {
			factor = 1.04
			prestige = FROM
		}
		modifier = {
			factor = 1.08
			NOT = { legitimacy = FROM }
		}
		modifier = {
			factor = 1.20
			is_neighbor_of = FRA
		}
		modifier = {
			factor = 2
			ai = yes
		}	
	}
	effect = {
		add_adm_power = 50
	}	
}

burgundy_vassalize_luxemburg = {

	type = country
	
	category = DIP

	allow = {
		tag = BUR
		exists = LUX
		is_subject = no
		has_regency = no
		is_at_war = no	
		government = monarchy
		NOT = { war_with = LUX }
		marriage_with = LUX
		NOT = { has_country_modifier = military_vassalization }
		LUX = {
			is_subject = no
			government = monarchy
			NOT = { num_of_cities = ROOT }
			religion_group = ROOT
		}
		LUX = { has_opinion = { who = BUR value = 100 } }
	}
	abort = {
		OR = {
			is_subject = yes
			NOT = { government = monarchy }
			NOT = { exists = LUX }
			war_with = LUX
			LUX = {
				OR = {
					AND = {
						is_subject = yes
						NOT = { vassal_of = BUR }
					}
					NOT = { government = monarchy }
				}
			}
		}
	}
	success = {
		LUX = { vassal_of = BUR }
	}
	chance = {
		factor = 1000
		modifier = {
			factor = 1.12
			primary_culture = FROM
		}
		modifier = {
			factor = 1.03
			religion = FROM
		}
		modifier = {
			factor = 1.1
			has_opinion = { who = FROM value = 50 }
		}
		modifier = {
			factor = 1.1
			FROM = { dip = 3 }
		}
		modifier = {
			factor = 1.04
			prestige = FROM
		}
		modifier = {
			factor = 1.08
			NOT = { legitimacy = FROM }
		}
		modifier = {
			factor = 1.20
			is_neighbor_of = FRA
		}
	}
	immediate = {
		FROM = {
			add_casus_belli = {
				type = cb_vassalize_mission
				months = 120
				target = ROOT
			}
		}
	}
	abort_effect = {
		FROM = {
			remove_casus_belli = {
				type = cb_vassalize_mission
				target = ROOT
			}
		}
	}
	effect = {
		FROM = {
			add_dip_power = 25
			add_adm_power = 25
			add_country_modifier = {
			name = military_vassalization
			duration = 3650
		}
		}
		hidden_effect = {
			remove_casus_belli = {
				type = cb_vassalize_mission
				target = ROOT
			}
		}
	}	
}

burgundy_diplo_annex_luxemburg = {
	
	type = country

	category = DIP
	
	target_provinces = {
		owned_by = LUX
	}
	allow = {
		tag = BUR
		exists = LUX
		is_subject = no
		LUX = {
			vassal_of = BUR
			is_neighbor_of = ROOT
			NOT = { num_of_cities = ROOT }
			religion_group = ROOT
		}
		LUX = { has_opinion = { who = BUR value = 100 } }
	}
	abort = {
		OR = {
			is_subject = yes
			NOT = { exists = LUX }
			LUX = {
				NOT = { religion_group = ROOT }
			}
		}
	}
	success = {
		NOT = { exists = LUX }
		all_target_province = {
			owned_by = ROOT
		}
	}
	chance = {
		factor = 1000
		modifier = {
			factor = 2
			has_opinion = { who = LUX value = 100 }
		}
		modifier = {
			factor = 2
			has_opinion = { who = LUX value = 200 }
		}
	}
	effect = {
		add_prestige = 10
		add_adm_power = 50
		add_dip_power = 50
	}
}

burgundy_conquers_luxemburg = {

	type = country

	category = MIL
	
	target_provinces = {
		owned_by = LUX
	}
	allow = {
		tag = BUR
		exists = LUX
		is_subject = no
		mil = 4
		has_regency = no
		is_at_war = no	
		NOT = { marriage_with = LUX }
		LUX = {
			is_subject = no
			NOT = { num_of_cities = ROOT }
		}
		NOT = { has_opinion = { who = LUX value = 100 }	}
	}
	abort = {
		NOT = { exists = LUX }
	}
	success = {
		NOT = { exists = LUX }
		all_target_province = {
			owned_by = ROOT
		}
	}
	immediate = {
		every_target_province = {
			add_claim = ROOT
		}
	}
	abort_effect = {
		every_target_province = {
			remove_claim = ROOT
		}
	}
	chance = {
		factor = 1000
		modifier = {
			factor = 2
			mil = 4
		}
		modifier = {
			factor = 2
			mil = 6
		}		
		modifier = {
			factor = 2
			adm = 4
		}	
		modifier = {
			factor = 0.1
			ai = yes
		}	
	}
	effect = {
		add_army_tradition = 15
		add_war_exhaustion = -4
		every_target_province = {
			limit = {
				NOT = { is_core = ROOT }
			}
			add_province_modifier = {
				name = "gaining_control"
				duration = -1
			}
		}
	}
}

burgundy_holland_relations = {
	
	type = country

	category = DIP
	
	allow = {
		tag = BUR
		exists = HOL
		is_subject = no
		government = monarchy
		NOT = { has_country_modifier = foreign_contacts }
		NOT = { war_with = HOL }
		NOT = { marriage_with = HOL }
		HOL = {
			is_subject = no
			government = monarchy
			NOT = { num_of_cities = ROOT }
			religion_group = ROOT
		}
		NOT = { HOL = { has_opinion = { who = BUR value = 100 } } }
		FROM = { is_rival = ROOT }
		ROOT = { is_rival = FROM }
	}
	abort = {
		OR = {
			is_subject = yes
			NOT = { government = monarchy }
			NOT = { exists = HOL }
			war_with = HOL
			HOL = {
				OR = {
					is_subject = yes
					NOT = { government = monarchy }
				}
			}
		}
	}
	success = {
		HOL = { has_opinion = { who = BUR value = 100 } }
	}
	chance = {
		factor = 1000
		modifier = {
			factor = 2
			NOT = { has_opinion = { who = HOL value = 0 } }
		}
		modifier = {
			factor = 2
			NOT = { has_opinion = { who = HOL value = -100 } }
		}
		modifier = {
			factor = 2
			ai = yes
		}	
	}
	effect = {
		add_dip_power = 30
		add_country_modifier = {
				name = "foreign_contacts"
				duration = 365
			}
	}
}

burgundy_holland_royal_marriage = {

	type = country
	
	category = DIP

	allow = {
		tag = BUR
		exists = HOL
		is_subject = no
		has_regency = no
		is_at_war = no	
		government = monarchy
		NOT = { war_with = HOL }
		NOT = { marriage_with = HOL }
		HOL = {
			is_subject = no
			government = monarchy
			NOT = { num_of_cities = ROOT }
			religion_group = ROOT
		}
		HOL = { has_opinion = { who = BUR value = 100 } }
	}
	abort = {
		OR = {
			is_subject = yes
			NOT = { government = monarchy }
			NOT = { exists = HOL }
			war_with = HOL
			HOL = {
				OR = {
					is_subject = yes
					NOT = { government = monarchy }
				}
			}
		}
	}
	success = {
		marriage_with = HOL
	}
	chance = {
		factor = 1000
		modifier = {
			factor = 1.12
			primary_culture = FROM
		}
		modifier = {
			factor = 1.03
			religion = FROM
		}
		modifier = {
			factor = 1.1
			has_opinion = { who = FROM value = 50 }
		}
		modifier = {
			factor = 1.1
			FROM = { dip = 3 }
		}
		modifier = {
			factor = 1.04
			prestige = FROM
		}
		modifier = {
			factor = 1.08
			NOT = { legitimacy = FROM }
		}
		modifier = {
			factor = 1.20
			is_neighbor_of = FRA
		}
		modifier = {
			factor = 2
			ai = yes
		}	
	}
	effect = {
		add_adm_power = 50
	}	
}

burgundy_vassalize_holland = {

	type = country
	
	category = DIP

	allow = {
		tag = BUR
		exists = HOL
		is_subject = no
		has_regency = no
		is_at_war = no	
		government = monarchy
		NOT = { war_with = HOL }
		marriage_with = HOL
		NOT = { has_country_modifier = military_vassalization }
		HOL = {
			is_subject = no
			government = monarchy
			NOT = { num_of_cities = ROOT }
			religion_group = ROOT
		}
		HOL = { has_opinion = { who = BUR value = 100 } }
	}
	abort = {
		OR = {
			is_subject = yes
			NOT = { government = monarchy }
			NOT = { exists = HOL }
			war_with = HOL
			HOL = {
				OR = {
					AND = {
						is_subject = yes
						NOT = { vassal_of = BUR }
					}
					NOT = { government = monarchy }
				}
			}
		}
	}
	success = {
		HOL = { vassal_of = BUR }
	}
	chance = {
		factor = 1000
		modifier = {
			factor = 1.12
			primary_culture = FROM
		}
		modifier = {
			factor = 1.03
			religion = FROM
		}
		modifier = {
			factor = 1.1
			has_opinion = { who = FROM value = 50 }
		}
		modifier = {
			factor = 1.1
			FROM = { dip = 3 }
		}
		modifier = {
			factor = 1.04
			prestige = FROM
		}
		modifier = {
			factor = 1.08
			NOT = { legitimacy = FROM }
		}
		modifier = {
			factor = 1.20
			is_neighbor_of = FRA
		}
	}
	immediate = {
		FROM = {
			add_casus_belli = {
				type = cb_vassalize_mission
				months = 120
				target = ROOT
			}
		}
	}
	abort_effect = {
		FROM = {
			remove_casus_belli = {
				type = cb_vassalize_mission
				target = ROOT
			}
		}
	}
	effect = {
		FROM = {
			add_dip_power = 25
			add_adm_power = 25
			add_country_modifier = {
			name = military_vassalization
			duration = 3650
		}
		}
		hidden_effect = {
			remove_casus_belli = {
				type = cb_vassalize_mission
				target = ROOT
			}
		}
	}	
}

burgundy_diplo_annex_holland = {
	
	type = country

	category = DIP
	
	target_provinces = {
		owned_by = HOL
	}
	allow = {
		tag = BUR
		exists = HOL
		is_subject = no
		HOL = {
			vassal_of = BUR
			is_neighbor_of = ROOT
			NOT = { num_of_cities = ROOT }
			religion_group = ROOT
		}
		HOL = { has_opinion = { who = BUR value = 100 } }
	}
	abort = {
		OR = {
			is_subject = yes
			NOT = { exists = HOL }
			HOL = {
				NOT = { religion_group = ROOT }
			}
		}
	}
	success = {
		NOT = { exists = HOL }
		all_target_province = {
			owned_by = ROOT
		}
	}
	chance = {
		factor = 1000
		modifier = {
			factor = 2
			has_opinion = { who = HOL value = 100 }
		}
		modifier = {
			factor = 2
			has_opinion = { who = HOL value = 200 }
		}
	}
	effect = {
		add_prestige = 10
		add_adm_power = 50
		add_dip_power = 50
	}
}

burgundy_conquers_holland = {

	type = country

	category = MIL
	
	target_provinces = {
		owned_by = HOL
	}
	allow = {
		tag = BUR
		exists = HOL
		is_subject = no
		mil = 4
		has_regency = no
		is_at_war = no	
		NOT = { marriage_with = HOL }
		HOL = {
			is_subject = no
			NOT = { num_of_cities = ROOT }
		}
		NOT = { has_opinion = { who = HOL value = 100 }	}
	}
	abort = {
		NOT = { exists = HOL }
	}
	success = {
		NOT = { exists = HOL }
		all_target_province = {
			owned_by = ROOT
		}
	}
	immediate = {
		every_target_province = {
			add_claim = ROOT
		}
	}
	abort_effect = {
		every_target_province = {
			remove_claim = ROOT
		}
	}
	chance = {
		factor = 1000
		modifier = {
			factor = 2
			mil = 4
		}
		modifier = {
			factor = 2
			mil = 6
		}		
		modifier = {
			factor = 2
			adm = 4
		}	
		modifier = {
			factor = 0.1
			ai = yes
		}	
	}
	effect = {
		add_army_tradition = 15
		add_war_exhaustion = -4
		every_target_province = {
			limit = {
				NOT = { is_core = ROOT }
			}
			add_province_modifier = {
				name = "gaining_control"
				duration = -1
			}
		}
	}
}

burgundy_utrecht_relations = {
	
	type = country

	category = DIP
	
	allow = {
		tag = BUR
		exists = UTR
		is_subject = no
		government = monarchy
		NOT = { has_country_modifier = foreign_contacts }
		NOT = { war_with = UTR }
		NOT = { marriage_with = UTR }
		UTR = {
			is_subject = no
			government = monarchy
			NOT = { num_of_cities = ROOT }
			religion_group = ROOT
		}
		NOT = { UTR = { has_opinion = { who = BUR value = 100 } } }
		FROM = { is_rival = ROOT }
		ROOT = { is_rival = FROM }
	}
	abort = {
		OR = {
			is_subject = yes
			NOT = { government = monarchy }
			NOT = { exists = UTR }
			war_with = UTR
			UTR = {
				OR = {
					is_subject = yes
					NOT = { government = monarchy }
				}
			}
		}
	}
	success = {
		UTR = { has_opinion = { who = BUR value = 100 } }
	}
	chance = {
		factor = 1000
		modifier = {
			factor = 2
			NOT = { has_opinion = { who = UTR value = 0 } }
		}
		modifier = {
			factor = 2
			NOT = { has_opinion = { who = UTR value = -100 } }
		}
		modifier = {
			factor = 2
			ai = yes
		}	
	}
	effect = {
		add_dip_power = 30
		add_country_modifier = {
				name = "foreign_contacts"
				duration = 365
			}
	}
}

burgundy_utrecht_royal_marriage = {

	type = country
	
	category = DIP

	allow = {
		tag = BUR
		exists = UTR
		is_subject = no
		has_regency = no
		is_at_war = no	
		government = monarchy
		NOT = { war_with = UTR }
		NOT = { marriage_with = UTR }
		UTR = {
			is_subject = no
			government = monarchy
			NOT = { num_of_cities = ROOT }
			religion_group = ROOT
		}
		UTR = { has_opinion = { who = BUR value = 100 } }
	}
	abort = {
		OR = {
			is_subject = yes
			NOT = { government = monarchy }
			NOT = { exists = UTR }
			war_with = UTR
			UTR = {
				OR = {
					is_subject = yes
					NOT = { government = monarchy }
				}
			}
		}
	}
	success = {
		marriage_with = UTR
	}
	chance = {
		factor = 1000
		modifier = {
			factor = 1.12
			primary_culture = FROM
		}
		modifier = {
			factor = 1.03
			religion = FROM
		}
		modifier = {
			factor = 1.1
			has_opinion = { who = FROM value = 50 }
		}
		modifier = {
			factor = 1.1
			FROM = { dip = 3 }
		}
		modifier = {
			factor = 1.04
			prestige = FROM
		}
		modifier = {
			factor = 1.08
			NOT = { legitimacy = FROM }
		}
		modifier = {
			factor = 1.20
			is_neighbor_of = FRA
		}
		modifier = {
			factor = 2
			ai = yes
		}	
	}
	effect = {
		add_adm_power = 50
	}	
}

burgundy_vassalize_utrecht = {

	type = country
	
	category = DIP

	allow = {
		tag = BUR
		exists = UTR
		is_subject = no
		has_regency = no
		is_at_war = no	
		government = monarchy
		NOT = { war_with = UTR }
		marriage_with = UTR
		NOT = { has_country_modifier = military_vassalization }
		UTR = {
			is_subject = no
			government = monarchy
			NOT = { num_of_cities = ROOT }
			religion_group = ROOT
		}
		UTR = { has_opinion = { who = BUR value = 100 } }
	}
	abort = {
		OR = {
			is_subject = yes
			NOT = { government = monarchy }
			NOT = { exists = UTR }
			war_with = UTR
			UTR = {
				OR = {
					AND = {
						is_subject = yes
						NOT = { vassal_of = BUR }
					}
					NOT = { government = monarchy }
				}
			}
		}
	}
	success = {
		UTR = { vassal_of = BUR }
	}
	chance = {
		factor = 1000
		modifier = {
			factor = 1.12
			primary_culture = FROM
		}
		modifier = {
			factor = 1.03
			religion = FROM
		}
		modifier = {
			factor = 1.1
			has_opinion = { who = FROM value = 50 }
		}
		modifier = {
			factor = 1.1
			FROM = { dip = 3 }
		}
		modifier = {
			factor = 1.04
			prestige = FROM
		}
		modifier = {
			factor = 1.08
			NOT = { legitimacy = FROM }
		}
		modifier = {
			factor = 1.20
			is_neighbor_of = FRA
		}
	}
	immediate = {
		FROM = {
			add_casus_belli = {
				type = cb_vassalize_mission
				months = 120
				target = ROOT
			}
		}
	}
	abort_effect = {
		FROM = {
			remove_casus_belli = {
				type = cb_vassalize_mission
				target = ROOT
			}
		}
	}
	effect = {
		FROM = {
			add_dip_power = 25
			add_adm_power = 25
			add_country_modifier = {
			name = military_vassalization
			duration = 3650
		}
		}
		hidden_effect = {
			remove_casus_belli = {
				type = cb_vassalize_mission
				target = ROOT
			}
		}
	}	
}

burgundy_diplo_annex_utrecht = {
	
	type = country

	category = DIP
	
	target_provinces = {
		owned_by = UTR
	}
	allow = {
		tag = BUR
		exists = UTR
		is_subject = no
		UTR = {
			vassal_of = BUR
			is_neighbor_of = ROOT
			NOT = { num_of_cities = ROOT }
			religion_group = ROOT
		}
		UTR = { has_opinion = { who = BUR value = 100 } }
	}
	abort = {
		OR = {
			is_subject = yes
			NOT = { exists = UTR }
			UTR = {
				NOT = { religion_group = ROOT }
			}
		}
	}
	success = {
		NOT = { exists = UTR }
		all_target_province = {
			owned_by = ROOT
		}
	}
	chance = {
		factor = 1000
		modifier = {
			factor = 2
			has_opinion = { who = UTR value = 100 }
		}
		modifier = {
			factor = 2
			has_opinion = { who = UTR value = 200 }
		}
	}
	effect = {
		add_prestige = 10
		add_adm_power = 50
		add_dip_power = 50
	}
}

burgundy_conquers_utrecht = {

	type = country

	category = MIL
	
	target_provinces = {
		owned_by = UTR
	}
	allow = {
		tag = BUR
		exists = UTR
		is_subject = no
		mil = 4
		has_regency = no
		is_at_war = no	
		NOT = { marriage_with = UTR }
		UTR = {
			is_subject = no
			NOT = { num_of_cities = ROOT }
		}
		NOT = { has_opinion = { who = UTR value = 100 } }
	}
	abort = {
		NOT = { exists = UTR }
	}
	success = {
		NOT = { exists = UTR }
		all_target_province = {
			owned_by = ROOT
		}
	}
	immediate = {
		every_target_province = {
			add_claim = ROOT
		}
	}
	abort_effect = {
		every_target_province = {
			remove_claim = ROOT
		}
	}
	chance = {
		factor = 1000
		modifier = {
			factor = 2
			mil = 4
		}
		modifier = {
			factor = 2
			mil = 6
		}		
		modifier = {
			factor = 2
			adm = 4
		}	
		modifier = {
			factor = 0.1
			ai = yes
		}	
	}
	effect = {
		add_army_tradition = 15
		add_war_exhaustion = -4
		every_target_province = {
			limit = {
				NOT = { is_core = ROOT }
			}
			add_province_modifier = {
				name = "gaining_control"
				duration = -1
			}
		}
	}
}

burgundy_gelre_relations = {
	
	type = country

	category = DIP
	
	allow = {
		tag = BUR
		exists = GEL
		is_subject = no
		government = monarchy
		NOT = { has_country_modifier = foreign_contacts }
		NOT = { war_with = GEL }
		NOT = { marriage_with = GEL }
		GEL = {
			is_subject = no
			government = monarchy
			NOT = { num_of_cities = ROOT }
			religion_group = ROOT
		}
		NOT = { GEL = { has_opinion = { who = BUR value = 100 } } }
		FROM = { is_rival = ROOT }
		ROOT = { is_rival = FROM }
	}
	abort = {
		OR = {
			is_subject = yes
			NOT = { government = monarchy }
			NOT = { exists = GEL }
			war_with = GEL
			GEL = {
				OR = {
					is_subject = yes
					NOT = { government = monarchy }
				}
			}
		}
	}
	success = {
		GEL = { has_opinion = { who = BUR value = 100 } }
	}
	chance = {
		factor = 1000
		modifier = {
			factor = 2
			NOT = { has_opinion = { who = GEL value = 0 } }
		}
		modifier = {
			factor = 2
			NOT = { has_opinion = { who = GEL value = -100 } }
		}
		modifier = {
			factor = 2
			ai = yes
		}	
	}
	effect = {
		add_dip_power = 30
		add_country_modifier = {
				name = "foreign_contacts"
				duration = 365
			}
	}
}

burgundy_gelre_royal_marriage = {

	type = country
	
	category = DIP

	allow = {
		tag = BUR
		exists = GEL
		is_subject = no
		has_regency = no
		is_at_war = no	
		government = monarchy
		NOT = { war_with = GEL }
		NOT = { marriage_with = GEL }
		GEL = {
			is_subject = no
			government = monarchy
			NOT = { num_of_cities = ROOT }
			religion_group = ROOT
		}
		GEL = { has_opinion = { who = BUR value = 100 } }
	}
	abort = {
		OR = {
			is_subject = yes
			NOT = { government = monarchy }
			NOT = { exists = GEL }
			war_with = GEL
			GEL = {
				OR = {
					is_subject = yes
					NOT = { government = monarchy }
				}
			}
		}
	}
	success = {
		marriage_with = GEL
	}
	chance = {
		factor = 1000
		modifier = {
			factor = 1.12
			primary_culture = FROM
		}
		modifier = {
			factor = 1.03
			religion = FROM
		}
		modifier = {
			factor = 1.1
			has_opinion = { who = FROM value = 50 }
		}
		modifier = {
			factor = 1.1
			FROM = { dip = 3 }
		}
		modifier = {
			factor = 1.04
			prestige = FROM
		}
		modifier = {
			factor = 1.08
			NOT = { legitimacy = FROM }
		}
		modifier = {
			factor = 1.20
			is_neighbor_of = FRA
		}
		modifier = {
			factor = 2
			ai = yes
		}	
	}
	effect = {
		add_adm_power = 50
	}	
}

burgundy_vassalize_gelre = {

	type = country
	
	category = DIP

	allow = {
		tag = BUR
		exists = GEL
		is_subject = no
		has_regency = no
		is_at_war = no	
		government = monarchy
		NOT = { war_with = GEL }
		marriage_with = GEL
		NOT = { has_country_modifier = military_vassalization }
		GEL = {
			is_subject = no
			government = monarchy
			NOT = { num_of_cities = ROOT }
			religion_group = ROOT
		}
		GEL = { has_opinion = { who = BUR value = 100 } }
	}
	abort = {
		OR = {
			is_subject = yes
			NOT = { government = monarchy }
			NOT = { exists = GEL }
			war_with = GEL
			GEL = {
				OR = {
					AND = {
						is_subject = yes
						NOT = { vassal_of = BUR }
					}
					NOT = { government = monarchy }
				}
			}
		}
	}
	success = {
		GEL = { vassal_of = BUR }
	}
	chance = {
		factor = 1000
		modifier = {
			factor = 1.12
			primary_culture = FROM
		}
		modifier = {
			factor = 1.03
			religion = FROM
		}
		modifier = {
			factor = 1.1
			has_opinion = { who = FROM value = 50 }
		}
		modifier = {
			factor = 1.1
			FROM = { dip = 3 }
		}
		modifier = {
			factor = 1.04
			prestige = FROM
		}
		modifier = {
			factor = 1.08
			NOT = { legitimacy = FROM }
		}
		modifier = {
			factor = 1.20
			is_neighbor_of = FRA
		}
	}
	immediate = {
		FROM = {
			add_casus_belli = {
				type = cb_vassalize_mission
				months = 120
				target = ROOT
			}
		}
	}
	abort_effect = {
		FROM = {
			remove_casus_belli = {
				type = cb_vassalize_mission
				target = ROOT
			}
		}
	}
	effect = {
		FROM = {
			add_dip_power = 25
			add_adm_power = 25
			add_country_modifier = {
			name = military_vassalization
			duration = 3650
		}
		}
		hidden_effect = {
			remove_casus_belli = {
				type = cb_vassalize_mission
				target = ROOT
			}
		}
	}	
}

burgundy_diplo_annex_gelre = {
	
	type = country

	category = DIP
	
	target_provinces = {
		owned_by = GEL
	}
	allow = {
		tag = BUR
		exists = GEL
		is_subject = no
		GEL = {
			vassal_of = BUR
			is_neighbor_of = ROOT
			NOT = { num_of_cities = ROOT }
			religion_group = ROOT
		}
		GEL = { has_opinion = { who = BUR value = 100 } }
	}
	abort = {
		OR = {
			is_subject = yes
			NOT = { exists = GEL }
			GEL = {
				NOT = { religion_group = ROOT }
			}
		}
	}
	success = {
		NOT = { exists = GEL }
		all_target_province = {
			owned_by = ROOT
		}
	}
	chance = {
		factor = 1000
		modifier = {
			factor = 2
			has_opinion = { who = GEL value = 100 }
		}
		modifier = {
			factor = 2
			has_opinion = { who = GEL value = 200 }
		}
	}
	effect = {
		add_prestige = 10
		add_adm_power = 50
		add_dip_power = 50
	}
}

burgundy_conquers_gelre = {

	type = country

	category = MIL
	
	target_provinces = {
		owned_by = GEL
	}
	allow = {
		tag = BUR
		exists = GEL
		is_subject = no
		mil = 4
		has_regency = no
		is_at_war = no	
		NOT = { marriage_with = GEL }
		GEL = {
			is_subject = no
			NOT = { num_of_cities = ROOT }
		}
		NOT = { has_opinion = { who = GEL value = 100 } }
	}
	abort = {
		NOT = { exists = GEL }
	}
	success = {
		NOT = { exists = GEL }
		all_target_province = {
			owned_by = ROOT
		}
	}
	immediate = {
		every_target_province = {
			add_claim = ROOT
		}
	}
	abort_effect = {
		every_target_province = {
			remove_claim = ROOT
		}
	}
	chance = {
		factor = 1000
		modifier = {
			factor = 2
			mil = 4
		}
		modifier = {
			factor = 2
			mil = 6
		}		
		modifier = {
			factor = 2
			adm = 4
		}	
		modifier = {
			factor = 0.1
			ai = yes
		}	
	}
	effect = {
		add_army_tradition = 15
		add_war_exhaustion = -4
		every_target_province = {
			limit = {
				NOT = { is_core = ROOT }
			}
			add_province_modifier = {
				name = "gaining_control"
				duration = -1
			}
		}
	}
}

burgundy_friesland_relations = {
	
	type = country

	category = DIP
	
	allow = {
		tag = BUR
		exists = FRI
		is_subject = no
		government = monarchy
		NOT = { has_country_modifier = foreign_contacts }
		NOT = { war_with = FRI }
		NOT = { marriage_with = FRI }
		FRI = {
			is_subject = no
			government = monarchy
			NOT = { num_of_cities = ROOT }
			religion_group = ROOT
		}
		NOT = { FRI = { has_opinion = { who = BUR value = 100 } } }
		FROM = { is_rival = ROOT }
		ROOT = { is_rival = FROM }
	}
	abort = {
		OR = {
			is_subject = yes
			NOT = { government = monarchy }
			NOT = { exists = FRI }
			war_with = FRI
			FRI = {
				OR = {
					is_subject = yes
					NOT = { government = monarchy }
				}
			}
		}
	}
	success = {
		FRI = { has_opinion = { who = BUR value = 100 } }
	}
	chance = {
		factor = 1000
		modifier = {
			factor = 2
			NOT = { has_opinion = { who = FRI value = 0 } }
		}
		modifier = {
			factor = 2
			NOT = { has_opinion = { who = FRI value = -100 } }
		}
		modifier = {
			factor = 2
			ai = yes
		}	
	}
	effect = {
		add_dip_power = 30
		add_country_modifier = {
				name = "foreign_contacts"
				duration = 365
			}
	}
}

burgundy_friesland_royal_marriage = {

	type = country
	
	category = DIP

	allow = {
		tag = BUR
		exists = FRI
		is_subject = no
		has_regency = no
		is_at_war = no	
		government = monarchy
		NOT = { war_with = FRI }
		NOT = { marriage_with = FRI }
		FRI = {
			is_subject = no
			government = monarchy
			NOT = { num_of_cities = ROOT }
			religion_group = ROOT
		}
		FRI = { has_opinion = { who = BUR value = 100 } }
	}
	abort = {
		OR = {
			is_subject = yes
			NOT = { government = monarchy }
			NOT = { exists = FRI }
			war_with = FRI
			FRI = {
				OR = {
					is_subject = yes
					NOT = { government = monarchy }
				}
			}
		}
	}
	success = {
		marriage_with = FRI
	}
	chance = {
		factor = 1000
		modifier = {
			factor = 1.12
			primary_culture = FROM
		}
		modifier = {
			factor = 1.03
			religion = FROM
		}
		modifier = {
			factor = 1.1
			has_opinion = { who = FROM value = 50 }
		}
		modifier = {
			factor = 1.1
			FROM = { dip = 3 }
		}
		modifier = {
			factor = 1.04
			prestige = FROM
		}
		modifier = {
			factor = 1.08
			NOT = { legitimacy = FROM }
		}
		modifier = {
			factor = 1.20
			is_neighbor_of = FRA
		}
		modifier = {
			factor = 2
			ai = yes
		}	
	}
	effect = {
		add_adm_power = 50
	}	
}

burgundy_vassalize_friesland = {

	type = country
	
	category = DIP

	allow = {
		tag = BUR
		exists = FRI
		is_subject = no
		has_regency = no
		is_at_war = no	
		government = monarchy
		NOT = { war_with = FRI }
		marriage_with = FRI
		NOT = { has_country_modifier = military_vassalization }
		FRI = {
			is_subject = no
			government = monarchy
			NOT = { num_of_cities = ROOT }
			religion_group = ROOT
		}
		FRI = { has_opinion = { who = BUR value = 100 } }
	}
	abort = {
		OR = {
			is_subject = yes
			NOT = { government = monarchy }
			NOT = { exists = FRI }
			war_with = FRI
			FRI = {
				OR = {
					AND = {
						is_subject = yes
						NOT = { vassal_of = BUR }
					}
					NOT = { government = monarchy }
				}
			}
		}
	}
	success = {
		FRI = { vassal_of = BUR }
	}
	chance = {
		factor = 1000
		modifier = {
			factor = 1.12
			primary_culture = FROM
		}
		modifier = {
			factor = 1.03
			religion = FROM
		}
		modifier = {
			factor = 1.1
			has_opinion = { who = FROM value = 50 }
		}
		modifier = {
			factor = 1.1
			FROM = { dip = 3 }
		}
		modifier = {
			factor = 1.04
			prestige = FROM
		}
		modifier = {
			factor = 1.08
			NOT = { legitimacy = FROM }
		}
		modifier = {
			factor = 1.20
			is_neighbor_of = FRA
		}
	}
	immediate = {
		FROM = {
			add_casus_belli = {
				type = cb_vassalize_mission
				months = 120
				target = ROOT
			}
		}
	}
	abort_effect = {
		FROM = {
			remove_casus_belli = {
				type = cb_vassalize_mission
				target = ROOT
			}
		}
	}
	effect = {
		FROM = {
			add_dip_power = 25
			add_adm_power = 25
			add_country_modifier = {
			name = military_vassalization
			duration = 3650
		}
		}
		hidden_effect = {
			remove_casus_belli = {
				type = cb_vassalize_mission
				target = ROOT
			}
		}
	}	
}

burgundy_diplo_annex_friesland = {
	
	type = country

	category = DIP
	
	target_provinces = {
		owned_by = FRI
	}
	allow = {
		tag = BUR
		exists = FRI
		is_subject = no
		FRI = {
			vassal_of = BUR
			is_neighbor_of = ROOT
			NOT = { num_of_cities = ROOT }
			religion_group = ROOT
		}
		FRI = { has_opinion = { who = BUR value = 100 } }
	}
	abort = {
		OR = {
			is_subject = yes
			NOT = { exists = FRI }
			FRI = {
				NOT = { religion_group = ROOT }
			}
		}
	}
	success = {
		NOT = { exists = FRI }
		all_target_province = {
			owned_by = ROOT
		}
	}
	chance = {
		factor = 1000
		modifier = {
			factor = 2
			has_opinion = { who = FRI value = 100 }
		}
		modifier = {
			factor = 2
			has_opinion = { who = FRI value = 200 }
		}
	}
	effect = {
		add_prestige = 10
		add_adm_power = 50
		add_dip_power = 50
	}
}

burgundy_conquers_friesland = {

	type = country

	category = MIL
	
	target_provinces = {
		owned_by = FRI
	}
	allow = {
		tag = BUR
		exists = FRI
		is_subject = no
		mil = 4
		has_regency = no
		is_at_war = no	
		NOT = { marriage_with = FRI }
		FRI = {
			is_subject = no
			NOT = { num_of_cities = ROOT }
		}
		NOT = { has_opinion = { who = FRI value = 100 } }
	}
	abort = {
		NOT = { exists = FRI }
	}
	success = {
		NOT = { exists = FRI }
		all_target_province = {
			owned_by = ROOT
		}
	}
	immediate = {
		every_target_province = {
			add_claim = ROOT
		}
	}
	abort_effect = {
		every_target_province = {
			remove_claim = ROOT
		}
	}
	chance = {
		factor = 1000
		modifier = {
			factor = 2
			mil = 4
		}
		modifier = {
			factor = 2
			mil = 6
		}		
		modifier = {
			factor = 2
			adm = 4
		}	
		modifier = {
			factor = 0.1
			ai = yes
		}	
	}
	effect = {
		add_army_tradition = 15
		add_war_exhaustion = -4
		every_target_province = {
			limit = {
				NOT = { is_core = ROOT }
			}
			add_province_modifier = {
				name = "gaining_control"
				duration = -1
			}
		}
	}
}
