# province id = rotation in degrees, 0 is pointing right, then ccw)
# can be reloaded ingame by cmd: reloadtradewinds

##################
# North Atlantic #
##################

# Winds in the north
1673 = 0
1674 = 10
1672 = -30
1675 = 20
1671 = -15
1670 = 40
1667 = 10
1676 = 30
1677 = -120
1665 = -70
1666 = 15

# Winds in the south
1624 = 110
1625 = 120
1628 = 130
1626 = 140
1606 = 140
1668 = 235
2050 = 230
1680 = 200
2049 = 245
2048 = 190
1678 = 180
1681 = 200
1682 = 190
1683 = 190
1684 = 190
1684 = 200
1679 = 170

##################
# South Atlantic #
##################

# Winds in the north
1703 = 90
1687 = 170
1688 = 180
1700 = -100
1691 = -50
1693 = -120
1692 = -120
1699 = 180
1698 = -100
1686 = 140

# Winds in the south
1689 = 20
1639 = 0
1690 = 0
1695 = 0
1708 = 0
1707 = 0
1706 = 0
1704 = 50
2039 = -60
2038 = -20

##################
#  Indian Ocean  #
##################

# Winds in the north
1930 = 210
1927 = 210
1926 = 210
1925 = 200
1924 = 200
2030 = 30
2029 = 40
1931 = 80
1932 = 20
1933 = -70
1934 = -90
1721 = -70
1938 = -160
1713 = -110
1714 = -100
1716 = -90
1724 = -100

# Winds in the south
2037 = 30
2036 = 50
2035 = 60
2034 = 70
2027 = 60
1729 = -30
1728 = 0
1727 = 0
1732 = -70
1731 = 0
1730 = 0
2521 = 0
2522 = 0
2523 = 0
1746 = 160
1747 = 90
1740 = 60
1736 = 0
2022 = 0
1737 = 0
2021 = 0
1849 = 0
1768 = 0
1860 = 30
2007 = 60
2006 = 90
2005 = 120
2001 = 150
2004 = 180
2003 = 180
2002 = 180
1955 = 180
1662 = 150
1951 = 160
1952 = 160
1954 = 160
1743 = 180
1947 = 180
1744 = 180
1725 = 160
1723 = 180
1722 = 160
1719 = 190
2031 = 180
2028 = 180
2032 = -100
2026 = 60
2025 = 60
2024 = 60

#################
# Pacific Ocean #
#################

# Winds in the north
1974 = 0
1975 = -70
1979 = -30
1978 = 0
2019 = 30
1769 = 70
1770 = 0
1785 = 0
1787 = 0
1783 = 30
1788 = -30
1784 = -50
1786 = -30
1659 = -70

# Winds westward
1648 = 160
1804 = 180
1802 = 180
1796 = 180
1797 = 180
1795 = 180
1780 = 180
1810 = 180
1818 = 180
1799 = 180
1817 = 180
1838 = 180
1801 = 180
1816 = 180
1837 = 180
1800 = 180
1836 = 180
1777 = 180
1778 = 180
1775 = 220
1776 = 180
2012 = 180
2016 = 180
2013 = 180
2014 = 180
1990 = 220
1991 = 180

# Winds in the south
1780 = 50
1776 = 0
1782 = 20
2009 = 0
1976 = 20
1826 = 20
1828 = 0
1829 = 0
1830 = 0
1840 = 0
1831 = 0
1841 = 0
1843 = 0
1833 = 0
1814 = 0
1815 = 10
1812 = 0
1806 = 0
1645 = 50
1646 = 110
1647 = 100
1644 = -50
1643 = -90
1808 = -80
1641 = 20

##################
#  Sea of Japan  #
##################

1972 = -110
1982 = -110
1983 = -110
1967 = -110
1986 = -110
1966 = -110
1965 = -110
1988 = -110
1989 = -110
1961 = -110
1962 = -110
1957 = -110
