###################################
# "Anti Tax" rebels. The oppressed.
###################################
anti_tax_rebels = {

	color = { 40 140 210 }
	area = nation 					# Stays within the nation
	government = anti
	defection = none				# Will defect to the "best" alternative.
	independence = none				# Does not strive for independence
	defect_delay = 120
	gfx_type = culture_province
	
	resilient = no					# Disbands on retreat
	reinforcing = no				# Does not receive reinforcements
	general = no					# Does not use generals
	smart = no						# Does not assault forts, tactically withdraw from battle, etc.
	unit_transfer = no				# Units do not remain after enforcing demands.
	will_relocate = yes				# Units will relocate if they have sieged all provinces nearby and has to move over sea.
	
	artillery = 0.0
	infantry = 0.9
	cavalry = 0.1
	morale = 0.8
	
	# Possible handle actions
	handle_action_negotiate = yes
	handle_action_stability = yes
	handle_action_build_core = yes
	handle_action_send_missionary = yes	
	
	# The rebel type with the highest modifier for this province gets picked
	spawn_chance = {
		factor = 2
		modifier = {
			factor = 0.5
			is_overseas = yes
		}
		modifier = {
			factor = 2.0
			owner = { has_wartaxes = yes }
		}
		modifier = {
			factor = 2.0
			owner = { war_exhaustion = 4 }
		}
		modifier = {
			factor = 10.0
			owner = {
				has_country_flag = peasant_war
			}
		}
		modifier = {
			factor = 1.2
			owner = {
				aristocracy_ideas = 4
			}
		}
		modifier = {
			factor = 1.2
			owner = {
				aristocracy_ideas = 6
			}
		}
		modifier = {
			factor = 0.9
			owner = {
				plutocracy_ideas = 3
			}
		}
		modifier = {
			factor = 0.7
			owner = {
				plutocracy_ideas = 5
			}
		}
		modifier = {
			factor = 0.5
			owner = {
				NOT = { primary_culture = ROOT } # We want other types instead
			}
		}
		modifier = { 
			has_province_modifier = peasants_organizing
			factor = 2
		}
	}

 	#This is checked for EACH province in the Area of Operations
	movement_evaluation = {
		factor = 1
		modifier = {
			factor = 0.1
			units_in_province = 1
		}
		modifier = {
			factor = 0.001
			controlled_by = REB
		}
		modifier = {
			factor = 2.0
			has_building = constable
		}
		modifier = {
			factor = 1.5
			unrest = 2
		}
		modifier = {
			factor = 1.5
			unrest = 4
		}
		modifier = {
			factor = 1.5
			unrest = 6
		}
	}

 	# Province Scope
 	siege_won_trigger = {
		NOT = { local_autonomy = 50 }
 	}
	siege_won_effect = {
		add_local_autonomy = 10	
		add_province_modifier = {
			name = "tax_revolt"
			duration = 365
		}
	}

	# Country scope
	can_negotiate_trigger = {
		always = yes
	}

	# Country scope
	can_enforce_trigger = {
		always = yes
	}
	
	# Localisation for their demands
	demands_description = "anti_tax_rebels_demand"
	
	# Country scope
	demands_enforced_effect = {
		every_owned_province = {
			limit = {
				has_rebel_faction = REB
			}
			add_local_autonomy = 20
		}
		add_prestige = -50
	}
}