# GRW - Garhwal

government = indian_monarchy government_rank = 5
mercantilism = 0.0
technology_group = indian
primary_culture = pahari
religion = hinduism
capital = 2701
# historical_friend = DLH
# historical_friend = MUG

1000.1.1  = {
	set_variable = { which = "centralization_decentralization" value = 3 }
}

1398.1.1 = {
	monarch = {
		name = "Sundar Pal"
		dynasty = "Parmar"
		DIP = 1
		ADM = 2
		MIL = 3
	}
}

1420.1.1 = {
	heir = {
		name = "Hansdeo"
		monarch_name = "Hansdeo Pal"
		dynasty = "Parmar"
		birth_Date = 1420.1.1
		death_Date = 1500.1.1
		claim = 95
		DIP = 3
		ADM = 3
		MIL = 2
	}
}

1450.1.1 = {
	monarch = {
		name = "Hansdeo Pal"
		dynasty = "Parmar"
		DIP = 3
		ADM = 3
		MIL = 2
	}
}

1450.1.1 = {
	heir = {
		name = "Bijai"
		monarch_name = "Bijai Pal"
		dynasty = "Parmar"
		birth_Date = 1430.1.1
		death_Date = 1548.1.1
		claim = 95
		DIP = 3
		ADM = 3
		MIL = 2
	}
}

1500.1.1 = {
	monarch = {
		name = "Bijai Pal"
		dynasty = "Parmar"
		DIP = 3
		ADM = 4
		MIL = 3
	}
}

1500.1.1 = {
	heir = {
		name = "Sahaj"
		monarch_name = "Sahaj Pal"
		dynasty = "Parmar"
		birth_Date = 1500.1.1
		death_Date = 1575.1.1
		claim = 95
		DIP = 5
		ADM = 6
		MIL = 4
	}
}

1548.1.1 = {
	monarch = {
		name = "Sahaj Pal"
		dynasty = "Parmar"
		DIP = 5
		ADM = 6
		MIL = 4
	}
}

1548.1.1 = {
	heir = {
		name = "Balbhadra"
		monarch_name = "Balbhadra Shah"
		dynasty = "Parmar"
		birth_Date = 1530.1.1
		death_Date = 1591.1.1
		claim = 95
		DIP = 4
		ADM = 3
		MIL = 4
	}
}

1575.1.1 = {
	monarch = {
		name = "Balbhadra Shah"
		dynasty = "Parmar"
		DIP = 4
		ADM = 3
		MIL = 4
	}
}

1575.1.1 = {
	heir = {
		name = "Man"
		monarch_name = "Man Shah I"
		dynasty = "Parmar"
		birth_Date = 1560.1.1
		death_Date = 1611.1.1
		claim = 95
		DIP = 2
		ADM = 3
		MIL = 6
	}
}

1591.1.1 = {
	monarch = {
		name = "Man Shah I"
		dynasty = "Parmar"
		DIP = 2
		ADM = 3
		MIL = 6
	}
}

1591.1.1 = {
	heir = {
		name = "Shyam"
		monarch_name = "Shyam Shah"
		dynasty = "Parmar"
		birth_Date = 1560.1.1
		death_Date = 1622.1.1
		claim = 95
		DIP = 4
		ADM = 2
		MIL = 3
	}
}

1611.1.1 = {
	monarch = {
		name = "Shyam Shah"
		dynasty = "Parmar"
		DIP = 4
		ADM = 2
		MIL = 3
	}
}

1611.1.1 = {
	heir = {
		name = "Mahipat"
		monarch_name = "Mahipat Shah"
		dynasty = "Parmar"
		birth_Date = 1580.1.1
		death_Date = 1631.1.1
		claim = 95
		DIP = 3
		ADM = 2
		MIL = 5
	}
}

1622.1.1 = {
	monarch = {
		name = "Mahipat Shah"
		dynasty = "Parmar"
		DIP = 3
		ADM = 2
		MIL = 5
	}
}

1622.1.1 = {
	heir = {
		name = "Prithvi"
		monarch_name = "Prithvi Shah Naktirani"
		dynasty = "Parmar"
		birth_Date = 1600.1.1
		death_Date = 1665.1.1
		claim = 95
		DIP = 5
		ADM = 2
		MIL = 2
	}
}

1631.1.1 = {
	monarch = {
		name = "Prithvi Shah Naktirani"
		dynasty = "Parmar"
		DIP = 5
		ADM = 2
		MIL = 2
	}
}

1631.1.1 = {
	heir = {
		name = "Fateh"
		monarch_name = "Fateh Shah"
		dynasty = "Parmar"
		birth_Date = 1630.1.1
		death_Date = 1716.1.1
		claim = 95
		DIP = 5
		ADM = 4
		MIL = 4
	}
}

1665.1.1 = {
	monarch = {
		name = "Fateh Shah"
		dynasty = "Parmar"
		DIP = 5
		ADM = 4
		MIL = 4
	}
}

1665.1.1 = {
	heir = {
		name = "Upendra"
		monarch_name = "Upendra Shah"
		dynasty = "Parmar"
		birth_Date = 1660.1.1
		death_Date = 1717.1.1
		claim = 95
		DIP = 1
		ADM = 1
		MIL = 1
	}
}

1716.1.1 = {
	monarch = {
		name = "Upendra Shah"
		dynasty = "Parmar"
		DIP = 1
		ADM = 1
		MIL = 1
	}
}

1716.1.1 = {
	heir = {
		name = "PraDIP"
		monarch_name = "PraDIP Shah"
		dynasty = "Parmar"
		birth_Date = 1690.1.1
		death_Date = 1772.1.1
		claim = 95
		DIP = 5
		ADM = 2
		MIL = 1
	}
}

1717.1.1 = {
	monarch = {
		name = "PraDIP Shah"
		dynasty = "Parmar"
		DIP = 5
		ADM = 2
		MIL = 1
	}
}

1717.1.1 = {
	heir = {
		name = "Lalit"
		monarch_name = "Lalit Shah"
		dynasty = "Parmar"
		birth_Date = 1700.1.1
		death_Date = 1780.1.1
		claim = 95
		DIP = 1
		ADM = 2
		MIL = 5
	}
}

1772.1.1 = {
	monarch = {
		name = "Lalit Shah"
		dynasty = "Parmar"
		DIP = 1
		ADM = 2
		MIL = 5
	}
}

1772.1.1 = {
	heir = {
		name = "Jaikarat"
		monarch_name = "Jaikarat Shah"
		dynasty = "Parmar"
		birth_Date = 1760.1.1
		death_Date = 1785.1.1
		claim = 95
		DIP = 1
		ADM = 0
		MIL = 1
	}
}

1780.1.1 = {
	monarch = {
		name = "Jaikarat Shah"
		dynasty = "Parmar"
		DIP = 1
		ADM = 0
		MIL = 1
	}
}

1780.1.1 = {
	heir = {
		name = "Pradyuman"
		monarch_name = "Pradyuman Shah"
		dynasty = "Parmar"
		birth_Date = 1770.1.1
		death_Date = 1815.1.1
		claim = 95
		DIP = 1
		ADM = 0
		MIL = 3
	}
}

1785.1.1 = {
	monarch = {
		name = "Pradyuman Shah"
		dynasty = "Parmar"
		DIP = 1
		ADM = 0
		MIL = 3
	}
}

1785.1.1 = {
	heir = {
		name = "Sudarshan"
		monarch_name = "Sudarshan Shah"
		dynasty = "Parmar"
		birth_Date = 1784.1.1
		death_Date = 1859.1.1
		claim = 95
		DIP = 4
		ADM = 2
		MIL = 0
	}
}

#Succeeds after Garhwal is reclaimed from the Gurkhas, moves capital to Tehri and state changes to Tehri-Garhwal

1815.1.1 = {
	monarch = {
		name = "Sudarshan Shah"
		dynasty = "Parmar"
		DIP = 4
		ADM = 2
		MIL = 0
	}
}
