#PTN - Pontianak
#Pontianak was founded in 1771 but it is used to represent the various city-states
#that thrived in this area during the EU3 timeframe e.g. Sambas
#FB-TODO rulers c1400 to 1670

government = indian_monarchy government_rank = 5
mercantilism = 0.0
primary_culture = malayan
religion = vajrayana
technology_group = austranesian
capital = 629	# Pontianak

1000.1.1  = {
	set_variable = { which = "centralization_decentralization" value = 3 }
}

1337.1.1 = {
	monarch = {
		name = "Ratu Winata Kusuma"
		dynasty = "Pangeran"
		ADM = 3
		DIP = 3
		MIL = 3
	}
}

1390.1.1 = {
	monarch = {
		name = "Sanggau"
		dynasty = "Pangeran"
		ADM = 2
		DIP = 2
		MIL = 3
	}
}

1580.1.1 = {
	monarch = {
		name = "Ratu Sepudak"
		dynasty = "Pangeran"
		ADM = 3
		DIP = 3
		MIL = 3
	}
}#last Majapahit Governor of Sambas

1609.1.1 = {
	religion = sunni
		government = despotic_monarchy government_rank = 4
	monarch = {
		name = "Tuanku Muhammad"
		dynasty = "Tuanku"
		ADM = 3
		DIP = 3
		MIL = 3
	}
}#first islamic ruler of Sambas

1670.1.1 = {
	monarch = {
		name = "Muhammad Tajuddin"
		dynasty = "Tuanku"
		ADM = 5
		DIP = 4
		MIL = 3
	}
}#Sambas Sultanate formed 1670

1708.1.1 = {
	monarch = {
		name = "Umar Akamaddin"
		dynasty = "Tuanku"
		ADM = 3
		DIP = 3
		MIL = 3
	}
}

1732.1.1 = {
	monarch = {
		name = "Abu Bakar Kamaluddin"
		dynasty = "Tuanku"
		ADM = 3
		DIP = 3
		MIL = 3
	}
}

1762.1.1 = {
	monarch = {
		name = "Umar Akamaddin II"
		dynasty = "Tuanku"
		ADM = 3
		DIP = 3
		MIL = 3
	}
}

1771.1.1 = {
	monarch = {
		name = "Abdul Rahman"
		dynasty = "Rahman"
		ADM = 2
		DIP = 2
		MIL = 3
	}
}#Pontianak Sultanate formed 1771

1798.1.1 = {
	monarch = {
		name = "Usman Paku Negara"
		dynasty = "Rahman"
		ADM = 2
		DIP = 2
		MIL = 3
	}
}

1808.1.1 = {
	monarch = {
		name = "Sharif Quasim"
		dynasty = "Rahman"
		ADM = 2
		DIP = 2
		MIL = 3
	}
}

1814.1.1 = {
	monarch = {
		name = "Muhammad Ali"
		dynasty = "Rahman"
		ADM = 2
		DIP = 2
		MIL = 3
	}
}

1819.1.1 = {
	monarch = {
		name = "Sharif Othman"
		dynasty = "Rahman"
		ADM = 3
		DIP = 1
		MIL = 2
	}
}
