# All global modifiers are here. They are applied from certain game-features.
#
# Effects are fully scriptable here.

# These names can NOT be removed or changes, as the code uses them....

##########################################################################
# Handicap Modifiers
##########################################################################

player_handicap = {
	global_manpower_modifier = 0.5
	land_forcelimit_modifier = 0.5
	naval_forcelimit_modifier = 0.5
	global_regiment_cost = -0.33
	global_ship_cost = -0.33
	inflation_reduction = 0.05
	global_unrest = -3
	war_exhaustion = -0.05
	core_creation = -0.25
	advisor_pool = 1
	diplomatic_upkeep = 1
	free_leader_pool = 1
	diplomatic_reputation = 2
	interest = -2
	improve_relation_modifier = 0.10
	ae_impact = -0.25
}

ai_handicap = {
	global_manpower_modifier = 0.30
	land_forcelimit_modifier = 0.20
	naval_forcelimit_modifier = 0.25
	global_regiment_cost = -0.15
	global_ship_cost = -0.20
	mercenary_cost = -0.20
	land_maintenance_modifier = -0.15
	manpower_recovery_speed = 0.15
	possible_mercenaries = 0.25
	merc_maintenance_modifier = -0.15
	inflation_reduction = 0.03
	global_unrest = -1
	war_exhaustion = -0.03
	idea_cost = -0.20
	interest = -1
	improve_relation_modifier = 0.15
	development_cost = -0.2
	build_cost = -0.15
	ae_impact = -0.15
	advisor_cost = -0.20
}


##########################################################################
# Provincial Static Modifiers
##########################################################################

city = {
	local_tax_modifier = 0.1
	#fort_level = 1
	trade_goods_size = 0.25
	local_missionary_strength = -0.02		#DEI GRATIA ADDED TO BALANCE BASE (REQUIRED FOR SLIDER TO WORK)
	allowed_num_of_buildings = 1
}

port = {
}

overseas = {
	#local_tax_modifier = -0.90				#90% penalty if overseas.
	#local_spy_defence = -0.05				#5% penalty on defending in overseas.
	#regiment_recruit_speed = 0.5			#50% longer time to build troops
	#ship_recruit_speed = 1.0				#100% longer time to build troops
	#garrison_growth = -0.05					#5% penalty on garrison growth
	#local_manpower_modifier = -0.5			#50% penalty on manpower.
	#local_missionary_strength = -0.01 		#DEI GRATIA ADDED
	#attrition = 1
	land_forcelimit	= -2
}

overseas_port = {
	naval_forcelimit = -2
}

coastal = {
	supply_limit_modifier = 0.5
	province_trade_power_modifier = 0.25
}


seat_in_parliament = {
	local_manpower_modifier = 0.1
	local_tax_modifier = 0.1
	local_production_efficiency = 0.1
	local_autonomy = -0.01
	stability_cost_modifier = 0.02
	war_exhaustion_cost = 0.02
}
non_coastal = {
}

coastal_sea = {
}

tropical = {
	local_colonial_growth = -10
	attrition = 1
	max_attrition = 10
	supply_limit_modifier = -0.2
	local_movement_speed = -0.1
	local_hostile_attrition = 2
	local_development_cost = 0.15
	local_build_cost = 0.15
	
	picture = "climate_tropical"
}

arctic = {
	local_colonial_growth = -10
	attrition = 1
	max_attrition = 5
	supply_limit_modifier = -0.1
	local_movement_speed = -0.3
	local_hostile_attrition = 1
	local_development_cost = 0.5
	local_build_cost = 0.5
	
	picture = "climate_arctic"
}

arid = {
	local_colonial_growth = -10
	attrition = 1
	max_attrition = 10
	supply_limit_modifier = -0.15
	local_movement_speed = -0.5
	local_hostile_attrition = 1
	local_development_cost = 0.15
	local_build_cost = 0.15
	
	picture = "climate_arid"
}

sea_zone = {
	max_attrition = 5						#Maximum Attrition is 5
}

land_province = {
	max_attrition = 5						#Maximum Attrition is 5
	garrison_growth = 0.1					#10% base growth
	local_manpower_modifier = 0.25			#25% of manpower.
}

mild_winter = {
	local_hostile_attrition = 1
	max_attrition = 1
	supply_limit_modifier = -0.1
	
	picture = "winter_mild"
}

normal_winter = {
	local_hostile_attrition = 2
	max_attrition = 2
	supply_limit_modifier = -0.2
	
	picture = "winter_normal"
}

severe_winter = {
	local_hostile_attrition = 3
	max_attrition = 3
	supply_limit_modifier = -0.3
	
	picture = "winter_severe"
}

blockaded_base = {
	regiment_recruit_speed = 0.2
	ship_recruit_speed = 0.2				
	trade_goods_size_modifier = -0.5
	province_trade_power_modifier = -0.75
}

blockaded_scaled = {
}

no_adjacent_controlled = {
	local_colonial_growth = -5
}

provincial_tax_income = {
	local_missionary_strength = 0			#DEI GRATIA REMOVED (REPLACED WITH MANPOWER)
	supply_limit = 0.2						#20% weight for each tax-income
	local_spy_defence = 0.01				#1% for each tax income.
	regiment_recruit_speed = -0.01			#1% shorter time to build troops for each cash.
	ship_recruit_speed = -0.01		
#	trade_goods_size = 0.10					#Removed by Sun_Wu as provincial_production_size already gives +0.2
	province_trade_power_modifier = 0.10

}

provincial_production_size = {
	trade_goods_size = 0.2
	ship_recruit_speed = -0.01		
}

manpower = {
	garrison_growth = 0.01					#1% increase from manpower.
	regiment_recruit_speed = -0.01
}

development = {
	allowed_num_of_buildings = 0.1
	supply_limit_modifier = 0.02
	local_missionary_strength = -0.002 #DEI GRATIA
	land_forcelimit	= 0.1			# special case, affected by autonomy
	naval_forcelimit = 0.1			# special case, affected by autonomy & set to 0 by code if not port
	local_development_cost = 0.01
	province_trade_power_value = 0.4
}

capital_city = {
	allowed_num_of_buildings = 1
	fort_level = 1
	local_manpower_modifier = 0.1			#10% bonus on manpower.
	trade_goods_size = 0.2					#20% bonus on trade goods production
	garrison_growth = 0.1					#10% bonus on garrison growth
	province_trade_power_modifier = 0.50
}

# Multiplied in provinces of same religion.
patriarch_authority_local = {
	local_unrest = -2					#DEI GRATIA MODIFIED FROM -3
#	local_manpower_modifier = 0.33			#DEI GRATIA REMOVED
	local_tax_modifier = -0.50				#DEI GRATIA MODIFIED FROM -0.33
	papal_influence = 0.2					#DEI GRATIA ADDED
	}

#for the country
patriarch_authority_global = {
	global_missionary_strength = 0.03
	missionaries = 3						#DEI GRATIA ADDED
	adm_tech_cost_modifier = 0.10			#DEI GRATIA ADDED
#	stability_cost_modifier = 0.30			#DEI GRATIA ADDED
	adm_tech_penalty = 0.20					#DEI GRATIA ADDED
	papal_influence = 2						#DEI GRATIA ADDED
}

colony_level = {
	local_colonist_placement_chance = 0.04	#4% chance for each level.  (up to 40% bonus)
	local_tax_modifier = 0.02
}

native_assimilation = {
	local_development_cost = -0.02
}

native_aggressiveness = {
	local_colonist_placement_chance = -0.005
}

native_presence = {
	trade_goods_size = 0.1
}

core = {
	local_tax_modifier = 0.90				#90% more in a core
	local_manpower_modifier = 0.75			#75% more in a core
	
	#myzael: moved from non-core and switched sign, should have the same effect
	local_missionary_strength = 0.02		#DEI GRATIA ADDED
}

non_core = {
	local_unrest = 1
	province_trade_power_modifier = -0.50
}

march_bonus = {
	global_manpower_modifier = 0.25
	land_forcelimit_modifier = 0.30
	naval_forcelimit_modifier = 0.30
	defensiveness = 0.2
	fort_maintenance_modifier = -0.20
	manpower_recovery_speed = 0.20
}

same_culture_group = {
	local_tax_modifier = -0.15				#10% penalty if same culture group but nothing else. Not applied if the controller is the Union Tag of the culture group, or has culture_group_union set.
	local_manpower_modifier = -0.15
	local_missionary_strength = -0.015		#DEI GRATIA ADDED
	local_unrest = 1
}

non_accepted_culture = {
	local_tax_modifier = -0.33	
	local_missionary_strength = -0.03		#DEI GRATIA CHANGED FROM -0.02
	local_manpower_modifier = -0.33
	local_unrest = 2					#1% revolt risk!
	
}

# Special modifier to the above, for non-tribal republics
non_accepted_culture_republic = {
	local_tax_modifier = 0.1
	local_manpower_modifier = 0.1
	local_unrest = -0.5
}

occupied = {
	local_tax_modifier = -0.5
	trade_goods_size_modifier = -0.5
	province_trade_power_modifier = -0.5
	local_manpower_modifier = -0.5
}

under_siege = {
	trade_goods_size_modifier = -0.25
	province_trade_power_modifier = -0.25
}

looted = {
	trade_goods_size_modifier = -0.25
	max_attrition = 5						#Maximum Attrition is increased by 5
	local_tax_modifier = -0.5				#50% less tax income.
	regiment_recruit_speed = 0.3
	ship_recruit_speed = 0.3
	supply_limit_modifier = -0.1
	local_autonomy = 0.05
}

scorched_earth = {
	trade_goods_size_modifier = -0.33
	attrition = 10
	local_tax_modifier = -0.75				# 75% less tax income.
	local_defensiveness = 0.25
	supply_limit_modifier = -0.5			# 50% lower supply limits.
	local_autonomy = 0.1
	local_movement_speed = -0.4				# Armies move 40% slower
}

# Multiplied with positive religious tolerance
tolerance = {
	local_unrest = -0.8
	local_missionary_strength = -0.006		#DEI GRATIA ADDED
	local_manpower_modifier = 0.05			#DEI GRATIA ADDED
	regiment_recruit_speed = -0.02			#DEI GRATIA ADDED
#	local_autonomy = -0.005					#DEI GRATIA REMOVED
}

# Multiplied with negative religious tolerance
intolerance = {
	local_unrest = -1.2
	local_tax_modifier = 0.1
	trade_goods_size_modifier = 0.10
	local_manpower_modifier = 0.10			#DEI GRATIA ADDED
	local_missionary_strength = -0.006		#DEI GRATIA ADDED
	regiment_recruit_speed = -0.04			#DEI GRATIA ADDED
	local_autonomy = -0.005
}

unrest = {
	local_tax_modifier = -0.04				#-4% for each rr
	local_spy_defence = -0.01				#reduce defence by 1%
	regiment_recruit_speed = 0.1			#10% longer time to build troops for each rr
	ship_recruit_speed = 0.1
	trade_goods_size = -0.05
	local_missionary_strength = -0.002		#DEI GRATIA ADDED
}

nationalism = {
	local_unrest = 0.5					#for each year revolt risk!
}

harsh_treatment = {
	local_unrest = -10
}

local_autonomy = {
	local_manpower_modifier = -1.0
	local_tax_modifier = -1.0
	local_production_efficiency = -1.0
	province_trade_power_modifier = -0.5
	regiment_recruit_speed = 1.0
	ship_recruit_speed = 1.0
	local_missionary_strength = -0.10 		#DEI GRATIA ADDED
}



recent_uprising = {
	local_unrest = -10
}

friendly_regiments = {
	local_unrest = -1.0				#-1% for each friendly regiment in the province.
}

active_missionary = {
	local_unrest = 6					# 6% revolt risk!
}

# Core province of the owner's culture group, while fighting a defensive war
national_defense = {
	local_unrest = -5
}

resource_depleted = {
	local_tax_modifier = -0.50				# penalty when migrant have been there recently.
}

in_trade_company = {
	province_trade_power_modifier = 1
	naval_forcelimit = 0.5
	local_manpower_modifier = -1
	local_tax_modifier = -0.50
	local_missionary_strength = -0.02
}




##########################################################################
# Global Static Modifiers
##########################################################################

base_values = {
	merc_maintenance_modifier = 1.5
	merchants = 1
	diplomats = 2
	missionaries = 0.1						#DEI GRATIA CHANGED FROM 1
	army_tradition_decay = 0.075				#lose 7.5% yearly
	navy_tradition_decay = 0.075				#lose 7.5% yearly
	prestige_decay = 0.075					#lose 7.5% prestige each year
	tolerance_own = 3
	tolerance_heathen = -3
	tolerance_heretic = -1					#DEI GRATIA CHANGED FROM -2
	mercenary_cost = 0.5
	global_missionary_strength = 0.02		#DEI GRATIA REMOVED THEN ADDED BACK TO ALLOW SLIDER TO WORK
	global_manpower = 1.0
	diplomatic_upkeep = 2
	advisor_pool = 3
	colonist_placement_chance = 0.05
	free_leader_pool = 1
	republican_tradition = 0.01
	monthly_fervor_increase = 1
	vassal_income = 0.20
	global_tax_modifier = 0.10
}

# AI 'cheats' that compensate for flaws in its long-term decision making, removing these may severely cripple the AI
ai_nation = {
	diplomatic_upkeep = 1
	diplomats = 1
	free_leader_pool = 1
	interest = -2
}

war_taxes = {
	land_maintenance_modifier = -0.20
	naval_maintenance_modifier = -0.20
}

stability = {
	global_trade_power = 0.01			#1% chance each step.
	global_spy_defence = 0.05				#-15 to +15% modifier
	tolerance_heretic = 0.4				#DEI GRATIA ADDED
	tolerance_heathen = 0.4				#DEI GRATIA ADDED
}

positive_stability = {
	global_unrest = -1					#-1% revolt risk each step
	global_tax_modifier = 0.1				#10% for each positive stab
	global_trade_goods_size_modifier = 0.01
	global_missionary_strength = 0.005
	temples_influence = 0.02
	mr_aristocrats_influence = 0.02
	stability_cost_modifier = 0.50
	monthly_fervor_increase = 1
	devotion = 0.5
}

negative_stability = {
	global_unrest = -2					#-1% EXTRA revolt risk each step
	legitimacy = 1
	interest = -1	
	migration_cooldown = 0.1

	caravan_power = 0.05
				
}

cancelled_loan = {
	#no effects
}

bank_loan = {
	#no effects
}

inflation = {
	build_cost = 0.01						#1% for each inflation step.
	infantry_cost = 0.01					#1% for each inflation step
	cavalry_cost = 0.01						#1% for each inflation step
	artillery_cost = 0.01					#1% for each inflation step
	heavy_ship_cost = 0.01					#1% for each inflation step
	light_ship_cost = 0.01					#1% for each inflation step
	galley_cost = 0.01						#1% for each inflation step
	transport_cost = 0.01					#1% for each inflation step
	advisor_cost = 0.01						#1% for each inflation step
	mercenary_cost = 0.01					#1% for each inflation step

}

bankruptcy = {
	global_unrest = 3					#revolt risk increased by 1 during bankruptcy effects.
	interest = 10
	land_morale = -1.0
	naval_morale = -1.0
	reinforce_speed = -0.25					#Slower reinforce
	bureaucrats_influence = 0.25
	mr_guilds_influence = 0.25
	manpower_recovery_speed = -1.0
	advisor_cost = 1.0
	monthly_fervor_increase = -2
	global_colonial_growth = -200
	global_autonomy = 0.2
}

war = {
}

peace = {
	war_exhaustion = -0.1
	improve_relation_modifier = 0.10
	monthly_fervor_increase = 1
	global_autonomy = -0.1
}

call_for_peace = {
	war_exhaustion = 0.008
}

war_exhaustion = {
	global_unrest = 1
	global_regiment_recruit_speed = 0.1
	global_ship_recruit_speed = 0.1
	core_creation = 0.03
	temples_influence = -0.05
	mr_aristocrats_influence = -0.05
	manpower_recovery_speed = -0.05
	defensiveness = -0.02
	siege_ability = -0.01
	global_trade_goods_size_modifier = -0.02
	tolerance_heretic = -0.10				#DEI GRATIA ADDED
	tolerance_heathen = -0.10				#DEI GRATIA ADDED
}

doom = {
	technology_cost = 0.5
	idea_cost = 0.2
	ae_impact = -1
}

authority = {
	stability_cost_modifier = -0.1
	global_unrest = -2
}

regency_council = {
	legitimacy = -2
}

trade_efficiency = {
}

production_efficiency = {
	colonist_placement_chance = 0.2			#0.2 for each 1% of PE (ie, if 100% PE, 20% bonus added.)
}

trade_refusal = {
	trade_efficiency = -0.05
}

mercantilism = {
	global_prov_trade_power_modifier = 2.0
}

army_tradition = {
	recover_army_morale_speed = 0.1
	land_morale = 0.25
	manpower_recovery_speed = 0.1
	siege_ability = 0.05
	temples_influence = 0.1
	mr_aristocrats_influence = 0.1
}

navy_tradition = {
	recover_navy_morale_speed = 0.1
	naval_morale = 0.25
	trade_steering = 1.0
	privateer_efficiency = 0.25
	enuchs_influence = 0.1
	mr_traders_influence = 0.1
	blockade_efficiency = 1
}

positive_piety = {
	land_morale = 0.25
#	global_missionary_strength = 0.03	#DEI GRATIA REMOVED (REPLACED WITH CHURCH INFLUENCE)
	defensiveness = 0.25
	tolerance_own = 1 					#DEI GRATIA ADDED
	tolerance_heretic = -1				#DEI GRATIA ADDED
	tolerance_heathen = -1				#DEI GRATIA ADDED
	legitimacy = 1						#DEI GRATIA ADDED
}

#For convenience, its multiplied by negative piety in code.
negative_piety = {
	technology_cost = -0.1
#	global_manpower_modifier = 0.25			#DEI GRATIA REMOVED
#	global_tax_modifier = 0.25				#DEI GRATIA REMOVED (covered by church vs state)
	tolerance_own = -1						#DEI GRATIA ADDED
	tolerance_heretic = 3 					#DEI GRATIA ADDED
	tolerance_heathen = 3 					#DEI GRATIA ADDED
	trade_efficiency = 0.10					#DEI GRATIA ADDED
}

defender_of_faith = {
	land_morale = 0.05
	naval_morale = 0.05
	technology_cost = 0.05
	war_exhaustion = -0.025					#quicker recovery
	papal_influence = 5						#DEI GRATIA CHANGED
	prestige = 1							#1% extra prestige yearly
	missionaries = 1
	devotion = 0.5

}

emperor = {
	spy_offence = 0.05					#minor bonus on spies.
	advisor_pool = 1
	diplomatic_upkeep = 2
	free_leader_pool = 1
	prestige = 1
}

states_in_hre = {							#bonuses for each state with capital in HRE.. as emperor
	land_forcelimit	= 0.125					#each state increases forcelimit by 0.25
	global_manpower = 0.025					#each gives 0.25 MP to the emperor.
	prestige = 0.02
	papal_influence = 0.05					#DEI GRATIA ADDED
	land_maintenance_modifier = -0.002		#each state decreases land maintenance by 0.2%
}

free_cities_in_hre = {							#bonuses for each free city in the HRE.. as emperor
	global_tax_income = 2				
	global_manpower = 1	
	land_forcelimit	= 0.5
}

free_city_in_hre = {
	global_tax_income = 3
	diplomatic_reputation = 1
	fort_maintenance_modifier = -0.25
}

member_in_hre = {				
	prestige = 0.2
	diplomatic_reputation = 2
}

#for each non-core if in the empire, and also a prince.
occupied_imperial = {
	prestige = -1
	legitimacy = -0.5
}

num_of_marriages = {
	legitimacy = 0.10
	heir_chance = 0.05
	improve_relation_modifier = 0.01
}

num_of_provinces = {
}

# Multiplied by current Legitimacy - 50
legitimacy = {
	global_unrest = -4
	tolerance_own = 2
	tolerance_heathen = 0 #DEI GRATIA REMOVED
	tolerance_heretic = 0 #DEI GRATIA REMOVED
	diplomatic_reputation = 5
	vassal_income = 0.2
}

# Multiplied by current Devotion - 50
devotion = {
	papal_influence = 2
	church_power_modifier = 0.25
	prestige = 2
	global_tax_modifier = 0.50
}

luck = {
	global_trade_power = 0.1
	colonist_placement_chance = 0.05
	global_colonial_growth = 10
	global_missionary_strength = 0.01
	spy_offence = 0.05
	stability_cost_modifier = -0.10
	defensiveness = 0.20
	siege_ability = 0.05
	advisor_pool = 1
	heir_chance = 0.25
	global_unrest = -1
	legitimacy = 1
	republican_tradition = 0.01
	interest = -1
	mercenary_cost = -0.10
	possible_mercenaries = 0.25
	manpower_recovery_speed = 0.10
	improve_relation_modifier = 0.15
	monthly_fervor_increase = 1
	church_power_modifier = 0.25
	ae_impact = -0.20
}

over_extension = {
	global_foreign_trade_power = -1.0
	stability_cost_modifier = 0.5			
	mercenary_cost = 0.5
	diplomatic_reputation = -2
	relations_decay_of_me = -0.25
	global_unrest = 5
	bureaucrats_influence = 0.5
	mr_guilds_influence = 0.5
}

prestige = {
	global_trade_power = 0.15			#+15/-15 total bonus from prestige.
	land_morale = 0.1
	naval_morale = 0.1
	global_spy_defence = 0.1				#+10/-10 
	defensiveness = 0.1						#+10/-10
	mercenary_cost = -0.33					#-33 to +33%
	legitimacy = 1.0
	relations_decay_of_me = 1.0
#	papal_influence = 0					#DEI GRATIA REMOVED
	improve_relation_modifier = 0.10
	monthly_fervor_increase = 1
	ae_impact = -0.10
	temples_influence = 0.1
	prestige = -1
}

no_debate_in_parliament = {
	legitimacy = -0.5
	republican_tradition = -0.005
}

republican_tradition = {
	global_unrest = -3
}

inverse_republican_tradition = {
	stability_cost_modifier = 2.0
}


curia_controller = {
	diplomats = 1							#1 extra diplomat as curia controller
	prestige = 1							#1% extra prestige yearly
	stability_cost_modifier = -0.1			#10% cheaper stability
	advisor_pool = 2
	advisor_cost = -0.2
	free_leader_pool = 1
	ae_impact = -0.2
	technology_cost = -0.05
}

religious_unity = {
	monthly_fervor_increase = 1
}

inverse_religious_unity = {
	stability_cost_modifier = 1.0		#more expensive to recover stability
	global_unrest = 3
	church_power_modifier = -1
	devotion = -1
}

total_occupation = {
	war_exhaustion = 0.005					#increases exhaustion.
}

total_blockaded = {
	war_exhaustion = 0.10					#increases exhaustion.  
}

uncontested_cores = {
	prestige = -0.1
}


production_leader = {
	trade_goods_size_modifier = 0.10
}


bonus_from_merchant_republics = {
	trade_goods_size_modifier = 1.0
}


western_influences = {
	global_unrest = 3
	stability_cost_modifier = 2.0
	advisor_cost = 0.5
}

federation_leader = {
	diplomatic_reputation = 1
	land_morale = 0.1
	naval_morale = 0.1
}

in_protectorate = {
	technology_cost = -0.20
}


liberty_desire = {
}                       


power_projection = {
	defensiveness = 0.1
	global_trade_power = 0.2
	land_morale = 0.1
	naval_morale = 0.1
	legitimacy = 0.5
	republican_tradition = 0.002
}

power_projection_25 = {
	free_leader_pool = 1
}

trade_company_strong = {
	merchants = 1
}

trade_company_dominant = {
}


large_colonial_nation = {
	merchants = 1
	global_trade_power = 0.05
	naval_forcelimit = 10
}

march_subject = {
	land_forcelimit = 2
}

vassal_subject = {
	land_forcelimit = 1
}

protecorate_subject = {
}

union_subject = {
}

indep_nation = {
	global_tax_income = 12
	land_forcelimit	= 6
	naval_forcelimit = 6
}

subject_nation = {
	global_tax_income = 4
	land_forcelimit	= 2
	naval_forcelimit = 2
	development_cost = 0.2
}

primitive_nation = {
	development_cost = 1
}

gov_rank_1 = {
}

gov_rank_2 = {
}

gov_rank_3 = {
}

gov_rank_4 = {
	merchants = 1
}

gov_rank_5 = {
	diplomats = 1
	merchants = 2
	diplomatic_upkeep = 1
}

gov_rank_6 = {
	diplomats = 1
	merchants = 3
	free_leader_pool = 1
	diplomatic_upkeep = 2
}

gov_rank_7 = {
}

gov_rank_8 = {
}

gov_rank_9 = {
}

gov_rank_10 = {
}


# For autonomy mechanics
autonomy_increased = {
	local_unrest = -10
}

autonomy_decreased = {
	local_unrest = 10
}

revolution_target = {
	global_manpower_modifier = 0.10
	land_morale = 0.10
	war_exhaustion = -0.15
	unjustified_demands = -0.5
	land_maintenance_modifier = -0.50
	naval_maintenance_modifier = -0.50
	land_forcelimit_modifier = 0.4
	naval_forcelimit_modifier = 0.4
	papal_influence = -100
}

##################################################################################################
# Scripted and used from Diplomatic System
##################################################################################################

spies_infiltrated = {
	spy_offence = -0.25					#25% worse spies.
}



discontent_sowed = {
	global_unrest = 3
	legitimacy = -1
	republican_tradition = -0.01
}


##################################################
# Tutorial only
##################################################

tutorial_colonial_range = {
	range = 0.1
}


########################################
# For Dutch Mechanics
########################################

statists = {
	naval_forcelimit_modifier = 0.10	
	global_trade_power = 0.05
	republican_tradition = 0.01

}

orangists = {
	land_forcelimit_modifier = 0.25
	stability_cost_modifier = -0.10
	republican_tradition = -0.01
}

########################################
# Nation Designer
########################################

custom_setup = {
	colonists = 1
}
########################################
# Subject Interactions (the on/off ones)
########################################

embargo_rivals = {
}

scutage = {
}

subsidize_armies = {
}

support_loyalists = {
}

send_officers = {
	discipline = 0.05
	land_morale = 0.2
}

divert_trade = {
}

########################################
# Karma
########################################

karma_just_right =
{
	diplomatic_reputation = 1
	discipline = 0.05
}

karma_too_high =
{
	diplomatic_reputation = -2
}

karma_too_low =
{
	discipline = -0.10
}